{
	"obj_data": {
		"dataset": "Tjarnberg-ID916134-D20151111-N10-E30-SNR10-IDY916134",
		"network": "Tjarnberg-D20131025-random-N10-L25-ID916134",
		"P": [
			[1,0,0,0,0,0,0,0,0,0,1,0,0,0,0,0,0,0,0,0,1,0,0,0,0,0,0,0,0,0],
			[0,1,0,0,0,0,0,0,0,0,0,1,0,0,0,0,0,0,0,0,0,1,0,0,0,0,0,0,0,0],
			[0,0,1,0,0,0,0,0,0,0,0,0,1,0,0,0,0,0,0,0,0,0,1,0,0,0,0,0,0,0],
			[0,0,0,1,0,0,0,0,0,0,0,0,0,1,0,0,0,0,0,0,0,0,0,1,0,0,0,0,0,0],
			[0,0,0,0,1,0,0,0,0,0,0,0,0,0,1,0,0,0,0,0,0,0,0,0,1,0,0,0,0,0],
			[0,0,0,0,0,1,0,0,0,0,0,0,0,0,0,1,0,0,0,0,0,0,0,0,0,1,0,0,0,0],
			[0,0,0,0,0,0,1,0,0,0,0,0,0,0,0,0,1,0,0,0,0,0,0,0,0,0,1,0,0,0],
			[0,0,0,0,0,0,0,1,0,0,0,0,0,0,0,0,0,1,0,0,0,0,0,0,0,0,0,1,0,0],
			[0,0,0,0,0,0,0,0,1,0,0,0,0,0,0,0,0,0,1,0,0,0,0,0,0,0,0,0,1,0],
			[0,0,0,0,0,0,0,0,0,1,0,0,0,0,0,0,0,0,0,1,0,0,0,0,0,0,0,0,0,1]
		],
		"F": [
			[0,0,0,0,0,0,0,0,0,0,0,0,0,0,0,0,0,0,0,0,0,0,0,0,0,0,0,0,0,0],
			[0,0,0,0,0,0,0,0,0,0,0,0,0,0,0,0,0,0,0,0,0,0,0,0,0,0,0,0,0,0],
			[0,0,0,0,0,0,0,0,0,0,0,0,0,0,0,0,0,0,0,0,0,0,0,0,0,0,0,0,0,0],
			[0,0,0,0,0,0,0,0,0,0,0,0,0,0,0,0,0,0,0,0,0,0,0,0,0,0,0,0,0,0],
			[0,0,0,0,0,0,0,0,0,0,0,0,0,0,0,0,0,0,0,0,0,0,0,0,0,0,0,0,0,0],
			[0,0,0,0,0,0,0,0,0,0,0,0,0,0,0,0,0,0,0,0,0,0,0,0,0,0,0,0,0,0],
			[0,0,0,0,0,0,0,0,0,0,0,0,0,0,0,0,0,0,0,0,0,0,0,0,0,0,0,0,0,0],
			[0,0,0,0,0,0,0,0,0,0,0,0,0,0,0,0,0,0,0,0,0,0,0,0,0,0,0,0,0,0],
			[0,0,0,0,0,0,0,0,0,0,0,0,0,0,0,0,0,0,0,0,0,0,0,0,0,0,0,0,0,0],
			[0,0,0,0,0,0,0,0,0,0,0,0,0,0,0,0,0,0,0,0,0,0,0,0,0,0,0,0,0,0]
		],
		"cvP": [
			[0,0,0,0,0,0,0,0,0,0],
			[0,0,0,0,0,0,0,0,0,0],
			[0,0,0,0,0,0,0,0,0,0],
			[0,0,0,0,0,0,0,0,0,0],
			[0,0,0,0,0,0,0,0,0,0],
			[0,0,0,0,0,0,0,0,0,0],
			[0,0,0,0,0,0,0,0,0,0],
			[0,0,0,0,0,0,0,0,0,0],
			[0,0,0,0,0,0,0,0,0,0],
			[0,0,0,0,0,0,0,0,0,0]
		],
		"sdP": [
			[0,0,0,0,0,0,0,0,0,0,0,0,0,0,0,0,0,0,0,0,0,0,0,0,0,0,0,0,0,0],
			[0,0,0,0,0,0,0,0,0,0,0,0,0,0,0,0,0,0,0,0,0,0,0,0,0,0,0,0,0,0],
			[0,0,0,0,0,0,0,0,0,0,0,0,0,0,0,0,0,0,0,0,0,0,0,0,0,0,0,0,0,0],
			[0,0,0,0,0,0,0,0,0,0,0,0,0,0,0,0,0,0,0,0,0,0,0,0,0,0,0,0,0,0],
			[0,0,0,0,0,0,0,0,0,0,0,0,0,0,0,0,0,0,0,0,0,0,0,0,0,0,0,0,0,0],
			[0,0,0,0,0,0,0,0,0,0,0,0,0,0,0,0,0,0,0,0,0,0,0,0,0,0,0,0,0,0],
			[0,0,0,0,0,0,0,0,0,0,0,0,0,0,0,0,0,0,0,0,0,0,0,0,0,0,0,0,0,0],
			[0,0,0,0,0,0,0,0,0,0,0,0,0,0,0,0,0,0,0,0,0,0,0,0,0,0,0,0,0,0],
			[0,0,0,0,0,0,0,0,0,0,0,0,0,0,0,0,0,0,0,0,0,0,0,0,0,0,0,0,0,0],
			[0,0,0,0,0,0,0,0,0,0,0,0,0,0,0,0,0,0,0,0,0,0,0,0,0,0,0,0,0,0]
		],
		"Y": [
			[0.81900373,-1.154757868,-0.122702045,1.15421404,0.5292244606,0.536630229,-0.3404429779,1.677968584,-0.5810212161,-1.882107315,-0.1948329456,-0.4989764527,-1.438466096,-2.297622126,1.671388197,1.462003308,-2.367826951,1.788855659,1.614992842,-1.478585285,0.2533624821,1.364222976,-0.1724054477,0.8684714916,0.2165622914,-0.8407356798,-1.176548856,0.4764725919,-0.4683129231,-2.154425132],
			[-1.17779936,-0.374439297,1.119519581,0.8226370994,-1.99081582,0.4586483343,0.1458827011,-0.7293320984,1.493492873,-0.7952013059,-1.602202586,0.9329424048,-1.358066608,-0.3861770351,1.222653378,0.4424618291,-0.1672500639,-1.83939552,-1.076986318,0.1613439768,1.751833288,0.8467050445,-0.5915437838,1.3988378,-0.1998734922,0.1173901045,-1.131673942,-0.4086187853,-0.7432260999,0.737867405],
			[0.1044897353,-0.04606102214,0.2184396101,-0.2195609439,1.205987382,-0.2673671053,-0.4094254941,1.112373511,-0.8414006655,-0.8123418919,-0.263826928,0.3479072879,-1.89290784,-1.401136228,-0.3608406996,-1.290264848,0.2395205942,-0.2847827585,0.498768319,-1.696258293,-0.4593277068,1.769546037,0.1867121528,0.7600019273,-0.08384795903,1.553382478,-0.4845274376,0.2128782901,0.3038133631,-0.8751374913],
			[0.8551127351,0.2509962026,0.4503772104,0.1925451251,2.622204042,1.586092967,-1.134611511,0.9855633098,-1.339421243,0.9642121393,1.017303603,-0.02704593652,-0.04983493374,1.47973309,0.6022861532,-0.3301433507,-0.9041642017,-0.04444604419,0.2031636161,0.09307922318,0.3186399544,0.5371599681,0.1336069179,2.335111733,1.054690887,-0.6279977602,0.1953556314,-0.1762371115,-0.861927564,-0.09371420806],
			[0.6183961463,0.3874136028,0.1561566979,-1.037373935,4.267458445,-0.8882958351,1.1037355,0.03140211438,-0.7409537903,0.01606038502,-0.09010952674,0.1065311492,2.521153481,-2.034332434,4.653014797,1.666784589,0.9686325798,-1.073782433,-1.39888265,-0.8041296251,0.4500973642,1.616695607,0.6259333886,-0.9763780911,5.212558772,0.4709973956,-1.262943531,0.1874510738,-3.465199165,-0.5595035752],
			[-1.438298237,-0.9353779831,0.5244082953,-0.3029793615,3.467225963,-0.249816809,-3.436129526,0.6012448504,-1.134523703,0.966784311,1.494768045,-0.8152278061,-0.5502139993,-0.0652051945,1.047054149,0.3405640467,-0.5726794723,0.280979744,-0.3622965441,-0.6267760853,-0.5546898468,0.124374178,0.1144646445,-1.162710009,1.41824344,0.9566750899,-0.2521873314,1.095822497,-0.6166811519,-0.208492215],
			[1.480872188,-1.092143542,1.375524554,0.3261049684,-7.928573834,-0.9929677708,3.874799083,-0.5131283845,2.324663889,-0.7774177456,-0.452398852,-0.267774193,-2.047073265,-0.1107896295,-5.806099119,-0.7534400591,5.297144577,0.4101131316,1.220103312,-0.9576587114,2.039401274,-0.1409685272,2.3607893,1.623817382,-6.507169322,0.7873690922,4.710699178,0.9803797898,0.3300773526,-0.4959608279],
			[0.009434368831,0.274559032,-1.199382452,1.153970852,0.6749856409,-0.01538713786,0.504322836,1.550295017,-0.1642258036,-0.5042567883,-0.5368441805,-0.4811565016,-0.4382515356,0.1559474211,0.4724085858,0.1339650604,-0.1520956385,1.818487226,0.2952478984,1.271735785,-0.6060543881,-1.002873703,-1.093696563,-1.372606664,0.2597678181,1.241061281,-0.320808376,0.5313492493,-0.8383551952,0.2910745625],
			[-1.415510793,0.3775162866,-0.4278949483,-0.8977081121,1.7116557,-0.9373409225,0.9514951346,-0.5206322187,-0.2243210051,-2.275490318,0.06791687246,1.50612185,-0.7371671064,-0.6102339493,1.582710124,0.02660408662,-0.319419321,0.4561037863,0.5667942682,-1.652759639,1.265962082,-2.995667748,1.008507841,-0.1876193485,0.3327623899,-1.601163807,2.337055778,0.6829420168,1.443617911,1.014548262],
			[1.766469386,1.195495048,0.09037712043,0.7983351367,0.3193431573,0.6155517068,0.8143962903,0.07024287507,-0.8711702907,1.699288933,0.007946424888,4.079780432,-1.253970237,0.06705458471,1.516531655,0.205161356,0.3718253449,0.1798838023,-0.9090007882,3.521816765,-0.2182780248,0.85856925,0.668141889,-0.18976319,0.4500439801,-1.806692639,-1.511497465,-0.2178035998,0.2488839912,1.124873108]
		],
		"E": [
			[0.7029122963,-1.154998932,-0.1226401191,1.15421404,0.4326375347,0.5115950313,-0.2744860497,1.677825196,-0.5648225368,-1.883093811,-0.3109243792,-0.4992175166,-1.43840417,-2.297622126,1.574801271,1.43696811,-2.301870023,1.788712271,1.631191522,-1.479571781,0.1372710485,1.363981912,-0.1723435218,0.8684714916,0.1199753655,-0.8657708775,-1.110591928,0.4763292034,-0.4521142438,-2.155411628],
			[-1.17779936,-0.641544748,1.188135186,0.8226370994,-1.87099538,0.4897056266,0.06406015569,-0.7336626103,1.473023578,-0.7939775131,-1.602202586,0.6658369537,-1.289451003,-0.3861770351,1.342473818,0.4735191214,-0.2490726094,-1.843726032,-1.097455613,0.1625677696,1.751833288,0.5795995934,-0.5229281787,1.3988378,-0.08005305255,0.1484473968,-1.213496487,-0.4129492971,-0.7636953949,0.7390911977],
			[0.1044897353,-0.0467274628,0.05995116594,-0.2195609439,0.9292259217,-0.3391032932,-0.2204316361,1.122376135,-0.7941206522,-0.8151686106,-0.263826928,0.3472408472,-2.051396284,-1.401136228,-0.6376021598,-1.362001036,0.4285144522,-0.2747801347,0.5460483323,-1.699085012,-0.4593277068,1.768879596,0.02822370859,0.7600019273,-0.3606094192,1.481646291,-0.2955335797,0.2228809139,0.3510933764,-0.87796421],
			[0.9868853645,0.2469238015,0.4514233525,-0.3521171843,0.9905176616,1.163162112,-0.02037145852,0.9831409846,-1.065769668,0.9475468188,1.149076232,-0.03111833757,-0.04878879162,0.9350707803,-1.029400227,-0.7530742049,0.210075851,-0.04686836941,0.4768151903,0.07641390268,0.4504125838,0.5330875671,0.13465306,1.790449423,-0.5769954935,-1.050928614,1.309595684,-0.1786594368,-0.5882759898,-0.1103795286],
			[0.6183961463,0.3972113586,0.1536397932,-1.037373935,0.4751844966,-0.8894350547,1.106736851,0.02609704598,0.5798263571,-0.02267221799,-0.09010952674,0.116328905,2.518636576,-2.034332434,0.8607408483,1.66564537,0.9716339312,-1.079087501,-0.07810250258,-0.8428622281,0.4500973642,1.626493363,0.623416484,-0.9763780911,1.420284823,0.469858176,-1.25994218,0.1821460054,-2.144419018,-0.5982361782],
			[-1.438298237,-0.9403279244,0.5256798651,-0.3029793615,1.483936045,-0.763882814,-2.08178773,0.598300551,-0.8019043867,0.946527868,1.494768045,-0.8201777474,-0.5489424295,-0.0652051945,-0.9362357685,-0.1735019583,0.7816623237,0.2780354446,-0.02967722779,-0.6470325283,-0.5546898468,0.1194242366,0.1157362143,-1.162710009,-0.5650464775,0.4426090849,1.102154465,1.092878197,-0.2840618356,-0.228748658],
			[1.480872188,-1.074114993,1.370893275,0.3261049684,-0.7050862246,-0.9950640138,-1.057949827,-0.5024047329,1.113206357,-0.7036402492,-0.452398852,-0.2497456436,-2.051704544,-0.1107896295,1.41738849,-0.7555363021,0.3643956663,0.4208367832,0.008645780027,-0.8838812149,2.039401274,-0.1229399778,2.356158021,1.623817382,0.7163182873,0.7852728492,-0.222049732,0.9911034414,-0.8813801796,-0.4221833314],
			[0.009434368831,0.274559032,-1.199382452,1.153970852,0.6749856409,-0.01538713786,0.504322836,1.435454129,-0.1642258036,-0.5042567883,-0.5368441805,-0.4811565016,-0.4382515356,0.1559474211,0.4724085858,0.1339650604,-0.1520956385,1.703646338,0.2952478984,1.271735785,-0.6060543881,-1.002873703,-1.093696563,-1.372606664,0.2597678181,1.241061281,-0.320808376,0.4165083613,-0.8383551952,0.2910745625],
			[-1.415510793,0.3741676805,-0.4270347388,-0.8977081121,1.713157846,-0.9369515683,0.9504693544,-0.5206865088,-0.3437472475,-2.275474976,0.06791687246,1.502773244,-0.736306897,-0.6102339493,1.58421227,0.02699344086,-0.3204451011,0.4560494963,0.4473680259,-1.652744296,1.265962082,-2.999016354,1.009368051,-0.1876193485,0.3342645362,-1.600774453,2.336029998,0.6828877267,1.324191668,1.014563605],
			[1.766469386,-0.1146361084,0.4269312481,0.7983351367,0.9070529571,0.7678852744,0.4130631627,-0.2132659549,-0.9715705674,-0.151718674,0.007946424888,2.769649275,-0.9174161092,0.06705458471,2.104241455,0.3574949236,-0.02950778267,-0.1036250276,-1.009401065,1.670809158,-0.2182780248,-0.4515619068,1.004696017,-0.18976319,1.03775378,-1.654359071,-1.912830593,-0.5013124297,0.1484837145,-0.7261344987]
		],
		"cvY": [
			[0.9928950792,0,0,0,0,0,0,0,0,0],
			[0,0.9928950792,0,0,0,0,0,0,0,0],
			[0,0,0.9928950792,0,0,0,0,0,0,0],
			[0,0,0,0.9928950792,0,0,0,0,0,0],
			[0,0,0,0,0.9928950792,0,0,0,0,0],
			[0,0,0,0,0,0.9928950792,0,0,0,0],
			[0,0,0,0,0,0,0.9928950792,0,0,0],
			[0,0,0,0,0,0,0,0.9928950792,0,0],
			[0,0,0,0,0,0,0,0,0.9928950792,0],
			[0,0,0,0,0,0,0,0,0,0.9928950792]
		],
		"sdY": [
			[0.9964412071,0.9964412071,0.9964412071,0.9964412071,0.9964412071,0.9964412071,0.9964412071,0.9964412071,0.9964412071,0.9964412071,0.9964412071,0.9964412071,0.9964412071,0.9964412071,0.9964412071,0.9964412071,0.9964412071,0.9964412071,0.9964412071,0.9964412071,0.9964412071,0.9964412071,0.9964412071,0.9964412071,0.9964412071,0.9964412071,0.9964412071,0.9964412071,0.9964412071,0.9964412071],
			[0.9964412071,0.9964412071,0.9964412071,0.9964412071,0.9964412071,0.9964412071,0.9964412071,0.9964412071,0.9964412071,0.9964412071,0.9964412071,0.9964412071,0.9964412071,0.9964412071,0.9964412071,0.9964412071,0.9964412071,0.9964412071,0.9964412071,0.9964412071,0.9964412071,0.9964412071,0.9964412071,0.9964412071,0.9964412071,0.9964412071,0.9964412071,0.9964412071,0.9964412071,0.9964412071],
			[0.9964412071,0.9964412071,0.9964412071,0.9964412071,0.9964412071,0.9964412071,0.9964412071,0.9964412071,0.9964412071,0.9964412071,0.9964412071,0.9964412071,0.9964412071,0.9964412071,0.9964412071,0.9964412071,0.9964412071,0.9964412071,0.9964412071,0.9964412071,0.9964412071,0.9964412071,0.9964412071,0.9964412071,0.9964412071,0.9964412071,0.9964412071,0.9964412071,0.9964412071,0.9964412071],
			[0.9964412071,0.9964412071,0.9964412071,0.9964412071,0.9964412071,0.9964412071,0.9964412071,0.9964412071,0.9964412071,0.9964412071,0.9964412071,0.9964412071,0.9964412071,0.9964412071,0.9964412071,0.9964412071,0.9964412071,0.9964412071,0.9964412071,0.9964412071,0.9964412071,0.9964412071,0.9964412071,0.9964412071,0.9964412071,0.9964412071,0.9964412071,0.9964412071,0.9964412071,0.9964412071],
			[0.9964412071,0.9964412071,0.9964412071,0.9964412071,0.9964412071,0.9964412071,0.9964412071,0.9964412071,0.9964412071,0.9964412071,0.9964412071,0.9964412071,0.9964412071,0.9964412071,0.9964412071,0.9964412071,0.9964412071,0.9964412071,0.9964412071,0.9964412071,0.9964412071,0.9964412071,0.9964412071,0.9964412071,0.9964412071,0.9964412071,0.9964412071,0.9964412071,0.9964412071,0.9964412071],
			[0.9964412071,0.9964412071,0.9964412071,0.9964412071,0.9964412071,0.9964412071,0.9964412071,0.9964412071,0.9964412071,0.9964412071,0.9964412071,0.9964412071,0.9964412071,0.9964412071,0.9964412071,0.9964412071,0.9964412071,0.9964412071,0.9964412071,0.9964412071,0.9964412071,0.9964412071,0.9964412071,0.9964412071,0.9964412071,0.9964412071,0.9964412071,0.9964412071,0.9964412071,0.9964412071],
			[0.9964412071,0.9964412071,0.9964412071,0.9964412071,0.9964412071,0.9964412071,0.9964412071,0.9964412071,0.9964412071,0.9964412071,0.9964412071,0.9964412071,0.9964412071,0.9964412071,0.9964412071,0.9964412071,0.9964412071,0.9964412071,0.9964412071,0.9964412071,0.9964412071,0.9964412071,0.9964412071,0.9964412071,0.9964412071,0.9964412071,0.9964412071,0.9964412071,0.9964412071,0.9964412071],
			[0.9964412071,0.9964412071,0.9964412071,0.9964412071,0.9964412071,0.9964412071,0.9964412071,0.9964412071,0.9964412071,0.9964412071,0.9964412071,0.9964412071,0.9964412071,0.9964412071,0.9964412071,0.9964412071,0.9964412071,0.9964412071,0.9964412071,0.9964412071,0.9964412071,0.9964412071,0.9964412071,0.9964412071,0.9964412071,0.9964412071,0.9964412071,0.9964412071,0.9964412071,0.9964412071],
			[0.9964412071,0.9964412071,0.9964412071,0.9964412071,0.9964412071,0.9964412071,0.9964412071,0.9964412071,0.9964412071,0.9964412071,0.9964412071,0.9964412071,0.9964412071,0.9964412071,0.9964412071,0.9964412071,0.9964412071,0.9964412071,0.9964412071,0.9964412071,0.9964412071,0.9964412071,0.9964412071,0.9964412071,0.9964412071,0.9964412071,0.9964412071,0.9964412071,0.9964412071,0.9964412071],
			[0.9964412071,0.9964412071,0.9964412071,0.9964412071,0.9964412071,0.9964412071,0.9964412071,0.9964412071,0.9964412071,0.9964412071,0.9964412071,0.9964412071,0.9964412071,0.9964412071,0.9964412071,0.9964412071,0.9964412071,0.9964412071,0.9964412071,0.9964412071,0.9964412071,0.9964412071,0.9964412071,0.9964412071,0.9964412071,0.9964412071,0.9964412071,0.9964412071,0.9964412071,0.9964412071]
		],
		"lambda": [0.9928950792,0],
		"SNR_L": 0.01,
		"names": [
			"G01",
			"G02",
			"G03",
			"G04",
			"G05",
			"G06",
			"G07",
			"G08",
			"G09",
			"G10"
		],
		"description": "",
		"N": 10,
		"M": 30,
		"created": {
			"creator": "sparx",
			"time": 736279.7794,
			"id": "916134",
			"nexp": ""
		},
		"tol": 2.220446049e-16
	}
}
