{
	"obj_data": {
		"dataset": "Tjarnberg-ID989678-D20151111-N10-E30-SNR1000-IDY989678",
		"network": "Tjarnberg-D20150924-smallworld-N10-L29-ID989678",
		"P": [
			[1,0,0,0,0,0,0,0,0,0,1,0,0,0,0,0,0,0,0,0,1,0,0,0,0,0,0,0,0,0],
			[0,1,0,0,0,0,0,0,0,0,0,1,0,0,0,0,0,0,0,0,0,1,0,0,0,0,0,0,0,0],
			[0,0,1,0,0,0,0,0,0,0,0,0,1,0,0,0,0,0,0,0,0,0,1,0,0,0,0,0,0,0],
			[0,0,0,1,0,0,0,0,0,0,0,0,0,1,0,0,0,0,0,0,0,0,0,1,0,0,0,0,0,0],
			[0,0,0,0,1,0,0,0,0,0,0,0,0,0,1,0,0,0,0,0,0,0,0,0,1,0,0,0,0,0],
			[0,0,0,0,0,1,0,0,0,0,0,0,0,0,0,1,0,0,0,0,0,0,0,0,0,1,0,0,0,0],
			[0,0,0,0,0,0,1,0,0,0,0,0,0,0,0,0,1,0,0,0,0,0,0,0,0,0,1,0,0,0],
			[0,0,0,0,0,0,0,1,0,0,0,0,0,0,0,0,0,1,0,0,0,0,0,0,0,0,0,1,0,0],
			[0,0,0,0,0,0,0,0,1,0,0,0,0,0,0,0,0,0,1,0,0,0,0,0,0,0,0,0,1,0],
			[0,0,0,0,0,0,0,0,0,1,0,0,0,0,0,0,0,0,0,1,0,0,0,0,0,0,0,0,0,1]
		],
		"F": [
			[0,0,0,0,0,0,0,0,0,0,0,0,0,0,0,0,0,0,0,0,0,0,0,0,0,0,0,0,0,0],
			[0,0,0,0,0,0,0,0,0,0,0,0,0,0,0,0,0,0,0,0,0,0,0,0,0,0,0,0,0,0],
			[0,0,0,0,0,0,0,0,0,0,0,0,0,0,0,0,0,0,0,0,0,0,0,0,0,0,0,0,0,0],
			[0,0,0,0,0,0,0,0,0,0,0,0,0,0,0,0,0,0,0,0,0,0,0,0,0,0,0,0,0,0],
			[0,0,0,0,0,0,0,0,0,0,0,0,0,0,0,0,0,0,0,0,0,0,0,0,0,0,0,0,0,0],
			[0,0,0,0,0,0,0,0,0,0,0,0,0,0,0,0,0,0,0,0,0,0,0,0,0,0,0,0,0,0],
			[0,0,0,0,0,0,0,0,0,0,0,0,0,0,0,0,0,0,0,0,0,0,0,0,0,0,0,0,0,0],
			[0,0,0,0,0,0,0,0,0,0,0,0,0,0,0,0,0,0,0,0,0,0,0,0,0,0,0,0,0,0],
			[0,0,0,0,0,0,0,0,0,0,0,0,0,0,0,0,0,0,0,0,0,0,0,0,0,0,0,0,0,0],
			[0,0,0,0,0,0,0,0,0,0,0,0,0,0,0,0,0,0,0,0,0,0,0,0,0,0,0,0,0,0]
		],
		"cvP": [
			[0,0,0,0,0,0,0,0,0,0],
			[0,0,0,0,0,0,0,0,0,0],
			[0,0,0,0,0,0,0,0,0,0],
			[0,0,0,0,0,0,0,0,0,0],
			[0,0,0,0,0,0,0,0,0,0],
			[0,0,0,0,0,0,0,0,0,0],
			[0,0,0,0,0,0,0,0,0,0],
			[0,0,0,0,0,0,0,0,0,0],
			[0,0,0,0,0,0,0,0,0,0],
			[0,0,0,0,0,0,0,0,0,0]
		],
		"sdP": [
			[0,0,0,0,0,0,0,0,0,0,0,0,0,0,0,0,0,0,0,0,0,0,0,0,0,0,0,0,0,0],
			[0,0,0,0,0,0,0,0,0,0,0,0,0,0,0,0,0,0,0,0,0,0,0,0,0,0,0,0,0,0],
			[0,0,0,0,0,0,0,0,0,0,0,0,0,0,0,0,0,0,0,0,0,0,0,0,0,0,0,0,0,0],
			[0,0,0,0,0,0,0,0,0,0,0,0,0,0,0,0,0,0,0,0,0,0,0,0,0,0,0,0,0,0],
			[0,0,0,0,0,0,0,0,0,0,0,0,0,0,0,0,0,0,0,0,0,0,0,0,0,0,0,0,0,0],
			[0,0,0,0,0,0,0,0,0,0,0,0,0,0,0,0,0,0,0,0,0,0,0,0,0,0,0,0,0,0],
			[0,0,0,0,0,0,0,0,0,0,0,0,0,0,0,0,0,0,0,0,0,0,0,0,0,0,0,0,0,0],
			[0,0,0,0,0,0,0,0,0,0,0,0,0,0,0,0,0,0,0,0,0,0,0,0,0,0,0,0,0,0],
			[0,0,0,0,0,0,0,0,0,0,0,0,0,0,0,0,0,0,0,0,0,0,0,0,0,0,0,0,0,0],
			[0,0,0,0,0,0,0,0,0,0,0,0,0,0,0,0,0,0,0,0,0,0,0,0,0,0,0,0,0,0]
		],
		"Y": [
			[2.986091159,0.4562983132,-0.001135410437,0.4827449084,2.060401152,-1.03339578,-0.002541210232,0.01553341803,-0.005229164874,-0.01743380862,2.976704991,0.4623695815,-0.01331684214,0.450787578,2.07097538,-1.024828614,-0.02131086684,0.016560018,0.01510168035,-0.01369797464,2.980854415,0.4796192066,-0.001595567867,0.4800994848,2.057506504,-1.046147526,-0.01028193445,0.004409887667,-0.004185703949,-0.0199549452],
			[0.4560872253,0.1648658703,0.01099983513,0.1802749275,0.7348192209,-0.3751703147,0.0005930732117,-0.006792297582,0.01363735094,-0.007350696993,0.4521580718,0.1769696977,-0.01193782374,0.1690836453,0.7645697339,-0.3753201705,-0.002305930899,-0.01706933909,-0.01016031756,0.001505063299,0.4832099606,0.1761713064,-0.004841304101,0.1856094322,0.7513998849,-0.3783297063,-0.01123463175,-0.00382311225,-0.007070343114,0.006842555809],
			[-0.6404391237,-0.113597526,0.1651585948,0.1276590453,1.244809919,-0.6272149976,0.1165032618,0.3020753356,0.1709197631,0.5104505021,-0.643849024,-0.109950141,0.1456115987,0.1167199422,1.23030412,-0.6366850534,0.1225112482,0.2891403693,0.1833271373,0.5022671448,-0.6456589833,-0.09678851426,0.1648648599,0.1367279039,1.232868537,-0.610358376,0.115807963,0.2937477486,0.1815222313,0.5098691362],
			[-0.3737039426,-0.1377405667,0.004179307631,0.176576333,0.7925774929,-0.3847195502,-0.0001886003274,0.00910198508,-0.009866966968,0.00877245191,-0.3722023687,-0.1403146995,-0.0004516899004,0.1884932054,0.7738769578,-0.4024601944,0.001944896298,-0.000433910503,0.004414386966,0.0007074450287,-0.3786706436,-0.1350912434,0.001246627048,0.1964123581,0.7780653511,-0.4052177504,0.01212432455,-0.001654041031,-0.005446298513,-0.001021901068],
			[-2.71483819,-0.991387513,0.001422407496,0.3845467915,5.571491667,-2.818674804,0.01024624389,0.0002416081995,0.005368071247,-0.0002099009126,-2.721397583,-0.9939879415,0.02331770611,0.375316883,5.575061174,-2.795019698,0.008995452009,-0.009990264358,-0.0007230781997,-0.007803274958,-2.716396312,-0.9800067378,0.005771631561,0.3851114951,5.580241469,-2.806090376,-0.01166462908,0.001686319917,-0.01985317489,-0.005538510604],
			[4.853519921,1.771373342,0.004866779398,1.089820784,2.829821559,5.020545351,-0.01927333023,0.005539106572,-0.007424084519,0.008763018395,4.880674445,1.772485701,-0.005082145777,1.092022113,2.807415446,5.026011136,0.007236682144,0.002574070767,-0.0002747537625,-0.005990270481,4.861700426,1.781184599,0.001071493623,1.08186134,2.810851942,5.031715134,0.01020381985,0.01011793954,-0.002629863499,-0.002117770396],
			[-1.1151724,-0.1515328079,0.2748992495,0.2487120235,2.133027556,-1.089326031,0.7080471825,1.202945726,0.5432784415,1.150796482,-1.133070753,-0.1439007413,0.2432126097,0.244667224,2.152677569,-1.087108467,0.7212153523,1.211493158,0.5330523457,1.149127799,-1.1100015,-0.1427267659,0.2840208965,0.2607263319,2.146187014,-1.072843553,0.7157860015,1.216772725,0.5248124258,1.153402229],
			[-1.698514889,-0.155460656,0.3571497506,0.3970366167,3.191000207,-1.607903299,1.0128323,2.493932259,1.009970725,1.971502108,-1.703572372,-0.162457121,0.3641963516,0.3877968489,3.189124736,-1.606520586,1.006755134,2.496415201,1.014224563,1.987944366,-1.704213125,-0.1672872138,0.3581281976,0.3736453928,3.187156093,-1.596271015,1.00519318,2.484498791,1.00372959,1.978865339],
			[-0.655145359,-0.02321696176,0.1194620809,0.1477269575,1.198876442,-0.605897369,0.3466727315,0.8265356377,0.5049263346,0.8668318771,-0.6414116863,-0.01276825587,0.1165988186,0.1503884125,1.197682655,-0.5969731015,0.3349065203,0.835578325,0.5122505327,0.8725971594,-0.6303201035,-0.05444612547,0.1327603942,0.1543010068,1.186110555,-0.6120430857,0.3595003447,0.8376784085,0.5203682247,0.8972912746],
			[-1.093379068,0.0547636257,0.1685913597,0.3079587663,1.98912253,-0.992822073,0.4545536021,1.107070858,0.6688320936,1.96813079,-1.109659591,0.08146653295,0.1561453018,0.3011885219,2.000206182,-0.9966214944,0.4504562506,1.108085921,0.6684818564,1.985003875,-1.111753993,0.05164434409,0.1739403446,0.2988108858,1.990332567,-1.015247373,0.4330203219,1.104404104,0.6792016312,1.96281281]
		],
		"E": [
			[0.006507609116,-0.01069305747,-0.001135410437,0.01068579089,0.004005387272,0.004736381064,-0.002541210232,0.01553341803,-0.005229164874,-0.01743380862,-0.002878558727,-0.004621789204,-0.01331684214,-0.02127153952,0.01457961564,0.013303547,-0.02131086684,0.016560018,0.01510168035,-0.01369797464,0.001270864561,0.01262783589,-0.001595567867,0.008040367234,0.001110739969,-0.008015364768,-0.01028193445,0.004409887667,-0.004185703949,-0.0199549452],
			[-0.01090414536,-0.005939464244,0.01099983513,0.007616029362,-0.01732180054,0.004533727489,0.0005930732117,-0.006792297582,0.01363735094,-0.007350696993,-0.01483329885,0.006164363111,-0.01193782374,-0.003575252855,0.01242871252,0.004383871739,-0.002305930899,-0.01706933909,-0.01016031756,0.001505063299,0.01621858991,0.005365971854,-0.004841304101,0.01295053404,-0.000741136522,0.001374335941,-0.01123463175,-0.00382311225,-0.007070343114,0.006842555809],
			[0.000967372968,-0.0004326059801,0.0005550319095,-0.002032709923,0.008602835817,-0.003139441,-0.002040770851,0.01039103343,-0.007352022184,-0.007546885593,-0.002442527369,0.00321477902,-0.01899196419,-0.01297181303,-0.005902963498,-0.01260949681,0.003967215498,-0.002543932891,0.005055352032,-0.01573024284,-0.004252486673,0.01637640577,0.0002612969844,0.007036148743,-0.003338546154,0.01371718059,-0.002736069674,0.002063446428,0.003250445993,-0.008128251457],
			[0.009136650801,0.002286037092,0.004179307631,-0.003259924475,0.00917027885,0.01076863274,-0.0001886003274,0.00910198508,-0.009866966968,0.00877245191,0.01063822472,-0.0002880956533,-0.0004516899004,0.008656947909,-0.009530256245,-0.006972011425,0.001944896298,-0.000433910503,0.004414386966,0.0007074450287,0.004169949867,0.004935360399,0.001246627048,0.01657610068,-0.005341862923,-0.009729567496,0.01212432455,-0.001654041031,-0.005446298513,-0.001021901068],
			[0.005725152939,0.003677409361,0.001422407496,-0.00960407737,0.004399289894,-0.008234449305,0.01024624389,0.0002416081995,0.005368071247,-0.0002099009126,-0.0008342400336,0.001076980793,0.02331770611,-0.01883398592,0.00796879642,0.01542065639,0.008995452009,-0.009990264358,-0.0007230781997,-0.007803274958,0.004167031543,0.01505818448,0.005771631561,-0.009039373759,0.01314909202,0.004349978462,-0.01166462908,0.001686319917,-0.01985317489,-0.005538510604],
			[-0.01331586141,-0.008705618902,0.004866779398,-0.002805003221,0.01373837929,-0.007072078252,-0.01927333023,0.005539106572,-0.007424084519,0.008763018395,0.01383866267,-0.007593260517,-0.005082145777,-0.0006036740577,-0.008667733448,-0.00160629275,0.007236682144,0.002574070767,-0.0002747537625,-0.005990270481,-0.005135355752,0.001105637581,0.001071493623,-0.01076444713,-0.005231238132,0.004097704551,0.01020381985,0.01011793954,-0.002629863499,-0.002117770396],
			[0.0137100139,-0.009944228539,0.01269182175,0.003019101638,-0.00652773549,-0.009212369284,-0.009794570355,-0.004651296665,0.01030613901,-0.006514348552,-0.004188338871,-0.002312161895,-0.01899481808,-0.00102569781,0.01312227757,-0.006994805686,0.003373599484,0.003896135124,8.004321054e-05,-0.008183031485,0.01888091358,-0.001138186548,0.02181346876,0.01503341008,0.006631722679,0.007270108631,-0.00205575129,0.009175702039,-0.008159876733,-0.003908601558],
			[8.734401849e-05,0.002541885906,-0.01110396307,0.01068353944,0.00624906227,-0.0001424551528,0.004669054592,0.01328953047,-0.001520413488,-0.004668443118,-0.004970139378,-0.004454579117,-0.004057362068,0.001443771669,0.004373590326,0.001240257501,-0.001408111608,0.0157724719,0.002733424818,0.01177381507,-0.005610892115,-0.009284671913,-0.01012551603,-0.01270768442,0.002404947858,0.01148982846,-0.002970065431,0.003856062304,-0.007761548545,0.002694787795],
			[-0.01310489373,0.003464069445,-0.003953516212,-0.008311041825,0.01586053008,-0.008674360371,0.00879950894,-0.004820550571,-0.003182435039,-0.02106649972,0.0006287789539,0.01391277534,-0.006816778566,-0.005649586772,0.0146667433,0.0002499070833,-0.002966702208,0.00422213678,0.004141763146,-0.01530121739,0.01172036174,-0.02776509426,0.009344797015,-0.001736992494,0.003094643463,-0.01482007709,0.02162712218,0.006322220309,0.01225945515,0.009392897801],
			[0.01635409189,-0.001061308769,0.003952558088,0.007391040164,0.008397557026,0.007109133299,0.003824166425,-0.001974430493,-0.008994865383,-0.001404621645,7.356853382e-05,0.02564159848,-0.008493499782,0.0006207958361,0.01948120832,0.003309711946,-0.0002731850282,-0.0009593674461,-0.009345102662,0.01546846309,-0.002020832573,-0.004180590376,0.009301543011,-0.001756840322,0.009607593997,-0.01531616708,-0.01770911374,-0.004641184049,0.001374672174,-0.006722601822]
		],
		"cvY": [
			[8.510282851e-05,0,0,0,0,0,0,0,0,0],
			[0,8.510282851e-05,0,0,0,0,0,0,0,0],
			[0,0,8.510282851e-05,0,0,0,0,0,0,0],
			[0,0,0,8.510282851e-05,0,0,0,0,0,0],
			[0,0,0,0,8.510282851e-05,0,0,0,0,0],
			[0,0,0,0,0,8.510282851e-05,0,0,0,0],
			[0,0,0,0,0,0,8.510282851e-05,0,0,0],
			[0,0,0,0,0,0,0,8.510282851e-05,0,0],
			[0,0,0,0,0,0,0,0,8.510282851e-05,0],
			[0,0,0,0,0,0,0,0,0,8.510282851e-05]
		],
		"sdY": [
			[0.009225119431,0.009225119431,0.009225119431,0.009225119431,0.009225119431,0.009225119431,0.009225119431,0.009225119431,0.009225119431,0.009225119431,0.009225119431,0.009225119431,0.009225119431,0.009225119431,0.009225119431,0.009225119431,0.009225119431,0.009225119431,0.009225119431,0.009225119431,0.009225119431,0.009225119431,0.009225119431,0.009225119431,0.009225119431,0.009225119431,0.009225119431,0.009225119431,0.009225119431,0.009225119431],
			[0.009225119431,0.009225119431,0.009225119431,0.009225119431,0.009225119431,0.009225119431,0.009225119431,0.009225119431,0.009225119431,0.009225119431,0.009225119431,0.009225119431,0.009225119431,0.009225119431,0.009225119431,0.009225119431,0.009225119431,0.009225119431,0.009225119431,0.009225119431,0.009225119431,0.009225119431,0.009225119431,0.009225119431,0.009225119431,0.009225119431,0.009225119431,0.009225119431,0.009225119431,0.009225119431],
			[0.009225119431,0.009225119431,0.009225119431,0.009225119431,0.009225119431,0.009225119431,0.009225119431,0.009225119431,0.009225119431,0.009225119431,0.009225119431,0.009225119431,0.009225119431,0.009225119431,0.009225119431,0.009225119431,0.009225119431,0.009225119431,0.009225119431,0.009225119431,0.009225119431,0.009225119431,0.009225119431,0.009225119431,0.009225119431,0.009225119431,0.009225119431,0.009225119431,0.009225119431,0.009225119431],
			[0.009225119431,0.009225119431,0.009225119431,0.009225119431,0.009225119431,0.009225119431,0.009225119431,0.009225119431,0.009225119431,0.009225119431,0.009225119431,0.009225119431,0.009225119431,0.009225119431,0.009225119431,0.009225119431,0.009225119431,0.009225119431,0.009225119431,0.009225119431,0.009225119431,0.009225119431,0.009225119431,0.009225119431,0.009225119431,0.009225119431,0.009225119431,0.009225119431,0.009225119431,0.009225119431],
			[0.009225119431,0.009225119431,0.009225119431,0.009225119431,0.009225119431,0.009225119431,0.009225119431,0.009225119431,0.009225119431,0.009225119431,0.009225119431,0.009225119431,0.009225119431,0.009225119431,0.009225119431,0.009225119431,0.009225119431,0.009225119431,0.009225119431,0.009225119431,0.009225119431,0.009225119431,0.009225119431,0.009225119431,0.009225119431,0.009225119431,0.009225119431,0.009225119431,0.009225119431,0.009225119431],
			[0.009225119431,0.009225119431,0.009225119431,0.009225119431,0.009225119431,0.009225119431,0.009225119431,0.009225119431,0.009225119431,0.009225119431,0.009225119431,0.009225119431,0.009225119431,0.009225119431,0.009225119431,0.009225119431,0.009225119431,0.009225119431,0.009225119431,0.009225119431,0.009225119431,0.009225119431,0.009225119431,0.009225119431,0.009225119431,0.009225119431,0.009225119431,0.009225119431,0.009225119431,0.009225119431],
			[0.009225119431,0.009225119431,0.009225119431,0.009225119431,0.009225119431,0.009225119431,0.009225119431,0.009225119431,0.009225119431,0.009225119431,0.009225119431,0.009225119431,0.009225119431,0.009225119431,0.009225119431,0.009225119431,0.009225119431,0.009225119431,0.009225119431,0.009225119431,0.009225119431,0.009225119431,0.009225119431,0.009225119431,0.009225119431,0.009225119431,0.009225119431,0.009225119431,0.009225119431,0.009225119431],
			[0.009225119431,0.009225119431,0.009225119431,0.009225119431,0.009225119431,0.009225119431,0.009225119431,0.009225119431,0.009225119431,0.009225119431,0.009225119431,0.009225119431,0.009225119431,0.009225119431,0.009225119431,0.009225119431,0.009225119431,0.009225119431,0.009225119431,0.009225119431,0.009225119431,0.009225119431,0.009225119431,0.009225119431,0.009225119431,0.009225119431,0.009225119431,0.009225119431,0.009225119431,0.009225119431],
			[0.009225119431,0.009225119431,0.009225119431,0.009225119431,0.009225119431,0.009225119431,0.009225119431,0.009225119431,0.009225119431,0.009225119431,0.009225119431,0.009225119431,0.009225119431,0.009225119431,0.009225119431,0.009225119431,0.009225119431,0.009225119431,0.009225119431,0.009225119431,0.009225119431,0.009225119431,0.009225119431,0.009225119431,0.009225119431,0.009225119431,0.009225119431,0.009225119431,0.009225119431,0.009225119431],
			[0.009225119431,0.009225119431,0.009225119431,0.009225119431,0.009225119431,0.009225119431,0.009225119431,0.009225119431,0.009225119431,0.009225119431,0.009225119431,0.009225119431,0.009225119431,0.009225119431,0.009225119431,0.009225119431,0.009225119431,0.009225119431,0.009225119431,0.009225119431,0.009225119431,0.009225119431,0.009225119431,0.009225119431,0.009225119431,0.009225119431,0.009225119431,0.009225119431,0.009225119431,0.009225119431]
		],
		"lambda": [8.510282851e-05,0],
		"SNR_L": 1,
		"names": [
			"G01",
			"G02",
			"G03",
			"G04",
			"G05",
			"G06",
			"G07",
			"G08",
			"G09",
			"G10"
		],
		"description": "",
		"N": 10,
		"M": 30,
		"created": {
			"creator": "sparx",
			"time": 736279.7794,
			"id": "989678",
			"nexp": ""
		},
		"tol": 2.220446049e-16
	}
}
