{
	"obj_data": {
		"dataset": "Tjarnberg-ID68983-D20151111-N10-E30-SNR1000-IDY68983",
		"network": "Tjarnberg-D20131025-random-N10-L25-ID68983",
		"P": [
			[1,0,0,0,0,0,0,0,0,0,1,0,0,0,0,0,0,0,0,0,1,0,0,0,0,0,0,0,0,0],
			[0,1,0,0,0,0,0,0,0,0,0,1,0,0,0,0,0,0,0,0,0,1,0,0,0,0,0,0,0,0],
			[0,0,1,0,0,0,0,0,0,0,0,0,1,0,0,0,0,0,0,0,0,0,1,0,0,0,0,0,0,0],
			[0,0,0,1,0,0,0,0,0,0,0,0,0,1,0,0,0,0,0,0,0,0,0,1,0,0,0,0,0,0],
			[0,0,0,0,1,0,0,0,0,0,0,0,0,0,1,0,0,0,0,0,0,0,0,0,1,0,0,0,0,0],
			[0,0,0,0,0,1,0,0,0,0,0,0,0,0,0,1,0,0,0,0,0,0,0,0,0,1,0,0,0,0],
			[0,0,0,0,0,0,1,0,0,0,0,0,0,0,0,0,1,0,0,0,0,0,0,0,0,0,1,0,0,0],
			[0,0,0,0,0,0,0,1,0,0,0,0,0,0,0,0,0,1,0,0,0,0,0,0,0,0,0,1,0,0],
			[0,0,0,0,0,0,0,0,1,0,0,0,0,0,0,0,0,0,1,0,0,0,0,0,0,0,0,0,1,0],
			[0,0,0,0,0,0,0,0,0,1,0,0,0,0,0,0,0,0,0,1,0,0,0,0,0,0,0,0,0,1]
		],
		"F": [
			[0,0,0,0,0,0,0,0,0,0,0,0,0,0,0,0,0,0,0,0,0,0,0,0,0,0,0,0,0,0],
			[0,0,0,0,0,0,0,0,0,0,0,0,0,0,0,0,0,0,0,0,0,0,0,0,0,0,0,0,0,0],
			[0,0,0,0,0,0,0,0,0,0,0,0,0,0,0,0,0,0,0,0,0,0,0,0,0,0,0,0,0,0],
			[0,0,0,0,0,0,0,0,0,0,0,0,0,0,0,0,0,0,0,0,0,0,0,0,0,0,0,0,0,0],
			[0,0,0,0,0,0,0,0,0,0,0,0,0,0,0,0,0,0,0,0,0,0,0,0,0,0,0,0,0,0],
			[0,0,0,0,0,0,0,0,0,0,0,0,0,0,0,0,0,0,0,0,0,0,0,0,0,0,0,0,0,0],
			[0,0,0,0,0,0,0,0,0,0,0,0,0,0,0,0,0,0,0,0,0,0,0,0,0,0,0,0,0,0],
			[0,0,0,0,0,0,0,0,0,0,0,0,0,0,0,0,0,0,0,0,0,0,0,0,0,0,0,0,0,0],
			[0,0,0,0,0,0,0,0,0,0,0,0,0,0,0,0,0,0,0,0,0,0,0,0,0,0,0,0,0,0],
			[0,0,0,0,0,0,0,0,0,0,0,0,0,0,0,0,0,0,0,0,0,0,0,0,0,0,0,0,0,0]
		],
		"cvP": [
			[0,0,0,0,0,0,0,0,0,0],
			[0,0,0,0,0,0,0,0,0,0],
			[0,0,0,0,0,0,0,0,0,0],
			[0,0,0,0,0,0,0,0,0,0],
			[0,0,0,0,0,0,0,0,0,0],
			[0,0,0,0,0,0,0,0,0,0],
			[0,0,0,0,0,0,0,0,0,0],
			[0,0,0,0,0,0,0,0,0,0],
			[0,0,0,0,0,0,0,0,0,0],
			[0,0,0,0,0,0,0,0,0,0]
		],
		"sdP": [
			[0,0,0,0,0,0,0,0,0,0,0,0,0,0,0,0,0,0,0,0,0,0,0,0,0,0,0,0,0,0],
			[0,0,0,0,0,0,0,0,0,0,0,0,0,0,0,0,0,0,0,0,0,0,0,0,0,0,0,0,0,0],
			[0,0,0,0,0,0,0,0,0,0,0,0,0,0,0,0,0,0,0,0,0,0,0,0,0,0,0,0,0,0],
			[0,0,0,0,0,0,0,0,0,0,0,0,0,0,0,0,0,0,0,0,0,0,0,0,0,0,0,0,0,0],
			[0,0,0,0,0,0,0,0,0,0,0,0,0,0,0,0,0,0,0,0,0,0,0,0,0,0,0,0,0,0],
			[0,0,0,0,0,0,0,0,0,0,0,0,0,0,0,0,0,0,0,0,0,0,0,0,0,0,0,0,0,0],
			[0,0,0,0,0,0,0,0,0,0,0,0,0,0,0,0,0,0,0,0,0,0,0,0,0,0,0,0,0,0],
			[0,0,0,0,0,0,0,0,0,0,0,0,0,0,0,0,0,0,0,0,0,0,0,0,0,0,0,0,0,0],
			[0,0,0,0,0,0,0,0,0,0,0,0,0,0,0,0,0,0,0,0,0,0,0,0,0,0,0,0,0,0],
			[0,0,0,0,0,0,0,0,0,0,0,0,0,0,0,0,0,0,0,0,0,0,0,0,0,0,0,0,0,0]
		],
		"Y": [
			[2.546117182,-0.1534055061,-0.07534327065,0.1533012577,-2.899238696,-2.640749501,-0.04106052519,-0.2431079735,-0.07501901925,-0.1091238874,2.411460669,-0.06630544295,-0.2501013978,-0.3051672822,-2.747537945,-2.517842612,-0.3103351157,-0.2283800916,0.2166528072,-0.05552859877,2.470989423,0.1811623627,-0.08194481411,0.1153492917,-2.940766093,-2.82368951,-0.1521110568,-0.4026891606,-0.06004924547,-0.1452927975],
			[-1.349368536,3.725766443,0.4389390472,-7.100145257,-0.2502689953,0.06342445137,0.8750609416,-0.4487129699,0.1956451397,-0.7766300573,-1.405737239,3.899411237,0.1098691644,-7.260698431,0.1765399436,0.0612745801,0.8334710414,-0.596150198,-0.1457626748,-0.6495829154,-0.9602584111,3.887957299,0.2116777622,-7.023615005,-0.01239828693,0.01809896231,0.7053774744,-0.4061162309,-0.1014330622,-0.5730097985],
			[-0.04209551345,-0.006206282864,0.529533842,-0.02916180853,0.1233357683,-0.04511517413,0.0113820736,4.264407807,-0.1054741067,-1.353467666,-0.09101486963,0.04612009278,0.2491073281,-0.1860971523,-0.08476836764,-0.1809751663,0.0975742772,4.078839268,0.07252545301,-1.470868331,-0.1169810373,0.2349403641,0.525319841,0.1009425005,-0.04797854007,0.1967144966,0.00140712788,4.144937983,0.04663178086,-1.361808098],
			[0.1654390302,0.03279610889,-0.2602341198,4.038199559,0.1316101722,0.154536325,-0.02766651994,0.5302941742,-0.1415541875,0.8902767353,0.1869810174,-0.004133098474,-0.326671668,4.209162246,-0.1366727823,-0.09997577362,0.002941201996,0.3934896268,0.06332999413,0.7745739566,0.09418538991,0.07080402047,-0.3023071518,4.322772562,-0.07658495437,-0.1395364218,0.1489780439,0.3759853029,-0.07813407739,0.7497642879],
			[3.038835668,0.05275711328,0.02049365443,-0.1377827019,0.06748981518,-0.1141243223,0.1470022113,0.004155866901,0.0770118078,-0.003219978535,2.944732836,0.01545065891,0.3346095539,-0.2701974764,0.1186989251,0.2252382474,0.1290580114,-0.1426333552,-0.0103734762,-0.1121565845,3.016482436,0.2160288036,0.0828888039,-0.1296813106,0.1930168524,0.06641529567,-0.1673371222,0.0248820935,-0.284819038,-0.07966566014],
			[-0.2037764333,-0.1248931728,0.1885656524,-0.0402413379,0.1970756575,5.345147858,-0.2672435217,1.016399145,-0.1065079325,-0.1577761484,0.1857897429,-0.1089349773,0.04583567029,-0.008660471958,-0.1243685202,5.423561501,0.1130763146,0.9738619358,-0.003941692085,-0.3694308368,-0.08641667774,0.01586177697,0.1341174521,-0.1544296816,-0.07506762522,5.505392596,0.1556436778,1.082088326,-0.03772873589,-0.3138748991],
			[-5.422251267,-0.142662603,0.1819142062,0.04331285193,-0.1019656269,-0.1397825023,3.941104137,-0.06803945763,0.1478546688,-0.09306003032,-5.679025896,-0.0331709024,-0.2726709333,-0.0147149393,0.1799387963,-0.1079687328,4.130018278,0.05458431984,0.001148321634,-0.1169994088,-5.348068136,-0.01632873329,0.3127758311,0.2156733833,0.08682353338,0.09667960162,4.052127337,0.1303264205,-0.1170638074,-0.05567727635],
			[0.209467318,0.03646658546,-2.099471365,0.1532689578,0.08995893586,-0.001761359183,-0.08426414582,2.612688384,-0.02181226477,4.564985168,0.1369112878,-0.06390660163,-1.998378913,0.02071274042,0.06305290607,0.01807541202,-0.1714488224,2.648309336,0.03921445469,4.800870268,0.127718875,-0.1332004245,-2.085434298,-0.1823078915,0.03481022664,0.1651185402,-0.1938570361,2.477353288,-0.1113492831,4.670620078],
			[-0.2205061816,0.04969648092,0.2461198357,-2.764598761,0.2274913662,4.255291842,0.1498481425,0.4254079088,3.84842492,-1.025220657,-0.02347918396,0.199596453,0.2050426965,-2.726416804,0.210364977,4.383321807,-0.01895311771,0.555136757,3.953499856,-0.942510351,0.1356436746,-0.3983255818,0.4369010484,-2.670285664,0.04434849035,4.167123721,0.3338765653,0.5852651256,4.069958469,-0.5882418689],
			[0.2704450582,-0.01522582379,2.166676372,0.1060338692,0.1205266601,0.1020381357,0.02883924072,-2.662260941,-0.1290427813,0.7768121498,0.03688024921,0.3678613347,1.988121847,0.00890610564,0.2795357313,0.04753060521,-0.02994247585,-2.647698571,-0.1340673804,1.018878005,0.006833402205,-0.05997588476,2.243414363,-0.02520410833,0.1378861791,-0.2196813131,-0.2800830438,-2.700518912,0.01972142029,0.7005189621]
		],
		"E": [
			[0.09335992751,-0.1534055061,-0.01628890644,0.1533012577,0.05746237345,0.06794940889,-0.03645689205,0.2228466331,-0.07501901925,-0.2501101525,-0.04129658515,-0.06630544295,-0.1910470336,-0.3051672822,0.209163125,0.1908562978,-0.3057314825,0.237574515,0.2166528072,-0.1965148639,0.01823216809,0.1811623627,-0.02289044989,0.1153492917,0.01593497722,-0.1149905995,-0.1475074236,0.06326544596,-0.06004924547,-0.2862790626],
			[-0.1564338303,-0.08520916689,0.1578066217,0.1092616253,-0.2485032542,0.06504208567,0.008508389342,-0.09744414554,0.1956451397,-0.1054550951,-0.2128025332,0.08843562711,-0.1712632611,-0.0512915483,0.1783056848,0.0628922144,-0.03308151084,-0.2448813736,-0.1457626748,0.02159204678,0.2326762949,0.07698168933,-0.06945466327,0.185791878,-0.0106325458,0.01971659661,-0.1611750779,-0.05484740649,-0.1014330622,0.09816516371],
			[0.01387819529,-0.006206282864,0.007962638491,-0.02916180853,0.1234186187,-0.04503927309,-0.02927745279,0.1490725872,-0.1054741067,-0.10826967,-0.0350411609,0.04612009278,-0.2724638754,-0.1860971523,-0.08468551727,-0.1808992653,0.05691475081,-0.03649595205,0.07252545301,-0.2256703352,-0.06100732855,0.2349403641,0.003748637492,0.1009425005,-0.0478956897,0.1967903976,-0.03925239851,0.02960276278,0.04663178086,-0.1166101026],
			[0.1310768734,0.03279610889,0.05995748215,-0.04676776174,0.1315593105,0.1544897295,-0.00270571151,0.1305795496,-0.1415541875,0.1258519772,0.1526188606,-0.004133098474,-0.006480065966,0.1241949255,-0.136723644,-0.1000223691,0.02790201042,-0.006224997903,0.06332999413,0.01014919849,0.05982323313,0.07080402047,0.01788445015,0.2378052415,-0.07663581606,-0.1395830173,0.1739388523,-0.02372932178,-0.07813407739,-0.01466047022],
			[0.08213459871,0.05275711328,0.02040624418,-0.1377827019,0.06311340744,-0.1181336458,0.1469953972,0.003466176838,0.0770118078,-0.00301129549,-0.01196823406,0.01545065891,0.3345221437,-0.2701974764,0.1143225173,0.221228924,0.1290511972,-0.1433230453,-0.0103734762,-0.1119479015,0.05978136606,0.2160288036,0.08280139365,-0.1296813106,0.1886404447,0.06240597224,-0.1673439363,0.02419240344,-0.284819038,-0.07945697709],
			[-0.1910329636,-0.1248931728,0.0698201388,-0.0402413379,0.19709452,-0.101457955,-0.2765004291,0.079465527,-0.1065079325,0.1257166415,0.1985332125,-0.1089349773,-0.07290984336,-0.008660471958,-0.1243496577,-0.02304431197,0.1038194071,0.03692831821,-0.003941692085,-0.08593804696,-0.07367320811,0.01586177697,0.01537193848,-0.1544296816,-0.07504876277,0.05878678221,0.1463867704,0.1451547082,-0.03772873589,-0.03038210918],
			[0.1966875822,-0.142662603,0.1820803213,0.04331285193,-0.09364866593,-0.1321631513,-0.140515566,-0.06672876501,0.1478546688,-0.09345661328,-0.06008704678,-0.0331709024,-0.2725048181,-0.0147149393,0.1882557573,-0.1003493818,0.04839857429,0.05589501247,0.001148321634,-0.1173959918,0.2708707133,-0.01632873329,0.3129419463,0.2156733833,0.09514049437,0.1042989526,-0.02949236624,0.1316371131,-0.1170638074,-0.05607385931],
			[0.001253061007,0.03646658546,-0.1593004694,0.1532689578,0.08965074424,-0.002043700305,0.06698352504,0.1906552128,-0.02181226477,-0.06697475267,-0.07130296915,-0.06390660163,-0.05820801799,0.02071274042,0.06274471445,0.0177930709,-0.02020115149,0.2262761648,0.03921445469,0.1689103481,-0.0804953819,-0.1332004245,-0.1452634025,-0.1823078915,0.03450203502,0.1648361991,-0.04260936519,0.05532011692,-0.1113492831,0.03866015746],
			[-0.188006364,0.04969648092,-0.05671821714,-0.1192324629,0.2275394713,-0.1244447294,0.1262401447,-0.0691569275,-0.04565607725,-0.3022257255,0.009020633616,0.199596453,-0.09779535638,-0.08105050596,0.2104130821,0.003585234879,-0.04256111547,0.06057192075,0.05941885877,-0.2195154196,0.1681434921,-0.3983255818,0.1340629955,-0.024919366,0.04439659547,-0.2126128503,0.3102685675,0.09070028934,0.1758774726,0.1347530625],
			[0.2346202431,-0.01522582379,0.05670447164,0.1060338692,0.1204736334,0.1019895568,0.05486252997,-0.02832571601,-0.1290427813,-0.02015108354,0.001055434163,0.3678613347,-0.1218500543,0.00890610564,0.2794827046,0.04748202632,-0.003919186597,-0.0137633459,-0.1340673804,0.2219147719,-0.02899141284,-0.05997588476,0.1334424618,-0.02520410833,0.1378331524,-0.219729892,-0.2540597546,-0.06658368667,0.01972142029,-0.09644427123]
		],
		"cvY": [
			[0.01751548182,0,0,0,0,0,0,0,0,0],
			[0,0.01751548182,0,0,0,0,0,0,0,0],
			[0,0,0.01751548182,0,0,0,0,0,0,0],
			[0,0,0,0.01751548182,0,0,0,0,0,0],
			[0,0,0,0,0.01751548182,0,0,0,0,0],
			[0,0,0,0,0,0.01751548182,0,0,0,0],
			[0,0,0,0,0,0,0.01751548182,0,0,0],
			[0,0,0,0,0,0,0,0.01751548182,0,0],
			[0,0,0,0,0,0,0,0,0.01751548182,0],
			[0,0,0,0,0,0,0,0,0,0.01751548182]
		],
		"sdY": [
			[0.1323460684,0.1323460684,0.1323460684,0.1323460684,0.1323460684,0.1323460684,0.1323460684,0.1323460684,0.1323460684,0.1323460684,0.1323460684,0.1323460684,0.1323460684,0.1323460684,0.1323460684,0.1323460684,0.1323460684,0.1323460684,0.1323460684,0.1323460684,0.1323460684,0.1323460684,0.1323460684,0.1323460684,0.1323460684,0.1323460684,0.1323460684,0.1323460684,0.1323460684,0.1323460684],
			[0.1323460684,0.1323460684,0.1323460684,0.1323460684,0.1323460684,0.1323460684,0.1323460684,0.1323460684,0.1323460684,0.1323460684,0.1323460684,0.1323460684,0.1323460684,0.1323460684,0.1323460684,0.1323460684,0.1323460684,0.1323460684,0.1323460684,0.1323460684,0.1323460684,0.1323460684,0.1323460684,0.1323460684,0.1323460684,0.1323460684,0.1323460684,0.1323460684,0.1323460684,0.1323460684],
			[0.1323460684,0.1323460684,0.1323460684,0.1323460684,0.1323460684,0.1323460684,0.1323460684,0.1323460684,0.1323460684,0.1323460684,0.1323460684,0.1323460684,0.1323460684,0.1323460684,0.1323460684,0.1323460684,0.1323460684,0.1323460684,0.1323460684,0.1323460684,0.1323460684,0.1323460684,0.1323460684,0.1323460684,0.1323460684,0.1323460684,0.1323460684,0.1323460684,0.1323460684,0.1323460684],
			[0.1323460684,0.1323460684,0.1323460684,0.1323460684,0.1323460684,0.1323460684,0.1323460684,0.1323460684,0.1323460684,0.1323460684,0.1323460684,0.1323460684,0.1323460684,0.1323460684,0.1323460684,0.1323460684,0.1323460684,0.1323460684,0.1323460684,0.1323460684,0.1323460684,0.1323460684,0.1323460684,0.1323460684,0.1323460684,0.1323460684,0.1323460684,0.1323460684,0.1323460684,0.1323460684],
			[0.1323460684,0.1323460684,0.1323460684,0.1323460684,0.1323460684,0.1323460684,0.1323460684,0.1323460684,0.1323460684,0.1323460684,0.1323460684,0.1323460684,0.1323460684,0.1323460684,0.1323460684,0.1323460684,0.1323460684,0.1323460684,0.1323460684,0.1323460684,0.1323460684,0.1323460684,0.1323460684,0.1323460684,0.1323460684,0.1323460684,0.1323460684,0.1323460684,0.1323460684,0.1323460684],
			[0.1323460684,0.1323460684,0.1323460684,0.1323460684,0.1323460684,0.1323460684,0.1323460684,0.1323460684,0.1323460684,0.1323460684,0.1323460684,0.1323460684,0.1323460684,0.1323460684,0.1323460684,0.1323460684,0.1323460684,0.1323460684,0.1323460684,0.1323460684,0.1323460684,0.1323460684,0.1323460684,0.1323460684,0.1323460684,0.1323460684,0.1323460684,0.1323460684,0.1323460684,0.1323460684],
			[0.1323460684,0.1323460684,0.1323460684,0.1323460684,0.1323460684,0.1323460684,0.1323460684,0.1323460684,0.1323460684,0.1323460684,0.1323460684,0.1323460684,0.1323460684,0.1323460684,0.1323460684,0.1323460684,0.1323460684,0.1323460684,0.1323460684,0.1323460684,0.1323460684,0.1323460684,0.1323460684,0.1323460684,0.1323460684,0.1323460684,0.1323460684,0.1323460684,0.1323460684,0.1323460684],
			[0.1323460684,0.1323460684,0.1323460684,0.1323460684,0.1323460684,0.1323460684,0.1323460684,0.1323460684,0.1323460684,0.1323460684,0.1323460684,0.1323460684,0.1323460684,0.1323460684,0.1323460684,0.1323460684,0.1323460684,0.1323460684,0.1323460684,0.1323460684,0.1323460684,0.1323460684,0.1323460684,0.1323460684,0.1323460684,0.1323460684,0.1323460684,0.1323460684,0.1323460684,0.1323460684],
			[0.1323460684,0.1323460684,0.1323460684,0.1323460684,0.1323460684,0.1323460684,0.1323460684,0.1323460684,0.1323460684,0.1323460684,0.1323460684,0.1323460684,0.1323460684,0.1323460684,0.1323460684,0.1323460684,0.1323460684,0.1323460684,0.1323460684,0.1323460684,0.1323460684,0.1323460684,0.1323460684,0.1323460684,0.1323460684,0.1323460684,0.1323460684,0.1323460684,0.1323460684,0.1323460684],
			[0.1323460684,0.1323460684,0.1323460684,0.1323460684,0.1323460684,0.1323460684,0.1323460684,0.1323460684,0.1323460684,0.1323460684,0.1323460684,0.1323460684,0.1323460684,0.1323460684,0.1323460684,0.1323460684,0.1323460684,0.1323460684,0.1323460684,0.1323460684,0.1323460684,0.1323460684,0.1323460684,0.1323460684,0.1323460684,0.1323460684,0.1323460684,0.1323460684,0.1323460684,0.1323460684]
		],
		"lambda": [0.01751548182,0],
		"SNR_L": 1,
		"names": [
			"G01",
			"G02",
			"G03",
			"G04",
			"G05",
			"G06",
			"G07",
			"G08",
			"G09",
			"G10"
		],
		"description": "",
		"N": 10,
		"M": 30,
		"created": {
			"creator": "sparx",
			"time": 736279.7794,
			"id": "68983",
			"nexp": ""
		},
		"tol": 2.220446049e-16
	}
}
