{
	"obj_data": {
		"dataset": "Tjarnberg-ID87695-D20151111-N10-E30-SNR1000-IDY87695",
		"network": "Tjarnberg-D20151007-smallworld-N10-L28-ID87695",
		"P": [
			[1,0,0,0,0,0,0,0,0,0,1,0,0,0,0,0,0,0,0,0,1,0,0,0,0,0,0,0,0,0],
			[0,1,0,0,0,0,0,0,0,0,0,1,0,0,0,0,0,0,0,0,0,1,0,0,0,0,0,0,0,0],
			[0,0,1,0,0,0,0,0,0,0,0,0,1,0,0,0,0,0,0,0,0,0,1,0,0,0,0,0,0,0],
			[0,0,0,1,0,0,0,0,0,0,0,0,0,1,0,0,0,0,0,0,0,0,0,1,0,0,0,0,0,0],
			[0,0,0,0,1,0,0,0,0,0,0,0,0,0,1,0,0,0,0,0,0,0,0,0,1,0,0,0,0,0],
			[0,0,0,0,0,1,0,0,0,0,0,0,0,0,0,1,0,0,0,0,0,0,0,0,0,1,0,0,0,0],
			[0,0,0,0,0,0,1,0,0,0,0,0,0,0,0,0,1,0,0,0,0,0,0,0,0,0,1,0,0,0],
			[0,0,0,0,0,0,0,1,0,0,0,0,0,0,0,0,0,1,0,0,0,0,0,0,0,0,0,1,0,0],
			[0,0,0,0,0,0,0,0,1,0,0,0,0,0,0,0,0,0,1,0,0,0,0,0,0,0,0,0,1,0],
			[0,0,0,0,0,0,0,0,0,1,0,0,0,0,0,0,0,0,0,1,0,0,0,0,0,0,0,0,0,1]
		],
		"F": [
			[0,0,0,0,0,0,0,0,0,0,0,0,0,0,0,0,0,0,0,0,0,0,0,0,0,0,0,0,0,0],
			[0,0,0,0,0,0,0,0,0,0,0,0,0,0,0,0,0,0,0,0,0,0,0,0,0,0,0,0,0,0],
			[0,0,0,0,0,0,0,0,0,0,0,0,0,0,0,0,0,0,0,0,0,0,0,0,0,0,0,0,0,0],
			[0,0,0,0,0,0,0,0,0,0,0,0,0,0,0,0,0,0,0,0,0,0,0,0,0,0,0,0,0,0],
			[0,0,0,0,0,0,0,0,0,0,0,0,0,0,0,0,0,0,0,0,0,0,0,0,0,0,0,0,0,0],
			[0,0,0,0,0,0,0,0,0,0,0,0,0,0,0,0,0,0,0,0,0,0,0,0,0,0,0,0,0,0],
			[0,0,0,0,0,0,0,0,0,0,0,0,0,0,0,0,0,0,0,0,0,0,0,0,0,0,0,0,0,0],
			[0,0,0,0,0,0,0,0,0,0,0,0,0,0,0,0,0,0,0,0,0,0,0,0,0,0,0,0,0,0],
			[0,0,0,0,0,0,0,0,0,0,0,0,0,0,0,0,0,0,0,0,0,0,0,0,0,0,0,0,0,0],
			[0,0,0,0,0,0,0,0,0,0,0,0,0,0,0,0,0,0,0,0,0,0,0,0,0,0,0,0,0,0]
		],
		"cvP": [
			[0,0,0,0,0,0,0,0,0,0],
			[0,0,0,0,0,0,0,0,0,0],
			[0,0,0,0,0,0,0,0,0,0],
			[0,0,0,0,0,0,0,0,0,0],
			[0,0,0,0,0,0,0,0,0,0],
			[0,0,0,0,0,0,0,0,0,0],
			[0,0,0,0,0,0,0,0,0,0],
			[0,0,0,0,0,0,0,0,0,0],
			[0,0,0,0,0,0,0,0,0,0],
			[0,0,0,0,0,0,0,0,0,0]
		],
		"sdP": [
			[0,0,0,0,0,0,0,0,0,0,0,0,0,0,0,0,0,0,0,0,0,0,0,0,0,0,0,0,0,0],
			[0,0,0,0,0,0,0,0,0,0,0,0,0,0,0,0,0,0,0,0,0,0,0,0,0,0,0,0,0,0],
			[0,0,0,0,0,0,0,0,0,0,0,0,0,0,0,0,0,0,0,0,0,0,0,0,0,0,0,0,0,0],
			[0,0,0,0,0,0,0,0,0,0,0,0,0,0,0,0,0,0,0,0,0,0,0,0,0,0,0,0,0,0],
			[0,0,0,0,0,0,0,0,0,0,0,0,0,0,0,0,0,0,0,0,0,0,0,0,0,0,0,0,0,0],
			[0,0,0,0,0,0,0,0,0,0,0,0,0,0,0,0,0,0,0,0,0,0,0,0,0,0,0,0,0,0],
			[0,0,0,0,0,0,0,0,0,0,0,0,0,0,0,0,0,0,0,0,0,0,0,0,0,0,0,0,0,0],
			[0,0,0,0,0,0,0,0,0,0,0,0,0,0,0,0,0,0,0,0,0,0,0,0,0,0,0,0,0,0],
			[0,0,0,0,0,0,0,0,0,0,0,0,0,0,0,0,0,0,0,0,0,0,0,0,0,0,0,0,0,0],
			[0,0,0,0,0,0,0,0,0,0,0,0,0,0,0,0,0,0,0,0,0,0,0,0,0,0,0,0,0,0]
		],
		"Y": [
			[1.214439914,-0.1206786507,-0.01281369538,0.1205946429,0.04520144029,0.05342930049,-0.02867888026,0.1752797783,-0.05901381563,-0.1967494987,1.108512182,-0.0521612652,-0.1502874184,-0.2400602697,0.1645370468,0.1501141751,-0.2405041102,0.186865487,0.170430231,-0.1545886906,1.155340558,0.1425096273,-0.01800680869,0.09073967614,0.01253385646,-0.09048071076,-0.1160369349,0.04974501619,-0.04723782233,-0.225201822],
			[-0.1230588895,1.377200302,0.1241387977,0.08595080906,-0.1954854295,0.05116544687,0.006693136273,-0.07665457219,0.1539045204,-0.08295639678,-0.1674014078,1.51379822,-0.1347244818,-0.04034856758,0.1402644141,0.04947424766,-0.02602361637,-0.1926362721,-0.1146644102,0.01698541353,0.18303513,1.504787964,-0.05463660716,0.1461534384,-0.008364106893,0.01551008806,-0.1267885985,-0.04314578836,-0.07979245904,0.07722176213],
			[0.01097933866,-0.004884847802,9.305258824,2.310935478,0.0970852413,-0.03546603383,-0.02303114883,0.1172681562,-0.01248170082,-0.08517048605,-0.02750314071,0.03627776815,9.084660918,2.187482072,-0.06662016579,-0.1423404851,0.04477206764,-0.02870959252,0.1275418996,-0.1775238821,-0.04792946249,0.1848134964,9.301943875,2.413282213,-0.03767939692,0.1547696119,-0.03087795371,0.02328705314,0.1071726065,-0.09173149889],
			[0.1031675309,0.02579670901,2.381041292,2.059684007,0.1034893502,0.121497377,-0.002128451712,0.1027205826,-0.04803435047,0.09900163238,0.120113565,-0.003253703163,2.328778102,2.194172042,-0.1075558079,-0.07871491823,0.02194915518,-0.004896904346,0.113138075,0.007983881061,0.04711575597,0.05569568535,2.347944483,2.283543755,-0.06028763479,-0.109835357,0.1368292394,-0.01866670499,0.001855167049,-0.01153267922],
			[0.06461129595,0.04676884662,0.01605260028,-0.1083869535,1.570696171,-0.0221642199,0.115634133,0.002726672815,0.06058144538,-0.002368839772,-0.009414827914,0.01742167256,0.2631523081,-0.2125512194,1.610979889,0.2447958161,0.1015183032,-0.1127452723,-0.008160309438,-0.08806397193,0.04702709449,0.1752067482,0.06513583111,-0.1020139828,1.669442189,0.1198575209,-0.1316413395,0.01903098771,-0.2240532911,-0.06250494119],
			[-0.1502763457,-0.0119264509,0.05492410899,-0.03165590425,0.2258104537,1.079883318,-0.2175094459,0.06251166699,-0.08378461277,0.09889517031,0.1561764269,0.0006270856797,-0.05735462936,-0.006812772273,-0.02705405434,1.141567519,0.08166968056,0.02904971272,-0.003100737543,-0.06760328379,-0.0579551313,0.09879862545,0.01209235672,-0.1214823231,0.01172856304,1.205940062,0.1151553559,0.1141861524,-0.02967936239,-0.02390012831],
			[0.1547752713,-0.1122168988,0.5093582273,0.362954439,-0.07366916102,-0.1039713757,1.145252537,-0.05171318854,0.1262432574,-0.03669207224,-0.04721684667,-0.02608510078,0.1517581971,0.3173067965,0.1480913444,-0.07894502982,1.293862107,0.04474897602,0.01083650597,-0.05552401751,0.2131315341,-0.01283618509,0.612300706,0.4985420899,0.07484209368,0.08204186615,1.232589091,0.1043316045,-0.08215522922,-0.007284876996],
			[0.0009629190622,0.04218424426,-0.1250867926,0.1207732758,0.07052388209,-0.001607682347,0.05347177083,1.291594402,-0.01715248581,-0.05266293549,-0.05611338265,-0.03677446252,-0.0455622755,0.01649774359,0.04935821646,0.01399694122,-0.01511217584,1.319615674,0.03085426766,0.1328964061,-0.0633446069,-0.09128454434,-0.1140445144,-0.143208718,0.02714107352,0.1296686219,-0.03273962822,1.185132862,-0.08758690538,0.03043491302],
			[-0.1468815672,0.0390502212,0.02587218727,-0.03047493486,0.1789585104,-0.09848015893,0.09930698487,-0.05440241319,1.116128162,-0.237746286,0.00810999368,0.156969242,-0.006441201257,-0.0004390455318,0.1654860125,0.002234789956,-0.03348076051,0.04764896515,1.198785506,-0.1726821092,0.1332842109,-0.3133869556,0.1759504927,0.04371659354,0.03488891314,-0.1678377335,0.2440731988,0.07134948807,1.290397836,0.1060036834],
			[0.1858733241,-0.01197741769,0.04460665123,0.08341169022,0.09477074914,0.08023019963,0.04315768525,-0.02228248997,-0.1015116828,1.132265358,0.002139243296,0.2893786267,-0.09585351412,0.007006000345,0.2198554555,0.03735177522,-0.003083033588,-0.01082698133,-0.1054642907,1.322686799,-0.02149715056,-0.04718011519,0.1049726976,-0.01982684677,0.1084266388,-0.1728508508,-0.1998564582,-0.05237817563,0.01551388262,1.072249217]
		],
		"E": [
			[0.07344171641,-0.1206766541,-0.01281369084,0.1205946469,0.04520285575,0.05345249671,-0.02867886467,0.1753026129,-0.0590138155,-0.1967494983,-0.03248601597,-0.05215926862,-0.1502874138,-0.2400602656,0.1645384623,0.1501373713,-0.2405040946,0.1868883216,0.1704302311,-0.1545886901,0.0143423603,0.1425116238,-0.01800680415,0.09073968022,0.01253527192,-0.09045751454,-0.1160369193,0.04976785078,-0.0472378222,-0.2252018215],
			[-0.1230588895,-0.06702990927,0.1241387977,0.08595080906,-0.1954854295,0.05116544687,0.006693136273,-0.07665457219,0.1539045204,-0.08295639678,-0.1674014078,0.06956800868,-0.1347244818,-0.04034856758,0.1402644141,0.04947424766,-0.02602361637,-0.1926362721,-0.1146644102,0.01698541353,0.18303513,0.06055775264,-0.05463660716,0.1461534384,-0.008364106893,0.01551008806,-0.1267885985,-0.04314578836,-0.07979245904,0.07722176213],
			[0.01091730156,-0.004882181019,0.006263820609,-0.02294017711,0.09708742752,-0.03543020662,-0.02303114883,0.1172681574,-0.08297135225,-0.08517048605,-0.0275651778,0.03628043493,-0.2143340854,-0.1463935828,-0.06661797957,-0.1423046578,0.04477206764,-0.02870959128,0.05705224816,-0.1775238821,-0.04799149959,0.1848161632,0.002948870881,0.07940655798,-0.03767721071,0.1548054391,-0.03087795371,0.02328705438,0.03668295507,-0.09173149889],
			[0.1031118042,0.02579910453,0.04716563646,-0.03678992461,0.103491314,0.1215295599,-0.002128451711,0.1027205837,-0.1113537978,0.09900163238,0.1200578383,-0.003251307645,-0.005097552877,0.09769811031,-0.1075538441,-0.07868273535,0.02194915518,-0.004896903231,0.04981862769,0.007983881061,0.04706002928,0.05569808087,0.01406882751,0.1870698229,-0.06028567096,-0.1098031741,0.1368292394,-0.01866670388,-0.06146428031,-0.01153267922],
			[0.06461129595,0.04150145631,0.01605260028,-0.1083869535,0.04964824947,-0.09292999623,0.115634133,0.002726672815,0.06058144538,-0.002368839772,-0.009414827914,0.01215428225,0.2631523081,-0.2125512194,0.08993196678,0.1740300398,0.1015183032,-0.1127452723,-0.008160309438,-0.08806397193,0.04702709449,0.1699393579,0.06513583111,-0.1020139828,0.1483942673,0.04909174458,-0.1316413395,0.01903098771,-0.2240532911,-0.06250494119],
			[-0.1502763457,-0.0982473875,0.05492410899,-0.03165590425,0.1550446774,-0.07981204098,-0.2175094459,0.06251166699,-0.08378461277,0.09889517031,0.1561764269,-0.08569385092,-0.05735462936,-0.006812772273,-0.09781983067,-0.01812783996,0.08166968056,0.02904971272,-0.003100737543,-0.06760328379,-0.0579551313,0.01247768884,0.01209235672,-0.1214823231,-0.05903721329,0.04624470373,0.1151553559,0.1141861524,-0.02967936239,-0.02390012831],
			[0.1547245593,-0.1122257344,0.1432337372,0.03407211502,-0.07366885289,-0.1039663262,-0.1105367648,-0.05249227551,0.1163100802,-0.07351777441,-0.04726755865,-0.02609393636,-0.214366293,-0.0115755274,0.1480916525,-0.07893998031,0.03807280557,0.04396988905,0.0009033288054,-0.09234971968,0.2130808221,-0.01284502068,0.2461762159,0.169659766,0.07484240181,0.08204691566,-0.02320021079,0.1035525175,-0.09208840639,-0.04411057917],
			[0.0009857221787,0.02868649001,-0.1253139351,0.1205692382,0.07052388226,-0.001607679679,0.05269268284,0.1499791875,-0.01715864832,-0.05268578205,-0.05609057954,-0.05027221678,-0.04578941805,0.01629370597,0.04935821662,0.01399694389,-0.01589126383,0.1780004588,0.03084810515,0.1328735595,-0.06332180378,-0.1047822986,-0.114271657,-0.1434127556,0.02714107369,0.1296686246,-0.0335187162,0.04351764667,-0.0875930679,0.03041206647],
			[-0.1478954669,0.03909380562,-0.04461746415,-0.09379438222,0.1789942406,-0.0978946189,0.09930698488,-0.0544023929,-0.03591541647,-0.237746286,0.007096093941,0.1570128264,-0.07693085268,-0.06375849289,0.1655217428,0.002820329988,-0.0334807605,0.04764898544,0.04674192764,-0.1726821092,0.1322703112,-0.3133433712,0.1054608413,-0.01960285381,0.03492464338,-0.1672521935,0.2440731988,0.07134950836,0.1383542577,0.1060036834],
			[0.1845643395,-0.0119774154,0.04460665123,0.08341169022,0.09477075076,0.08023022624,0.04315768527,-0.02228246377,-0.1015116828,-0.0158518778,0.000830258748,0.289378629,-0.09585351412,0.00700600035,0.2198554571,0.03735180183,-0.003083033571,-0.01082695513,-0.1054642907,0.174569563,-0.02280613511,-0.0471801129,0.1049726976,-0.01982684676,0.1084266404,-0.1728508242,-0.1998564582,-0.05237814943,0.01551388262,-0.07586801968]
		],
		"cvY": [
			[0.01083893753,0,0,0,0,0,0,0,0,0],
			[0,0.01083893753,0,0,0,0,0,0,0,0],
			[0,0,0.01083893753,0,0,0,0,0,0,0],
			[0,0,0,0.01083893753,0,0,0,0,0,0],
			[0,0,0,0,0.01083893753,0,0,0,0,0],
			[0,0,0,0,0,0.01083893753,0,0,0,0],
			[0,0,0,0,0,0,0.01083893753,0,0,0],
			[0,0,0,0,0,0,0,0.01083893753,0,0],
			[0,0,0,0,0,0,0,0,0.01083893753,0],
			[0,0,0,0,0,0,0,0,0,0.01083893753]
		],
		"sdY": [
			[0.1041102182,0.1041102182,0.1041102182,0.1041102182,0.1041102182,0.1041102182,0.1041102182,0.1041102182,0.1041102182,0.1041102182,0.1041102182,0.1041102182,0.1041102182,0.1041102182,0.1041102182,0.1041102182,0.1041102182,0.1041102182,0.1041102182,0.1041102182,0.1041102182,0.1041102182,0.1041102182,0.1041102182,0.1041102182,0.1041102182,0.1041102182,0.1041102182,0.1041102182,0.1041102182],
			[0.1041102182,0.1041102182,0.1041102182,0.1041102182,0.1041102182,0.1041102182,0.1041102182,0.1041102182,0.1041102182,0.1041102182,0.1041102182,0.1041102182,0.1041102182,0.1041102182,0.1041102182,0.1041102182,0.1041102182,0.1041102182,0.1041102182,0.1041102182,0.1041102182,0.1041102182,0.1041102182,0.1041102182,0.1041102182,0.1041102182,0.1041102182,0.1041102182,0.1041102182,0.1041102182],
			[0.1041102182,0.1041102182,0.1041102182,0.1041102182,0.1041102182,0.1041102182,0.1041102182,0.1041102182,0.1041102182,0.1041102182,0.1041102182,0.1041102182,0.1041102182,0.1041102182,0.1041102182,0.1041102182,0.1041102182,0.1041102182,0.1041102182,0.1041102182,0.1041102182,0.1041102182,0.1041102182,0.1041102182,0.1041102182,0.1041102182,0.1041102182,0.1041102182,0.1041102182,0.1041102182],
			[0.1041102182,0.1041102182,0.1041102182,0.1041102182,0.1041102182,0.1041102182,0.1041102182,0.1041102182,0.1041102182,0.1041102182,0.1041102182,0.1041102182,0.1041102182,0.1041102182,0.1041102182,0.1041102182,0.1041102182,0.1041102182,0.1041102182,0.1041102182,0.1041102182,0.1041102182,0.1041102182,0.1041102182,0.1041102182,0.1041102182,0.1041102182,0.1041102182,0.1041102182,0.1041102182],
			[0.1041102182,0.1041102182,0.1041102182,0.1041102182,0.1041102182,0.1041102182,0.1041102182,0.1041102182,0.1041102182,0.1041102182,0.1041102182,0.1041102182,0.1041102182,0.1041102182,0.1041102182,0.1041102182,0.1041102182,0.1041102182,0.1041102182,0.1041102182,0.1041102182,0.1041102182,0.1041102182,0.1041102182,0.1041102182,0.1041102182,0.1041102182,0.1041102182,0.1041102182,0.1041102182],
			[0.1041102182,0.1041102182,0.1041102182,0.1041102182,0.1041102182,0.1041102182,0.1041102182,0.1041102182,0.1041102182,0.1041102182,0.1041102182,0.1041102182,0.1041102182,0.1041102182,0.1041102182,0.1041102182,0.1041102182,0.1041102182,0.1041102182,0.1041102182,0.1041102182,0.1041102182,0.1041102182,0.1041102182,0.1041102182,0.1041102182,0.1041102182,0.1041102182,0.1041102182,0.1041102182],
			[0.1041102182,0.1041102182,0.1041102182,0.1041102182,0.1041102182,0.1041102182,0.1041102182,0.1041102182,0.1041102182,0.1041102182,0.1041102182,0.1041102182,0.1041102182,0.1041102182,0.1041102182,0.1041102182,0.1041102182,0.1041102182,0.1041102182,0.1041102182,0.1041102182,0.1041102182,0.1041102182,0.1041102182,0.1041102182,0.1041102182,0.1041102182,0.1041102182,0.1041102182,0.1041102182],
			[0.1041102182,0.1041102182,0.1041102182,0.1041102182,0.1041102182,0.1041102182,0.1041102182,0.1041102182,0.1041102182,0.1041102182,0.1041102182,0.1041102182,0.1041102182,0.1041102182,0.1041102182,0.1041102182,0.1041102182,0.1041102182,0.1041102182,0.1041102182,0.1041102182,0.1041102182,0.1041102182,0.1041102182,0.1041102182,0.1041102182,0.1041102182,0.1041102182,0.1041102182,0.1041102182],
			[0.1041102182,0.1041102182,0.1041102182,0.1041102182,0.1041102182,0.1041102182,0.1041102182,0.1041102182,0.1041102182,0.1041102182,0.1041102182,0.1041102182,0.1041102182,0.1041102182,0.1041102182,0.1041102182,0.1041102182,0.1041102182,0.1041102182,0.1041102182,0.1041102182,0.1041102182,0.1041102182,0.1041102182,0.1041102182,0.1041102182,0.1041102182,0.1041102182,0.1041102182,0.1041102182],
			[0.1041102182,0.1041102182,0.1041102182,0.1041102182,0.1041102182,0.1041102182,0.1041102182,0.1041102182,0.1041102182,0.1041102182,0.1041102182,0.1041102182,0.1041102182,0.1041102182,0.1041102182,0.1041102182,0.1041102182,0.1041102182,0.1041102182,0.1041102182,0.1041102182,0.1041102182,0.1041102182,0.1041102182,0.1041102182,0.1041102182,0.1041102182,0.1041102182,0.1041102182,0.1041102182]
		],
		"lambda": [0.01083893753,0],
		"SNR_L": 1,
		"names": [
			"G01",
			"G02",
			"G03",
			"G04",
			"G05",
			"G06",
			"G07",
			"G08",
			"G09",
			"G10"
		],
		"description": "",
		"N": 10,
		"M": 30,
		"created": {
			"creator": "sparx",
			"time": 736279.7794,
			"id": "87695",
			"nexp": ""
		},
		"tol": 2.220446049e-16
	}
}
