{
	"obj_data": {
		"dataset": "Tjarnberg-ID87560-D20151111-N10-E30-SNR100000-IDY87560",
		"network": "Tjarnberg-D20131025-random-N10-L25-ID87560",
		"P": [
			[1,0,0,0,0,0,0,0,0,0,1,0,0,0,0,0,0,0,0,0,1,0,0,0,0,0,0,0,0,0],
			[0,1,0,0,0,0,0,0,0,0,0,1,0,0,0,0,0,0,0,0,0,1,0,0,0,0,0,0,0,0],
			[0,0,1,0,0,0,0,0,0,0,0,0,1,0,0,0,0,0,0,0,0,0,1,0,0,0,0,0,0,0],
			[0,0,0,1,0,0,0,0,0,0,0,0,0,1,0,0,0,0,0,0,0,0,0,1,0,0,0,0,0,0],
			[0,0,0,0,1,0,0,0,0,0,0,0,0,0,1,0,0,0,0,0,0,0,0,0,1,0,0,0,0,0],
			[0,0,0,0,0,1,0,0,0,0,0,0,0,0,0,1,0,0,0,0,0,0,0,0,0,1,0,0,0,0],
			[0,0,0,0,0,0,1,0,0,0,0,0,0,0,0,0,1,0,0,0,0,0,0,0,0,0,1,0,0,0],
			[0,0,0,0,0,0,0,1,0,0,0,0,0,0,0,0,0,1,0,0,0,0,0,0,0,0,0,1,0,0],
			[0,0,0,0,0,0,0,0,1,0,0,0,0,0,0,0,0,0,1,0,0,0,0,0,0,0,0,0,1,0],
			[0,0,0,0,0,0,0,0,0,1,0,0,0,0,0,0,0,0,0,1,0,0,0,0,0,0,0,0,0,1]
		],
		"F": [
			[0,0,0,0,0,0,0,0,0,0,0,0,0,0,0,0,0,0,0,0,0,0,0,0,0,0,0,0,0,0],
			[0,0,0,0,0,0,0,0,0,0,0,0,0,0,0,0,0,0,0,0,0,0,0,0,0,0,0,0,0,0],
			[0,0,0,0,0,0,0,0,0,0,0,0,0,0,0,0,0,0,0,0,0,0,0,0,0,0,0,0,0,0],
			[0,0,0,0,0,0,0,0,0,0,0,0,0,0,0,0,0,0,0,0,0,0,0,0,0,0,0,0,0,0],
			[0,0,0,0,0,0,0,0,0,0,0,0,0,0,0,0,0,0,0,0,0,0,0,0,0,0,0,0,0,0],
			[0,0,0,0,0,0,0,0,0,0,0,0,0,0,0,0,0,0,0,0,0,0,0,0,0,0,0,0,0,0],
			[0,0,0,0,0,0,0,0,0,0,0,0,0,0,0,0,0,0,0,0,0,0,0,0,0,0,0,0,0,0],
			[0,0,0,0,0,0,0,0,0,0,0,0,0,0,0,0,0,0,0,0,0,0,0,0,0,0,0,0,0,0],
			[0,0,0,0,0,0,0,0,0,0,0,0,0,0,0,0,0,0,0,0,0,0,0,0,0,0,0,0,0,0],
			[0,0,0,0,0,0,0,0,0,0,0,0,0,0,0,0,0,0,0,0,0,0,0,0,0,0,0,0,0,0]
		],
		"cvP": [
			[0,0,0,0,0,0,0,0,0,0],
			[0,0,0,0,0,0,0,0,0,0],
			[0,0,0,0,0,0,0,0,0,0],
			[0,0,0,0,0,0,0,0,0,0],
			[0,0,0,0,0,0,0,0,0,0],
			[0,0,0,0,0,0,0,0,0,0],
			[0,0,0,0,0,0,0,0,0,0],
			[0,0,0,0,0,0,0,0,0,0],
			[0,0,0,0,0,0,0,0,0,0],
			[0,0,0,0,0,0,0,0,0,0]
		],
		"sdP": [
			[0,0,0,0,0,0,0,0,0,0,0,0,0,0,0,0,0,0,0,0,0,0,0,0,0,0,0,0,0,0],
			[0,0,0,0,0,0,0,0,0,0,0,0,0,0,0,0,0,0,0,0,0,0,0,0,0,0,0,0,0,0],
			[0,0,0,0,0,0,0,0,0,0,0,0,0,0,0,0,0,0,0,0,0,0,0,0,0,0,0,0,0,0],
			[0,0,0,0,0,0,0,0,0,0,0,0,0,0,0,0,0,0,0,0,0,0,0,0,0,0,0,0,0,0],
			[0,0,0,0,0,0,0,0,0,0,0,0,0,0,0,0,0,0,0,0,0,0,0,0,0,0,0,0,0,0],
			[0,0,0,0,0,0,0,0,0,0,0,0,0,0,0,0,0,0,0,0,0,0,0,0,0,0,0,0,0,0],
			[0,0,0,0,0,0,0,0,0,0,0,0,0,0,0,0,0,0,0,0,0,0,0,0,0,0,0,0,0,0],
			[0,0,0,0,0,0,0,0,0,0,0,0,0,0,0,0,0,0,0,0,0,0,0,0,0,0,0,0,0,0],
			[0,0,0,0,0,0,0,0,0,0,0,0,0,0,0,0,0,0,0,0,0,0,0,0,0,0,0,0,0,0],
			[0,0,0,0,0,0,0,0,0,0,0,0,0,0,0,0,0,0,0,0,0,0,0,0,0,0,0,0,0,0]
		],
		"Y": [
			[1.715133279,1.731104908,-0.0001283296015,-1.537864376,0.0004527083211,2.213690651,-0.0002872199215,0.001755662342,-0.0005910256089,-0.001970453715,1.714072408,1.731791112,-0.001505134171,-1.541476349,0.001647858963,2.214658954,-0.002408657663,0.001871693656,0.001706865253,-0.001548211617,1.714541396,1.733740749,-0.000180338829,-1.538163375,0.0001255412255,2.212249387,-0.001162114164,0.0004984269202,-0.0004730885877,-0.002255404816],
			[-0.001232439463,2.678857096,0.001243254785,0.0008608006248,-0.001957794018,0.0005124238983,6.703201458e-05,-0.0007676984587,0.001541359631,-0.0008308114719,-0.001676531472,2.680225129,-0.001349270814,-0.0004040924404,0.001404753447,0.0004954864737,-0.0002606275087,-0.001929259599,-0.001148368433,0.0001701095632,0.001833103795,2.680134891,-0.0005471877007,0.00146373225,-8.376684895e-05,0.0001553341224,-0.00126979264,-0.000432106713,-0.000799124515,0.0007733788875],
			[0.08715768511,0.08790912192,1.894360895,-0.07837595655,0.0009723342826,-0.3516797036,-0.0002306578323,0.001174445061,-0.0008309612514,-0.0008529856602,0.08677228161,0.08832136709,1.892151599,-0.07961234711,-0.0006671816015,-0.3527500553,0.0004483939618,-0.0002875276496,0.0005713804373,-0.001777908437,0.08656771122,0.08980895806,1.894327696,-0.0773509501,-0.0003773386996,-0.3497744864,-0.0003092438819,0.0002332207362,0.0003673811915,-0.0009186944535],
			[1.976146731,1.996012701,0.0004723656447,0.9248327116,0.00103646945,-1.32920387,-2.131652492e-05,0.001028750556,-0.001115212524,0.0009915051172,1.976316446,1.99572176,-5.105218612e-05,0.9261796144,-0.001077155843,-1.331209004,0.0002198216248,-4.904267228e-05,0.0004989354528,7.995887277e-05,1.97558537,1.99631214,0.0001408998431,0.9270746755,-0.0006037632897,-1.331520676,0.001370350041,-0.00018694775,-0.0006155671072,-0.0001155002214],
			[0.1596154684,-4.884736536,0.0001607674029,-0.143796728,4.792064071,-0.6425229611,0.001158080244,2.730773204e-05,0.0006067254818,-2.37240205e-05,0.158874094,-4.885030449,0.002635480384,-0.1448399371,4.792467514,-0.6398493462,0.001016709671,-0.001129148194,-8.172580968e-05,-0.0008819640314,0.159439362,-4.883450225,0.0006523378283,-0.1437329025,4.793053017,-0.641100608,-0.001318393027,0.0001905960664,-0.00224390224,-0.0006259893656],
			[-1.031837375,-1.042083441,0.0005500670424,0.9246467352,0.001552778347,4.157595258,-0.002178365381,0.0006260567247,-0.0008391060865,0.0009904388955,-1.028768238,-1.041957717,-0.0005744087965,0.9248955401,-0.0009796693281,4.158213027,0.0008179249599,0.0002909339788,-3.105400454e-05,-0.0006770494608,-1.030912774,-1.040974525,0.0001211054129,0.9237471202,-0.0005912599386,4.158857721,0.001153285273,0.001143578664,-0.0002972399443,-0.0002393606949],
			[0.04808737287,0.09899539907,0.001434491331,0.02442618323,-0.05115798628,-0.02676420534,2.508303259,-0.0005257121376,1.880217285,-7.039326117,0.04606441411,0.09985801231,-0.002146886585,0.02396902035,-0.04893704637,-0.02651356553,2.509791589,0.0004403601128,1.879061482,-7.03951472,0.04867181306,0.0999907007,0.002465464174,0.02578409871,-0.04967064041,-0.02490127564,2.509177938,0.001037082405,1.878130166,-7.039031603],
			[3.225722456,-1.843943626,-0.001255023831,-2.894622437,0.0007062993656,4.164130139,0.0005277192247,5.511143921,-0.0001718445161,-0.0005276501129,3.225150835,-1.8447344,-0.000458582765,-2.895666761,0.0004943244185,4.16428642,-0.0001591516122,5.511424555,0.0003089449474,0.001330733757,3.225078414,-1.845280321,-0.001144434995,-2.897266227,0.0002718188862,4.165444877,-0.0003356912188,5.510077704,-0.0008772479096,0.0003045780034],
			[3.331076032,3.452374429,-0.0004468456021,1.563769147,-0.07854501352,-2.236802345,0.0009945632342,-0.0005448420359,2.993652282,-0.002381038105,3.332628278,3.453555393,-0.0007704654183,1.564069958,-0.0786799411,-2.235793681,-0.000335311091,0.0004772064031,2.994480098,-0.001729417898,3.333881903,3.448844758,0.001056194341,1.564512178,-0.07998787602,-2.237496964,0.002444402378,0.0007145680425,2.995397599,0.001061630925],
			[1.649830714,1.665084021,0.0004467373103,0.7727984526,0.0009491326768,-1.109264149,0.0004322258609,-0.0002231597229,-0.001016643368,5.671990988,1.64799061,1.668102113,-0.000959976593,0.7720332467,0.002201860772,-1.109693578,-3.087669858e-05,-0.0001084323678,-0.001056228886,5.673898066,1.647753891,1.664731464,0.001051305563,0.7717645147,0.001085896932,-1.111798766,-0.002001570037,-0.0005245691606,0.000155372125,5.671389924]
		],
		"E": [
			[0.0007355215857,-0.001208581285,-0.0001283296015,0.00120775998,0.0004527083211,0.0005353287895,-0.0002872199215,0.001755662342,-0.0005910256089,-0.001970453715,-0.0003253486866,-0.0005223770609,-0.001505134171,-0.002404212699,0.001647858963,0.001503631489,-0.002408657663,0.001871693656,0.001706865253,-0.001548211617,0.0001436392844,0.001427259338,-0.000180338829,0.0009087613518,0.0001255412255,-0.0009059354517,-0.001162114164,0.0004984269202,-0.0004730885877,-0.002255404816],
			[-0.001232439463,-0.0006713070932,0.001243254785,0.0008608006248,-0.001957794018,0.0005124238983,6.703201458e-05,-0.0007676984587,0.001541359631,-0.0008308114719,-0.001676531472,0.0006967262553,-0.001349270814,-0.0004040924404,0.001404753447,0.0004954864737,-0.0002606275087,-0.001929259599,-0.001148368433,0.0001701095632,0.001833103795,0.0006064881981,-0.0005471877007,0.00146373225,-8.376684895e-05,0.0001553341224,-0.00126979264,-0.000432106713,-0.000799124515,0.0007733788875],
			[0.0001093371908,-4.889522877e-05,6.273240185e-05,-0.0002297467471,0.0009723342826,-0.0003548348681,-0.0002306578323,0.001174445061,-0.0008309612514,-0.0008529856602,-0.0002760663051,0.000363349937,-0.002146564024,-0.001466137305,-0.0006671816015,-0.001425186566,0.0004483939618,-0.0002875276496,0.0005713804373,-0.001777908437,-0.0004806366954,0.00185094091,2.953305413e-05,0.0007952597011,-0.0003773386996,0.001550382366,-0.0003092438819,0.0002332207362,0.0003673811915,-0.0009186944535],
			[0.001032668645,0.000258379014,0.0004723656447,-0.0003684524955,0.00103646945,0.001217123169,-2.131652491e-05,0.001028750556,-0.001115212524,0.0009915051172,0.001202383821,-3.256196984e-05,-5.105218612e-05,0.0009784502941,-0.001077155843,-0.00078801059,0.0002198216248,-4.904267228e-05,0.0004989354528,7.995887277e-05,0.0004713079848,0.0005578184003,0.0001408998431,0.001873511398,-0.0006037632897,-0.001099682969,0.001370350041,-0.00018694775,-0.0006155671072,-0.0001155002214],
			[0.0006470845886,0.0004156386648,0.0001607674029,-0.001085499465,0.0004972291085,-0.0009306974501,0.001158080244,2.730773204e-05,0.0006067254818,-2.37240205e-05,-9.428985998e-05,0.0001217255995,0.002635480384,-0.002128708554,0.0009006720709,0.001742917473,0.001016709671,-0.001129148194,-8.172580968e-05,-0.0008819640314,0.0004709781417,0.001701949138,0.0006523378283,-0.001021673921,0.001486174237,0.0004916556909,-0.001318393027,0.0001905960664,-0.00224390224,-0.0006259893656],
			[-0.001505023323,-0.0009839513261,0.0005500670424,-0.0003170350862,0.001552778347,-0.0007993206288,-0.002178365381,0.0006260567247,-0.0008391060865,0.0009904388955,0.001564112861,-0.0008582271793,-0.0005744087965,-6.823017367e-05,-0.0009796693281,-0.0001815510074,0.0008179249599,0.0002909339788,-3.105400454e-05,-0.0006770494608,-0.0005804228463,0.0001249645288,0.0001211054129,-0.001216650091,-0.0005912599386,0.0004631424684,0.001153285273,0.001143578664,-0.0002972399443,-0.0002393606949],
			[0.001549572351,-0.001123945002,0.001434491331,0.000341233529,-0.0007377963662,-0.001041226715,-0.001107029908,-0.0005257121376,0.001164849881,-0.0007362833095,-0.0004733863994,-0.0002613317661,-0.002146886585,-0.0001159293476,0.001483143538,-0.000790586908,0.0003813005972,0.0004403601128,9.046872375e-06,-0.0009248859583,0.002134012546,-0.0001286433711,0.002465464174,0.001699149015,0.0007495495033,0.0008217029838,-0.0002323509943,0.001037082405,-0.0009222688957,-0.0004417691297],
			[9.872045146e-06,0.0002872962895,-0.001255023831,0.00120750551,0.0007062993656,-1.610097319e-05,0.0005277192247,0.001502047272,-0.0001718445161,-0.0005276501129,-0.0005617492894,-0.0005034781649,-0.000458582765,0.0001631820856,0.0004943244185,0.0001401799259,-0.0001591516122,0.001782681371,0.0003089449474,0.001330733757,-0.0006341702755,-0.001049398709,-0.001144434995,-0.001436284207,0.0002718188862,0.001298636211,-0.0003356912188,0.0004358308881,-0.0008772479096,0.0003045780034],
			[-0.001481178731,0.0003915259515,-0.0004468456021,-0.0009393543086,0.001792634134,-0.0009804183351,0.0009945632342,-0.0005448420359,-0.0003596942632,-0.002381038105,7.106765096e-05,0.001572489434,-0.0007704654183,-0.0006385437335,0.001657706555,2.82457122e-05,-0.000335311091,0.0004772064031,0.0004681221847,-0.001729417898,0.001324692202,-0.003138145791,0.001056194341,-0.0001963233272,0.000349771633,-0.001675037085,0.002444402378,0.0007145680424,0.001385623158,0.001061630925],
			[0.001848418887,-0.0001199542712,0.0004467373103,0.000835371253,0.0009491326768,0.0008035087701,0.0004322258609,-0.0002231597229,-0.001016643368,-0.0001587571597,8.315072969e-06,0.002898137986,-0.000959976593,7.016536022e-05,0.002201860772,0.0003740797173,-3.087669858e-05,-0.0001084323678,-0.001056228886,0.001748320819,-0.0002284043113,-0.0004725106268,0.001051305563,-0.0001985666251,0.001085896932,-0.001731107584,-0.002001570037,-0.0005245691606,0.000155372125,-0.0007598211054]
		],
		"cvY": [
			[1.087156139e-06,0,0,0,0,0,0,0,0,0],
			[0,1.087156139e-06,0,0,0,0,0,0,0,0],
			[0,0,1.087156139e-06,0,0,0,0,0,0,0],
			[0,0,0,1.087156139e-06,0,0,0,0,0,0],
			[0,0,0,0,1.087156139e-06,0,0,0,0,0],
			[0,0,0,0,0,1.087156139e-06,0,0,0,0],
			[0,0,0,0,0,0,1.087156139e-06,0,0,0],
			[0,0,0,0,0,0,0,1.087156139e-06,0,0],
			[0,0,0,0,0,0,0,0,1.087156139e-06,0],
			[0,0,0,0,0,0,0,0,0,1.087156139e-06]
		],
		"sdY": [
			[0.001042667799,0.001042667799,0.001042667799,0.001042667799,0.001042667799,0.001042667799,0.001042667799,0.001042667799,0.001042667799,0.001042667799,0.001042667799,0.001042667799,0.001042667799,0.001042667799,0.001042667799,0.001042667799,0.001042667799,0.001042667799,0.001042667799,0.001042667799,0.001042667799,0.001042667799,0.001042667799,0.001042667799,0.001042667799,0.001042667799,0.001042667799,0.001042667799,0.001042667799,0.001042667799],
			[0.001042667799,0.001042667799,0.001042667799,0.001042667799,0.001042667799,0.001042667799,0.001042667799,0.001042667799,0.001042667799,0.001042667799,0.001042667799,0.001042667799,0.001042667799,0.001042667799,0.001042667799,0.001042667799,0.001042667799,0.001042667799,0.001042667799,0.001042667799,0.001042667799,0.001042667799,0.001042667799,0.001042667799,0.001042667799,0.001042667799,0.001042667799,0.001042667799,0.001042667799,0.001042667799],
			[0.001042667799,0.001042667799,0.001042667799,0.001042667799,0.001042667799,0.001042667799,0.001042667799,0.001042667799,0.001042667799,0.001042667799,0.001042667799,0.001042667799,0.001042667799,0.001042667799,0.001042667799,0.001042667799,0.001042667799,0.001042667799,0.001042667799,0.001042667799,0.001042667799,0.001042667799,0.001042667799,0.001042667799,0.001042667799,0.001042667799,0.001042667799,0.001042667799,0.001042667799,0.001042667799],
			[0.001042667799,0.001042667799,0.001042667799,0.001042667799,0.001042667799,0.001042667799,0.001042667799,0.001042667799,0.001042667799,0.001042667799,0.001042667799,0.001042667799,0.001042667799,0.001042667799,0.001042667799,0.001042667799,0.001042667799,0.001042667799,0.001042667799,0.001042667799,0.001042667799,0.001042667799,0.001042667799,0.001042667799,0.001042667799,0.001042667799,0.001042667799,0.001042667799,0.001042667799,0.001042667799],
			[0.001042667799,0.001042667799,0.001042667799,0.001042667799,0.001042667799,0.001042667799,0.001042667799,0.001042667799,0.001042667799,0.001042667799,0.001042667799,0.001042667799,0.001042667799,0.001042667799,0.001042667799,0.001042667799,0.001042667799,0.001042667799,0.001042667799,0.001042667799,0.001042667799,0.001042667799,0.001042667799,0.001042667799,0.001042667799,0.001042667799,0.001042667799,0.001042667799,0.001042667799,0.001042667799],
			[0.001042667799,0.001042667799,0.001042667799,0.001042667799,0.001042667799,0.001042667799,0.001042667799,0.001042667799,0.001042667799,0.001042667799,0.001042667799,0.001042667799,0.001042667799,0.001042667799,0.001042667799,0.001042667799,0.001042667799,0.001042667799,0.001042667799,0.001042667799,0.001042667799,0.001042667799,0.001042667799,0.001042667799,0.001042667799,0.001042667799,0.001042667799,0.001042667799,0.001042667799,0.001042667799],
			[0.001042667799,0.001042667799,0.001042667799,0.001042667799,0.001042667799,0.001042667799,0.001042667799,0.001042667799,0.001042667799,0.001042667799,0.001042667799,0.001042667799,0.001042667799,0.001042667799,0.001042667799,0.001042667799,0.001042667799,0.001042667799,0.001042667799,0.001042667799,0.001042667799,0.001042667799,0.001042667799,0.001042667799,0.001042667799,0.001042667799,0.001042667799,0.001042667799,0.001042667799,0.001042667799],
			[0.001042667799,0.001042667799,0.001042667799,0.001042667799,0.001042667799,0.001042667799,0.001042667799,0.001042667799,0.001042667799,0.001042667799,0.001042667799,0.001042667799,0.001042667799,0.001042667799,0.001042667799,0.001042667799,0.001042667799,0.001042667799,0.001042667799,0.001042667799,0.001042667799,0.001042667799,0.001042667799,0.001042667799,0.001042667799,0.001042667799,0.001042667799,0.001042667799,0.001042667799,0.001042667799],
			[0.001042667799,0.001042667799,0.001042667799,0.001042667799,0.001042667799,0.001042667799,0.001042667799,0.001042667799,0.001042667799,0.001042667799,0.001042667799,0.001042667799,0.001042667799,0.001042667799,0.001042667799,0.001042667799,0.001042667799,0.001042667799,0.001042667799,0.001042667799,0.001042667799,0.001042667799,0.001042667799,0.001042667799,0.001042667799,0.001042667799,0.001042667799,0.001042667799,0.001042667799,0.001042667799],
			[0.001042667799,0.001042667799,0.001042667799,0.001042667799,0.001042667799,0.001042667799,0.001042667799,0.001042667799,0.001042667799,0.001042667799,0.001042667799,0.001042667799,0.001042667799,0.001042667799,0.001042667799,0.001042667799,0.001042667799,0.001042667799,0.001042667799,0.001042667799,0.001042667799,0.001042667799,0.001042667799,0.001042667799,0.001042667799,0.001042667799,0.001042667799,0.001042667799,0.001042667799,0.001042667799]
		],
		"lambda": [1.087156139e-06,0],
		"SNR_L": 100,
		"names": [
			"G01",
			"G02",
			"G03",
			"G04",
			"G05",
			"G06",
			"G07",
			"G08",
			"G09",
			"G10"
		],
		"description": "",
		"N": 10,
		"M": 30,
		"created": {
			"creator": "sparx",
			"time": 736279.7794,
			"id": "87560",
			"nexp": ""
		},
		"tol": 2.220446049e-16
	}
}
