{
	"obj_data": {
		"dataset": "Tjarnberg-ID1005621-D20151111-N10-E30-SNR10-IDY1005621",
		"network": "Tjarnberg-D20131025-random-N10-L25-ID1005621",
		"P": [
			[1,0,0,0,0,0,0,0,0,0,1,0,0,0,0,0,0,0,0,0,1,0,0,0,0,0,0,0,0,0],
			[0,1,0,0,0,0,0,0,0,0,0,1,0,0,0,0,0,0,0,0,0,1,0,0,0,0,0,0,0,0],
			[0,0,1,0,0,0,0,0,0,0,0,0,1,0,0,0,0,0,0,0,0,0,1,0,0,0,0,0,0,0],
			[0,0,0,1,0,0,0,0,0,0,0,0,0,1,0,0,0,0,0,0,0,0,0,1,0,0,0,0,0,0],
			[0,0,0,0,1,0,0,0,0,0,0,0,0,0,1,0,0,0,0,0,0,0,0,0,1,0,0,0,0,0],
			[0,0,0,0,0,1,0,0,0,0,0,0,0,0,0,1,0,0,0,0,0,0,0,0,0,1,0,0,0,0],
			[0,0,0,0,0,0,1,0,0,0,0,0,0,0,0,0,1,0,0,0,0,0,0,0,0,0,1,0,0,0],
			[0,0,0,0,0,0,0,1,0,0,0,0,0,0,0,0,0,1,0,0,0,0,0,0,0,0,0,1,0,0],
			[0,0,0,0,0,0,0,0,1,0,0,0,0,0,0,0,0,0,1,0,0,0,0,0,0,0,0,0,1,0],
			[0,0,0,0,0,0,0,0,0,1,0,0,0,0,0,0,0,0,0,1,0,0,0,0,0,0,0,0,0,1]
		],
		"F": [
			[0,0,0,0,0,0,0,0,0,0,0,0,0,0,0,0,0,0,0,0,0,0,0,0,0,0,0,0,0,0],
			[0,0,0,0,0,0,0,0,0,0,0,0,0,0,0,0,0,0,0,0,0,0,0,0,0,0,0,0,0,0],
			[0,0,0,0,0,0,0,0,0,0,0,0,0,0,0,0,0,0,0,0,0,0,0,0,0,0,0,0,0,0],
			[0,0,0,0,0,0,0,0,0,0,0,0,0,0,0,0,0,0,0,0,0,0,0,0,0,0,0,0,0,0],
			[0,0,0,0,0,0,0,0,0,0,0,0,0,0,0,0,0,0,0,0,0,0,0,0,0,0,0,0,0,0],
			[0,0,0,0,0,0,0,0,0,0,0,0,0,0,0,0,0,0,0,0,0,0,0,0,0,0,0,0,0,0],
			[0,0,0,0,0,0,0,0,0,0,0,0,0,0,0,0,0,0,0,0,0,0,0,0,0,0,0,0,0,0],
			[0,0,0,0,0,0,0,0,0,0,0,0,0,0,0,0,0,0,0,0,0,0,0,0,0,0,0,0,0,0],
			[0,0,0,0,0,0,0,0,0,0,0,0,0,0,0,0,0,0,0,0,0,0,0,0,0,0,0,0,0,0],
			[0,0,0,0,0,0,0,0,0,0,0,0,0,0,0,0,0,0,0,0,0,0,0,0,0,0,0,0,0,0]
		],
		"cvP": [
			[0,0,0,0,0,0,0,0,0,0],
			[0,0,0,0,0,0,0,0,0,0],
			[0,0,0,0,0,0,0,0,0,0],
			[0,0,0,0,0,0,0,0,0,0],
			[0,0,0,0,0,0,0,0,0,0],
			[0,0,0,0,0,0,0,0,0,0],
			[0,0,0,0,0,0,0,0,0,0],
			[0,0,0,0,0,0,0,0,0,0],
			[0,0,0,0,0,0,0,0,0,0],
			[0,0,0,0,0,0,0,0,0,0]
		],
		"sdP": [
			[0,0,0,0,0,0,0,0,0,0,0,0,0,0,0,0,0,0,0,0,0,0,0,0,0,0,0,0,0,0],
			[0,0,0,0,0,0,0,0,0,0,0,0,0,0,0,0,0,0,0,0,0,0,0,0,0,0,0,0,0,0],
			[0,0,0,0,0,0,0,0,0,0,0,0,0,0,0,0,0,0,0,0,0,0,0,0,0,0,0,0,0,0],
			[0,0,0,0,0,0,0,0,0,0,0,0,0,0,0,0,0,0,0,0,0,0,0,0,0,0,0,0,0,0],
			[0,0,0,0,0,0,0,0,0,0,0,0,0,0,0,0,0,0,0,0,0,0,0,0,0,0,0,0,0,0],
			[0,0,0,0,0,0,0,0,0,0,0,0,0,0,0,0,0,0,0,0,0,0,0,0,0,0,0,0,0,0],
			[0,0,0,0,0,0,0,0,0,0,0,0,0,0,0,0,0,0,0,0,0,0,0,0,0,0,0,0,0,0],
			[0,0,0,0,0,0,0,0,0,0,0,0,0,0,0,0,0,0,0,0,0,0,0,0,0,0,0,0,0,0],
			[0,0,0,0,0,0,0,0,0,0,0,0,0,0,0,0,0,0,0,0,0,0,0,0,0,0,0,0,0,0],
			[0,0,0,0,0,0,0,0,0,0,0,0,0,0,0,0,0,0,0,0,0,0,0,0,0,0,0,0,0,0]
		],
		"Y": [
			[1.170979745,-1.052636745,-0.1117710953,1.051921414,0.3942948807,0.4662547413,-0.2501596268,1.529127346,-0.5147649404,-1.716203958,0.2469947024,-0.4549741882,-1.310925094,-2.093994555,1.435233953,1.309616305,-2.09786598,1.630187015,1.486626598,-1.34844421,0.6554686523,1.243098534,-0.1570695164,0.7915028995,0.1093425065,-0.7890416283,-1.012165327,0.4341143599,-0.4120454596,-1.964387512],
			[-1.158782938,0.176289476,1.082836286,0.7174692396,-1.784755399,-0.04257674231,-0.005331965968,-1.402404066,1.631904298,-0.5191285545,-1.545573278,1.367804014,-1.175172953,-0.3842133161,1.143918958,-0.05732871278,-0.2907132293,-2.414087726,-0.7107652683,0.3526425653,1.511209984,1.28920947,-0.4765834845,1.24260395,-0.152535967,-0.3535908412,-1.169664701,-1.110114084,-0.4065846673,0.8780714014],
			[-4.032033638,-0.04258622493,9.162106097,-0.09240198907,0.7740607333,-0.3090501443,-0.2591937514,1.054732089,-0.7237414295,-0.7439274917,-4.367708107,0.3164665047,7.237877559,-1.169259747,-0.6539066571,-1.241293214,0.3322392611,-0.2186007133,0.4976546064,-1.54950649,-4.54588256,1.612112018,9.133190496,0.8003467773,-0.4014624958,1.350334866,-0.3276397587,0.2349549495,0.3199776021,-0.8011578089],
			[0.8955162713,0.2250400926,0.4114157987,-0.2509959747,1.075188144,1.06007646,0.1195124414,0.8206277894,-0.9713154558,0.865946902,1.043332916,-0.02836046393,-0.04446486777,0.9221145027,-0.7657138092,-0.686332738,0.3295362769,-0.1180966224,0.434557276,0.0720184477,0.4065885799,0.4858424935,0.1227193851,1.701684912,-0.3534036047,-0.9577896954,1.331610777,-0.23820766,-0.5361398228,-0.09822034984],
			[0.5594086347,0.3620083619,0.1400234124,-1.218542349,0.6177080787,-0.8106085594,1.156483652,-0.05692245315,0.5284390418,-0.01811824685,-0.08630547328,0.1060192148,2.295421522,-2.127145049,0.9690943627,1.518026962,1.033354276,-1.06415963,-0.07118064076,-0.7656186282,0.4060253915,1.482344815,0.5681659783,-1.162952282,1.479048556,0.4282168295,-1.000447615,0.08529661221,-1.954369126,-0.5426726482],
			[-1.183878946,-0.8569910306,0.4790913017,-0.3929448965,1.064273964,0.5472883429,-2.127997391,0.6712281607,-0.7308353278,0.3357795984,1.489243303,-0.7474892054,-0.5002922131,-0.1762435488,-1.14140927,1.085346487,0.4816783921,0.3793466623,-0.02704707301,-1.116550946,-0.3785806606,0.1088402215,0.1054790515,-1.176481612,-0.8031167603,1.646854472,0.773766804,1.121973689,-0.2588867553,-0.7353376312],
			[1.353536429,-0.9789211727,1.249397375,0.2272706464,-0.8150986896,-0.9068761148,-0.926333977,-0.3824770602,1.014548051,-0.640628289,-0.4083977834,-0.2276118479,-1.869871505,-0.1709040137,1.119270955,-0.6885766309,0.3699556458,0.4589418511,0.007879544725,-0.8048953356,1.862565678,-0.1120443789,2.147342686,1.40997284,0.4803333464,0.7156777661,-0.1645158224,0.9786684257,-0.8032675505,-0.3841155898],
			[0.04300951718,0.250226141,-1.093086759,1.051699779,0.6151648006,-0.01402344734,0.4596270468,1.972335319,-0.1496712338,-0.4595668527,-0.4548549032,-0.438513837,-0.3994113387,0.1421265259,0.4305412083,0.1220923597,-0.1386161089,2.216758899,0.2690814493,1.159027753,-0.5179313317,-0.9139936679,-0.9967673192,-1.250958914,0.2367458037,1.131071788,-0.2923766206,1.043693979,-0.7640556705,0.2652779768],
			[-1.338968557,0.3410069379,-0.3891886345,-0.8366314979,1.515737233,-1.134002793,0.8297303915,-0.8949256187,-0.1474642964,-1.956658723,0.01298980869,1.369589435,-0.6710514387,-0.5746348341,1.398219505,-0.2554877503,-0.3285488224,-0.004753186422,0.573538107,-1.38911777,1.104857839,-2.733227472,0.9199124514,-0.1894746013,0.2590488289,-1.738994141,2.092495235,0.2019814259,1.372652945,1.041799028],
			[1.609915414,-0.1044764428,0.3890943157,0.7275824038,0.826665069,0.6998311713,0.3764552943,-0.1943651844,-0.8854647833,-0.02344221483,0.007242170181,2.524188132,-0.8361097831,0.0611118485,1.917752314,0.32581181,-0.02689264503,-0.09444122304,-0.9199425396,1.637563446,-0.1989330579,-0.4115420736,0.915654478,-0.1729453604,0.9457824853,-1.507740915,-1.743305307,-0.4568834389,0.135324293,-0.5469502346]
		],
		"E": [
			[0.6406164463,-1.052636745,-0.1117710953,1.051921414,0.3942948807,0.4662547413,-0.2501596268,1.529127346,-0.5147649404,-1.716203958,-0.2833685965,-0.4549741882,-1.310925094,-2.093994555,1.435233953,1.309616305,-2.09786598,1.630187015,1.486626598,-1.34844421,0.1251053534,1.243098534,-0.1570695164,0.7915028995,0.1093425065,-0.7890416283,-1.012165327,0.4341143599,-0.4120454596,-1.964387512],
			[-1.073416477,-0.5846876186,1.082836286,0.7497305965,-1.705177755,0.4463052928,0.05838280181,-0.6686415028,1.342476344,-0.7236109761,-1.460206817,0.606826919,-1.175172953,-0.3519519592,1.223496603,0.4315533223,-0.2269984615,-1.680325162,-1.000193222,0.1481601437,1.596576445,0.5282323751,-0.4765834845,1.274865307,-0.07295832255,0.1352911939,-1.105949933,-0.3763515201,-0.6960126213,0.6735889798],
			[0.09522929572,-0.04258622493,0.05463797273,-0.2001022778,0.8468729468,-0.3090501443,-0.2008958047,1.022905154,-0.7237414295,-0.7429240052,-0.2404451735,0.3164665047,-1.869590565,-1.276960035,-0.5810944436,-1.241293214,0.3905372078,-0.2504276484,0.4976546064,-1.548503004,-0.4186196269,1.612112018,0.02572237247,0.6926464885,-0.3286502823,1.350334866,-0.269341812,0.2031280143,0.3199776021,-0.8001543224],
			[0.8994223012,0.2250400926,0.4114157987,-0.3209106747,0.9027326846,1.06007646,-0.01856603083,0.8960097682,-0.9713154558,0.863570148,1.047238946,-0.02836046393,-0.04446486777,0.8521998027,-0.938169269,-0.686332738,0.1914578046,-0.04271464365,0.434557276,0.06964169361,0.4104946098,0.4858424935,0.1227193851,1.631770212,-0.5258590645,-0.9577896954,1.193532305,-0.1628256812,-0.5361398228,-0.1005971039],
			[0.5635905698,0.3620083619,0.1400234124,-0.9454363046,0.4330711031,-0.8106085594,1.008651907,0.02378418608,0.5284390418,-0.02066288467,-0.08212353817,0.1060192148,2.295421522,-1.854039005,0.7844573871,1.518026962,0.8855225315,-0.9834529911,-0.07118064076,-0.768163266,0.4102073266,1.482344815,0.5681659783,-0.8898462385,1.29441158,0.4282168295,-1.14827936,0.1660032514,-1.954369126,-0.545217286],
			[-1.310828549,-0.8569910306,0.4790913017,-0.2761277088,1.35242169,-0.6961834303,-1.897288559,0.5452759537,-0.7308353278,0.862641502,1.3622937,-0.7474892054,-0.5002922131,-0.05942636115,-0.8532615434,-0.1581252861,0.7123872247,0.2533944553,-0.02704707301,-0.5896890424,-0.5055302636,0.1088402215,0.1054790515,-1.059664424,-0.5149690343,0.4033826987,1.004475637,0.9960214817,-0.2588867553,-0.2084757276],
			[1.349629368,-0.9789211727,1.249397375,0.2972038006,-0.6425977094,-0.9068761148,-0.9641886508,-0.4578789363,1.014548051,-0.641279884,-0.4123048443,-0.2276118479,-1.869871505,-0.1009708595,1.291771935,-0.6885766309,0.3321009719,0.3835399749,0.007879544725,-0.8055469307,1.858658617,-0.1120443789,2.147342686,1.479905994,0.6528343266,0.7156777661,-0.2023704962,0.9032665495,-0.8032675505,-0.3847671848],
			[0.008598244567,0.250226141,-1.093086759,1.051699779,0.6151648006,-0.01402344734,0.4596270468,1.308236501,-0.1496712338,-0.4595668527,-0.4892661758,-0.438513837,-0.3994113387,0.1421265259,0.4305412083,0.1220923597,-0.1386161089,1.552660081,0.2690814493,1.159027753,-0.5523426043,-0.9139936679,-0.9967673192,-1.250958914,0.2367458037,1.131071788,-0.2923766206,0.379595161,-0.7640556705,0.2652779768],
			[-1.29006065,0.3410069379,-0.3891886345,-0.8181484142,1.561328628,-0.8539139052,0.8662336728,-0.4745404834,-0.3132825265,-2.073810204,0.0618977157,1.369589435,-0.6710514387,-0.5561517504,1.4438109,0.02460113765,-0.2920455411,0.4156319489,0.4077198769,-1.506269251,1.153765746,-2.733227472,0.9199124514,-0.1709915176,0.3046402238,-1.458905253,2.128998516,0.6223665612,1.206834715,0.9246475475],
			[1.609915414,-0.1044764428,0.3890943157,0.7275824038,0.826665069,0.6998311713,0.3764552943,-0.1943651844,-0.8854647833,-0.138272553,0.007242170181,2.524188132,-0.8361097831,0.0611118485,1.917752314,0.32581181,-0.02689264503,-0.09444122304,-0.9199425396,1.522733108,-0.1989330579,-0.4115420736,0.915654478,-0.1729453604,0.9457824853,-1.507740915,-1.743305307,-0.4568834389,0.135324293,-0.6617805728]
		],
		"cvY": [
			[0.8247023742,0,0,0,0,0,0,0,0,0],
			[0,0.8247023742,0,0,0,0,0,0,0,0],
			[0,0,0.8247023742,0,0,0,0,0,0,0],
			[0,0,0,0.8247023742,0,0,0,0,0,0],
			[0,0,0,0,0.8247023742,0,0,0,0,0],
			[0,0,0,0,0,0.8247023742,0,0,0,0],
			[0,0,0,0,0,0,0.8247023742,0,0,0],
			[0,0,0,0,0,0,0,0.8247023742,0,0],
			[0,0,0,0,0,0,0,0,0.8247023742,0],
			[0,0,0,0,0,0,0,0,0,0.8247023742]
		],
		"sdY": [
			[0.9081312538,0.9081312538,0.9081312538,0.9081312538,0.9081312538,0.9081312538,0.9081312538,0.9081312538,0.9081312538,0.9081312538,0.9081312538,0.9081312538,0.9081312538,0.9081312538,0.9081312538,0.9081312538,0.9081312538,0.9081312538,0.9081312538,0.9081312538,0.9081312538,0.9081312538,0.9081312538,0.9081312538,0.9081312538,0.9081312538,0.9081312538,0.9081312538,0.9081312538,0.9081312538],
			[0.9081312538,0.9081312538,0.9081312538,0.9081312538,0.9081312538,0.9081312538,0.9081312538,0.9081312538,0.9081312538,0.9081312538,0.9081312538,0.9081312538,0.9081312538,0.9081312538,0.9081312538,0.9081312538,0.9081312538,0.9081312538,0.9081312538,0.9081312538,0.9081312538,0.9081312538,0.9081312538,0.9081312538,0.9081312538,0.9081312538,0.9081312538,0.9081312538,0.9081312538,0.9081312538],
			[0.9081312538,0.9081312538,0.9081312538,0.9081312538,0.9081312538,0.9081312538,0.9081312538,0.9081312538,0.9081312538,0.9081312538,0.9081312538,0.9081312538,0.9081312538,0.9081312538,0.9081312538,0.9081312538,0.9081312538,0.9081312538,0.9081312538,0.9081312538,0.9081312538,0.9081312538,0.9081312538,0.9081312538,0.9081312538,0.9081312538,0.9081312538,0.9081312538,0.9081312538,0.9081312538],
			[0.9081312538,0.9081312538,0.9081312538,0.9081312538,0.9081312538,0.9081312538,0.9081312538,0.9081312538,0.9081312538,0.9081312538,0.9081312538,0.9081312538,0.9081312538,0.9081312538,0.9081312538,0.9081312538,0.9081312538,0.9081312538,0.9081312538,0.9081312538,0.9081312538,0.9081312538,0.9081312538,0.9081312538,0.9081312538,0.9081312538,0.9081312538,0.9081312538,0.9081312538,0.9081312538],
			[0.9081312538,0.9081312538,0.9081312538,0.9081312538,0.9081312538,0.9081312538,0.9081312538,0.9081312538,0.9081312538,0.9081312538,0.9081312538,0.9081312538,0.9081312538,0.9081312538,0.9081312538,0.9081312538,0.9081312538,0.9081312538,0.9081312538,0.9081312538,0.9081312538,0.9081312538,0.9081312538,0.9081312538,0.9081312538,0.9081312538,0.9081312538,0.9081312538,0.9081312538,0.9081312538],
			[0.9081312538,0.9081312538,0.9081312538,0.9081312538,0.9081312538,0.9081312538,0.9081312538,0.9081312538,0.9081312538,0.9081312538,0.9081312538,0.9081312538,0.9081312538,0.9081312538,0.9081312538,0.9081312538,0.9081312538,0.9081312538,0.9081312538,0.9081312538,0.9081312538,0.9081312538,0.9081312538,0.9081312538,0.9081312538,0.9081312538,0.9081312538,0.9081312538,0.9081312538,0.9081312538],
			[0.9081312538,0.9081312538,0.9081312538,0.9081312538,0.9081312538,0.9081312538,0.9081312538,0.9081312538,0.9081312538,0.9081312538,0.9081312538,0.9081312538,0.9081312538,0.9081312538,0.9081312538,0.9081312538,0.9081312538,0.9081312538,0.9081312538,0.9081312538,0.9081312538,0.9081312538,0.9081312538,0.9081312538,0.9081312538,0.9081312538,0.9081312538,0.9081312538,0.9081312538,0.9081312538],
			[0.9081312538,0.9081312538,0.9081312538,0.9081312538,0.9081312538,0.9081312538,0.9081312538,0.9081312538,0.9081312538,0.9081312538,0.9081312538,0.9081312538,0.9081312538,0.9081312538,0.9081312538,0.9081312538,0.9081312538,0.9081312538,0.9081312538,0.9081312538,0.9081312538,0.9081312538,0.9081312538,0.9081312538,0.9081312538,0.9081312538,0.9081312538,0.9081312538,0.9081312538,0.9081312538],
			[0.9081312538,0.9081312538,0.9081312538,0.9081312538,0.9081312538,0.9081312538,0.9081312538,0.9081312538,0.9081312538,0.9081312538,0.9081312538,0.9081312538,0.9081312538,0.9081312538,0.9081312538,0.9081312538,0.9081312538,0.9081312538,0.9081312538,0.9081312538,0.9081312538,0.9081312538,0.9081312538,0.9081312538,0.9081312538,0.9081312538,0.9081312538,0.9081312538,0.9081312538,0.9081312538],
			[0.9081312538,0.9081312538,0.9081312538,0.9081312538,0.9081312538,0.9081312538,0.9081312538,0.9081312538,0.9081312538,0.9081312538,0.9081312538,0.9081312538,0.9081312538,0.9081312538,0.9081312538,0.9081312538,0.9081312538,0.9081312538,0.9081312538,0.9081312538,0.9081312538,0.9081312538,0.9081312538,0.9081312538,0.9081312538,0.9081312538,0.9081312538,0.9081312538,0.9081312538,0.9081312538]
		],
		"lambda": [0.8247023742,0],
		"SNR_L": 0.01,
		"names": [
			"G01",
			"G02",
			"G03",
			"G04",
			"G05",
			"G06",
			"G07",
			"G08",
			"G09",
			"G10"
		],
		"description": "",
		"N": 10,
		"M": 30,
		"created": {
			"creator": "sparx",
			"time": 736279.7794,
			"id": "1005621",
			"nexp": ""
		},
		"tol": 2.220446049e-16
	}
}
