{
	"obj_data": {
		"dataset": "Tjarnberg-ID959144-D20151111-N10-E30-SNR10-IDY959144",
		"network": "Tjarnberg-D20150924-smallworld-N10-L30-ID959144",
		"P": [
			[1,0,0,0,0,0,0,0,0,0,1,0,0,0,0,0,0,0,0,0,1,0,0,0,0,0,0,0,0,0],
			[0,1,0,0,0,0,0,0,0,0,0,1,0,0,0,0,0,0,0,0,0,1,0,0,0,0,0,0,0,0],
			[0,0,1,0,0,0,0,0,0,0,0,0,1,0,0,0,0,0,0,0,0,0,1,0,0,0,0,0,0,0],
			[0,0,0,1,0,0,0,0,0,0,0,0,0,1,0,0,0,0,0,0,0,0,0,1,0,0,0,0,0,0],
			[0,0,0,0,1,0,0,0,0,0,0,0,0,0,1,0,0,0,0,0,0,0,0,0,1,0,0,0,0,0],
			[0,0,0,0,0,1,0,0,0,0,0,0,0,0,0,1,0,0,0,0,0,0,0,0,0,1,0,0,0,0],
			[0,0,0,0,0,0,1,0,0,0,0,0,0,0,0,0,1,0,0,0,0,0,0,0,0,0,1,0,0,0],
			[0,0,0,0,0,0,0,1,0,0,0,0,0,0,0,0,0,1,0,0,0,0,0,0,0,0,0,1,0,0],
			[0,0,0,0,0,0,0,0,1,0,0,0,0,0,0,0,0,0,1,0,0,0,0,0,0,0,0,0,1,0],
			[0,0,0,0,0,0,0,0,0,1,0,0,0,0,0,0,0,0,0,1,0,0,0,0,0,0,0,0,0,1]
		],
		"F": [
			[0,0,0,0,0,0,0,0,0,0,0,0,0,0,0,0,0,0,0,0,0,0,0,0,0,0,0,0,0,0],
			[0,0,0,0,0,0,0,0,0,0,0,0,0,0,0,0,0,0,0,0,0,0,0,0,0,0,0,0,0,0],
			[0,0,0,0,0,0,0,0,0,0,0,0,0,0,0,0,0,0,0,0,0,0,0,0,0,0,0,0,0,0],
			[0,0,0,0,0,0,0,0,0,0,0,0,0,0,0,0,0,0,0,0,0,0,0,0,0,0,0,0,0,0],
			[0,0,0,0,0,0,0,0,0,0,0,0,0,0,0,0,0,0,0,0,0,0,0,0,0,0,0,0,0,0],
			[0,0,0,0,0,0,0,0,0,0,0,0,0,0,0,0,0,0,0,0,0,0,0,0,0,0,0,0,0,0],
			[0,0,0,0,0,0,0,0,0,0,0,0,0,0,0,0,0,0,0,0,0,0,0,0,0,0,0,0,0,0],
			[0,0,0,0,0,0,0,0,0,0,0,0,0,0,0,0,0,0,0,0,0,0,0,0,0,0,0,0,0,0],
			[0,0,0,0,0,0,0,0,0,0,0,0,0,0,0,0,0,0,0,0,0,0,0,0,0,0,0,0,0,0],
			[0,0,0,0,0,0,0,0,0,0,0,0,0,0,0,0,0,0,0,0,0,0,0,0,0,0,0,0,0,0]
		],
		"cvP": [
			[0,0,0,0,0,0,0,0,0,0],
			[0,0,0,0,0,0,0,0,0,0],
			[0,0,0,0,0,0,0,0,0,0],
			[0,0,0,0,0,0,0,0,0,0],
			[0,0,0,0,0,0,0,0,0,0],
			[0,0,0,0,0,0,0,0,0,0],
			[0,0,0,0,0,0,0,0,0,0],
			[0,0,0,0,0,0,0,0,0,0],
			[0,0,0,0,0,0,0,0,0,0],
			[0,0,0,0,0,0,0,0,0,0]
		],
		"sdP": [
			[0,0,0,0,0,0,0,0,0,0,0,0,0,0,0,0,0,0,0,0,0,0,0,0,0,0,0,0,0,0],
			[0,0,0,0,0,0,0,0,0,0,0,0,0,0,0,0,0,0,0,0,0,0,0,0,0,0,0,0,0,0],
			[0,0,0,0,0,0,0,0,0,0,0,0,0,0,0,0,0,0,0,0,0,0,0,0,0,0,0,0,0,0],
			[0,0,0,0,0,0,0,0,0,0,0,0,0,0,0,0,0,0,0,0,0,0,0,0,0,0,0,0,0,0],
			[0,0,0,0,0,0,0,0,0,0,0,0,0,0,0,0,0,0,0,0,0,0,0,0,0,0,0,0,0,0],
			[0,0,0,0,0,0,0,0,0,0,0,0,0,0,0,0,0,0,0,0,0,0,0,0,0,0,0,0,0,0],
			[0,0,0,0,0,0,0,0,0,0,0,0,0,0,0,0,0,0,0,0,0,0,0,0,0,0,0,0,0,0],
			[0,0,0,0,0,0,0,0,0,0,0,0,0,0,0,0,0,0,0,0,0,0,0,0,0,0,0,0,0,0],
			[0,0,0,0,0,0,0,0,0,0,0,0,0,0,0,0,0,0,0,0,0,0,0,0,0,0,0,0,0,0],
			[0,0,0,0,0,0,0,0,0,0,0,0,0,0,0,0,0,0,0,0,0,0,0,0,0,0,0,0,0,0]
		],
		"Y": [
			[7.980478605,-0.07099085786,0.3456747267,0.8900307659,-0.2857276693,0.5232002882,-0.9678357886,-2.771270141,-1.374720454,-2.749968315,7.011981811,0.5554632979,-0.9112469216,-2.407435523,0.8053572593,1.407189674,-2.90455294,-2.665342057,0.7230854612,-2.364492231,7.440133451,2.335338417,0.2981941144,0.6170669357,-0.5844072454,-0.7925683155,-1.7665501,-3.919033923,-1.267052599,-3.010107783],
			[0.006154960968,-0.319939568,1.334028673,0.8140403116,-1.860127001,0.5276881428,-0.09959664502,-1.869812138,1.27788331,-0.905678754,-0.3992684899,0.9289745987,-1.03275716,-0.3407143369,1.209632351,0.5122255157,-0.3987257714,-2.930232314,-1.177641249,0.00808878084,2.804771243,0.8465938671,-0.3005140723,1.364472689,-0.149277567,0.201691353,-1.320019562,-1.563441474,-0.8588071521,0.5588294528],
			[1.10573386,0.2248340158,0.8203223231,0.09639236856,0.9857434247,-0.01975009295,-0.5908276587,-2.230489084,-0.8735470432,-0.9096089831,0.7538887199,0.6011836335,-1.196603367,-1.03234158,-0.5110143967,-0.9969027333,0.02909685301,-3.565163002,0.4066881232,-1.753995679,0.567130949,1.959245147,0.7900137522,1.03214812,-0.2464090735,1.719573584,-0.6625709615,-3.089757898,0.2204517655,-0.9695962948],
			[2.045548987,0.5524433236,1.383817293,0.6581127897,1.435393025,1.721544751,0.2361181992,0.4612979795,-1.144117674,0.7616691629,2.200486503,0.2868355321,0.9059751813,1.887736305,-0.4941919329,-0.108995389,0.4562596538,-0.5226482332,0.3294811081,-0.07050573945,1.533067854,0.8258095335,1.081213313,2.704861483,-0.06201923238,-0.3935294245,1.506607761,-0.6485454603,-0.6879780332,-0.2489455648],
			[1.008343234,0.531575465,0.6845534979,-0.4084848072,1.221539308,-0.4971220515,1.226644082,-0.1195050699,0.5061788698,-0.07599907842,0.3315227074,0.2632543809,2.943785046,-1.360858235,1.58985316,1.943692391,1.097583112,-1.175264559,-0.1223266939,-0.8595092971,0.8475709572,1.705882637,1.133321263,-0.3502167636,2.124373718,0.8013821039,-1.034194482,0.0295652099,-2.096235282,-0.6258231908],
			[-0.869742309,-0.7688540446,0.8536134889,-0.3122792558,1.364607758,-0.5082897115,-1.906324732,0.3356946023,-0.8236582188,0.838584379,1.932154051,-0.6540771145,-0.172950525,-0.08513860875,-0.947331334,0.05568866871,0.8290687135,0.02975210063,-0.08596590032,-0.683710259,-0.02564984946,0.2435048444,0.4620029651,-1.133561811,-0.5927420328,0.6442465543,1.135228096,0.8081541969,-0.3289741511,-0.2841324994],
			[2.418388565,-0.7684493133,2.009177575,0.2660363776,-0.7789878107,-0.7945377569,-0.846682548,-0.9494253009,0.9487306815,-0.8027853431,0.5715755134,0.01905333968,-1.260357938,-0.1513198175,1.248567521,-0.5657219855,0.5120541043,-0.06747215202,-0.1064327421,-0.9749657364,2.951939621,0.1401881179,2.950380208,1.505713677,0.5788499418,0.9061805006,-0.04816481639,0.4772915596,-0.9566557705,-0.5339154856],
			[4.40484434,1.371892954,1.815619973,0.3214148921,-0.1539263123,0.424101856,1.157777109,3.999643465,-0.6591677863,-1.053716336,3.882995963,0.6499738433,2.542712284,-0.631975843,-0.3474439007,0.5667748611,0.5307143841,4.255841826,-0.2202422492,0.6428519127,3.816880912,0.1515884035,1.916579474,-2.092171323,-0.5505751414,1.624360532,0.3695466641,3.026266063,-1.303149377,-0.2939530705],
			[-1.264943413,0.575500939,0.7270639638,0.4533753273,3.411942625,-0.12028978,1.362774178,-0.3166375804,1.890095151,-0.4957243892,0.1521437497,1.653634031,0.4316227938,0.7279933322,3.288763636,0.8005465574,0.1486964021,0.6164177257,2.645830886,0.09915709495,1.296611071,-2.646830628,2.099229255,1.131708147,2.094714927,-0.7544257814,2.686371039,0.8331115031,3.483442019,2.647180079],
			[1.786848591,0.1388275537,1.700393149,2.255545411,2.888336972,1.615852083,0.9125352596,0.002127170888,0.7498679922,1.765982712,0.1069686936,2.89412455,0.4161664709,1.556968523,4.031985895,1.223814836,0.4897565694,0.1068648363,0.7137293159,3.507005112,-0.1091387521,-0.1830305557,2.252319647,1.311635919,3.013192712,-0.6980668541,-1.309341992,-0.2730375515,1.819832226,1.217255389]
		],
		"E": [
			[0.6714772921,-1.103346121,-0.1171555193,1.10259633,0.4132895125,0.4887159438,-0.2622107343,1.602791024,-0.5395630572,-1.798879802,-0.297019502,-0.476891965,-1.374077168,-2.194869959,1.504374441,1.37270533,-2.198927886,1.708719108,1.558242858,-1.413403718,0.1311321375,1.302983154,-0.1646361316,0.8296324996,0.1146099364,-0.82705266,-1.060925046,0.4550272421,-0.4318952019,-2.05901927],
			[-1.125126889,-0.6128541675,1.135000485,0.7858478715,-1.787322427,0.4678054571,0.06119531568,-0.7008524184,1.407148357,-0.7584699731,-1.53055034,0.6360599992,-1.231785348,-0.368906777,1.282436925,0.45234283,-0.2379338107,-1.761272594,-1.048376201,0.1552975617,1.673489393,0.5536792677,-0.4995422604,1.336280249,-0.07647299276,0.1418086673,-1.159227601,-0.3944817544,-0.7295421042,0.7060382336],
			[0.09981684046,-0.04463775972,0.05727008444,-0.2097419391,0.8876699254,-0.3239382242,-0.210573693,1.07218225,-0.7586067109,-0.7787133816,-0.2520283002,0.331711858,-1.959655605,-1.338475888,-0.609087896,-1.301090865,0.4093508187,-0.2624916675,0.5216284556,-1.623100078,-0.438786071,1.689773372,0.02696151357,0.7260138125,-0.3444825728,1.415385453,-0.2823169958,0.2129134364,0.3353920978,-0.8387006933],
			[0.9427507751,0.2358810999,0.431235208,-0.3363701199,0.9462206318,1.111144235,-0.01946042469,0.9391738479,-1.018107287,0.905171492,1.09768829,-0.02972669158,-0.04660690367,0.8932533955,-0.9833643266,-0.7193959054,0.2006810299,-0.04477236483,0.4554914951,0.07299658964,0.430269642,0.5092473099,0.1286312284,1.710378573,-0.551191626,-1.003929941,1.251029137,-0.170669592,-0.5619676462,-0.1054432357],
			[0.5907407964,0.3794476336,0.1467688542,-0.9909814419,0.4539337278,-0.8496585493,1.057242372,0.02492995763,0.5538958903,-0.02165829168,-0.08607973046,0.1111265495,2.406000403,-1.94335487,0.8222475791,1.591155893,0.9281814025,-1.030829532,-0.07460967352,-0.8051685103,0.4299685194,1.553754806,0.5955366191,-0.9327133983,1.356768138,0.4488456061,-1.203596192,0.1740002374,-2.048518261,-0.5714824041],
			[-1.373975972,-0.8982754345,0.5021708884,-0.2894297942,1.417572808,-0.7297211417,-1.988687913,0.571543898,-0.7660423483,0.9041981098,1.427920388,-0.7834985044,-0.5243931255,-0.06228914711,-0.8943662842,-0.1657427615,0.7467055324,0.2656013964,-0.0283500298,-0.6180965282,-0.5298835121,0.1140834545,0.1105603646,-1.110712349,-0.539776983,0.422815124,1.052864915,1.044003493,-0.2713582806,-0.2185187686],
			[1.414645969,-1.026079399,1.309585433,0.3115211987,-0.6735539999,-0.9505636663,-1.010637157,-0.4799366455,1.063422555,-0.6721726901,-0.4321670821,-0.2385767461,-1.95995008,-0.1058349964,1.354001331,-0.7217478949,0.3480994949,0.4020165034,0.008259131319,-0.8443530834,1.948197025,-0.1174419679,2.250788066,1.551198498,0.6842837525,0.7501545912,-0.2121194259,0.946780215,-0.8419638971,-0.4033028326],
			[0.009012453571,0.2622804527,-1.145744761,1.102364018,0.6447995472,-0.01469900827,0.4817689689,1.371259056,-0.1568814466,-0.4817058749,-0.5128359235,-0.4596386582,-0.4186524491,0.1489732824,0.4512819588,0.1279739968,-0.1452937557,1.627457417,0.2820440905,1.214862374,-0.5789509751,-0.958024098,-1.04478526,-1.311222197,0.2481507181,1.185559668,-0.3064614757,0.3978816533,-0.8008630369,0.2780573908],
			[-1.352207607,0.3574344939,-0.4079372797,-0.8575616266,1.636543559,-0.8950500726,0.9079633287,-0.4974008404,-0.3283744958,-2.173713254,0.06487955588,1.435567586,-0.7033784498,-0.5829436218,1.513364571,0.02578626475,-0.3061144468,0.4356544656,0.42736124,-1.57883177,1.209346877,-2.864897073,0.964228011,-0.1792288067,0.3193158617,-1.529186074,2.23156019,0.652348243,1.264972373,0.9691912141],
			[1.687470949,-0.1095094566,0.4078384172,0.762632719,0.8664885599,0.7335446078,0.3945905277,-0.2037284688,-0.9281208724,-0.1449336495,0.007591052104,2.64578754,-0.8763882605,0.06405583057,2.010137483,0.3415073609,-0.02818816246,-0.09899080343,-0.9642595487,1.596088751,-0.2085163936,-0.431367566,0.9597649154,-0.1812767733,0.9913442994,-1.58037433,-1.827286723,-0.4788931913,0.1418433609,-0.6936609723]
		],
		"cvY": [
			[0.9060741445,0,0,0,0,0,0,0,0,0],
			[0,0.9060741445,0,0,0,0,0,0,0,0],
			[0,0,0.9060741445,0,0,0,0,0,0,0],
			[0,0,0,0.9060741445,0,0,0,0,0,0],
			[0,0,0,0,0.9060741445,0,0,0,0,0],
			[0,0,0,0,0,0.9060741445,0,0,0,0],
			[0,0,0,0,0,0,0.9060741445,0,0,0],
			[0,0,0,0,0,0,0,0.9060741445,0,0],
			[0,0,0,0,0,0,0,0,0.9060741445,0],
			[0,0,0,0,0,0,0,0,0,0.9060741445]
		],
		"sdY": [
			[0.9518792699,0.9518792699,0.9518792699,0.9518792699,0.9518792699,0.9518792699,0.9518792699,0.9518792699,0.9518792699,0.9518792699,0.9518792699,0.9518792699,0.9518792699,0.9518792699,0.9518792699,0.9518792699,0.9518792699,0.9518792699,0.9518792699,0.9518792699,0.9518792699,0.9518792699,0.9518792699,0.9518792699,0.9518792699,0.9518792699,0.9518792699,0.9518792699,0.9518792699,0.9518792699],
			[0.9518792699,0.9518792699,0.9518792699,0.9518792699,0.9518792699,0.9518792699,0.9518792699,0.9518792699,0.9518792699,0.9518792699,0.9518792699,0.9518792699,0.9518792699,0.9518792699,0.9518792699,0.9518792699,0.9518792699,0.9518792699,0.9518792699,0.9518792699,0.9518792699,0.9518792699,0.9518792699,0.9518792699,0.9518792699,0.9518792699,0.9518792699,0.9518792699,0.9518792699,0.9518792699],
			[0.9518792699,0.9518792699,0.9518792699,0.9518792699,0.9518792699,0.9518792699,0.9518792699,0.9518792699,0.9518792699,0.9518792699,0.9518792699,0.9518792699,0.9518792699,0.9518792699,0.9518792699,0.9518792699,0.9518792699,0.9518792699,0.9518792699,0.9518792699,0.9518792699,0.9518792699,0.9518792699,0.9518792699,0.9518792699,0.9518792699,0.9518792699,0.9518792699,0.9518792699,0.9518792699],
			[0.9518792699,0.9518792699,0.9518792699,0.9518792699,0.9518792699,0.9518792699,0.9518792699,0.9518792699,0.9518792699,0.9518792699,0.9518792699,0.9518792699,0.9518792699,0.9518792699,0.9518792699,0.9518792699,0.9518792699,0.9518792699,0.9518792699,0.9518792699,0.9518792699,0.9518792699,0.9518792699,0.9518792699,0.9518792699,0.9518792699,0.9518792699,0.9518792699,0.9518792699,0.9518792699],
			[0.9518792699,0.9518792699,0.9518792699,0.9518792699,0.9518792699,0.9518792699,0.9518792699,0.9518792699,0.9518792699,0.9518792699,0.9518792699,0.9518792699,0.9518792699,0.9518792699,0.9518792699,0.9518792699,0.9518792699,0.9518792699,0.9518792699,0.9518792699,0.9518792699,0.9518792699,0.9518792699,0.9518792699,0.9518792699,0.9518792699,0.9518792699,0.9518792699,0.9518792699,0.9518792699],
			[0.9518792699,0.9518792699,0.9518792699,0.9518792699,0.9518792699,0.9518792699,0.9518792699,0.9518792699,0.9518792699,0.9518792699,0.9518792699,0.9518792699,0.9518792699,0.9518792699,0.9518792699,0.9518792699,0.9518792699,0.9518792699,0.9518792699,0.9518792699,0.9518792699,0.9518792699,0.9518792699,0.9518792699,0.9518792699,0.9518792699,0.9518792699,0.9518792699,0.9518792699,0.9518792699],
			[0.9518792699,0.9518792699,0.9518792699,0.9518792699,0.9518792699,0.9518792699,0.9518792699,0.9518792699,0.9518792699,0.9518792699,0.9518792699,0.9518792699,0.9518792699,0.9518792699,0.9518792699,0.9518792699,0.9518792699,0.9518792699,0.9518792699,0.9518792699,0.9518792699,0.9518792699,0.9518792699,0.9518792699,0.9518792699,0.9518792699,0.9518792699,0.9518792699,0.9518792699,0.9518792699],
			[0.9518792699,0.9518792699,0.9518792699,0.9518792699,0.9518792699,0.9518792699,0.9518792699,0.9518792699,0.9518792699,0.9518792699,0.9518792699,0.9518792699,0.9518792699,0.9518792699,0.9518792699,0.9518792699,0.9518792699,0.9518792699,0.9518792699,0.9518792699,0.9518792699,0.9518792699,0.9518792699,0.9518792699,0.9518792699,0.9518792699,0.9518792699,0.9518792699,0.9518792699,0.9518792699],
			[0.9518792699,0.9518792699,0.9518792699,0.9518792699,0.9518792699,0.9518792699,0.9518792699,0.9518792699,0.9518792699,0.9518792699,0.9518792699,0.9518792699,0.9518792699,0.9518792699,0.9518792699,0.9518792699,0.9518792699,0.9518792699,0.9518792699,0.9518792699,0.9518792699,0.9518792699,0.9518792699,0.9518792699,0.9518792699,0.9518792699,0.9518792699,0.9518792699,0.9518792699,0.9518792699],
			[0.9518792699,0.9518792699,0.9518792699,0.9518792699,0.9518792699,0.9518792699,0.9518792699,0.9518792699,0.9518792699,0.9518792699,0.9518792699,0.9518792699,0.9518792699,0.9518792699,0.9518792699,0.9518792699,0.9518792699,0.9518792699,0.9518792699,0.9518792699,0.9518792699,0.9518792699,0.9518792699,0.9518792699,0.9518792699,0.9518792699,0.9518792699,0.9518792699,0.9518792699,0.9518792699]
		],
		"lambda": [0.9060741445,0],
		"SNR_L": 0.01,
		"names": [
			"G01",
			"G02",
			"G03",
			"G04",
			"G05",
			"G06",
			"G07",
			"G08",
			"G09",
			"G10"
		],
		"description": "",
		"N": 10,
		"M": 30,
		"created": {
			"creator": "sparx",
			"time": 736279.7794,
			"id": "959144",
			"nexp": ""
		},
		"tol": 2.220446049e-16
	}
}
