{
	"obj_data": {
		"dataset": "Tjarnberg-ID959069-D20151111-N10-E30-SNR10-IDY959069",
		"network": "Tjarnberg-D20150924-smallworld-N10-L30-ID959069",
		"P": [
			[1,0,0,0,0,0,0,0,0,0,1,0,0,0,0,0,0,0,0,0,1,0,0,0,0,0,0,0,0,0],
			[0,1,0,0,0,0,0,0,0,0,0,1,0,0,0,0,0,0,0,0,0,1,0,0,0,0,0,0,0,0],
			[0,0,1,0,0,0,0,0,0,0,0,0,1,0,0,0,0,0,0,0,0,0,1,0,0,0,0,0,0,0],
			[0,0,0,1,0,0,0,0,0,0,0,0,0,1,0,0,0,0,0,0,0,0,0,1,0,0,0,0,0,0],
			[0,0,0,0,1,0,0,0,0,0,0,0,0,0,1,0,0,0,0,0,0,0,0,0,1,0,0,0,0,0],
			[0,0,0,0,0,1,0,0,0,0,0,0,0,0,0,1,0,0,0,0,0,0,0,0,0,1,0,0,0,0],
			[0,0,0,0,0,0,1,0,0,0,0,0,0,0,0,0,1,0,0,0,0,0,0,0,0,0,1,0,0,0],
			[0,0,0,0,0,0,0,1,0,0,0,0,0,0,0,0,0,1,0,0,0,0,0,0,0,0,0,1,0,0],
			[0,0,0,0,0,0,0,0,1,0,0,0,0,0,0,0,0,0,1,0,0,0,0,0,0,0,0,0,1,0],
			[0,0,0,0,0,0,0,0,0,1,0,0,0,0,0,0,0,0,0,1,0,0,0,0,0,0,0,0,0,1]
		],
		"F": [
			[0,0,0,0,0,0,0,0,0,0,0,0,0,0,0,0,0,0,0,0,0,0,0,0,0,0,0,0,0,0],
			[0,0,0,0,0,0,0,0,0,0,0,0,0,0,0,0,0,0,0,0,0,0,0,0,0,0,0,0,0,0],
			[0,0,0,0,0,0,0,0,0,0,0,0,0,0,0,0,0,0,0,0,0,0,0,0,0,0,0,0,0,0],
			[0,0,0,0,0,0,0,0,0,0,0,0,0,0,0,0,0,0,0,0,0,0,0,0,0,0,0,0,0,0],
			[0,0,0,0,0,0,0,0,0,0,0,0,0,0,0,0,0,0,0,0,0,0,0,0,0,0,0,0,0,0],
			[0,0,0,0,0,0,0,0,0,0,0,0,0,0,0,0,0,0,0,0,0,0,0,0,0,0,0,0,0,0],
			[0,0,0,0,0,0,0,0,0,0,0,0,0,0,0,0,0,0,0,0,0,0,0,0,0,0,0,0,0,0],
			[0,0,0,0,0,0,0,0,0,0,0,0,0,0,0,0,0,0,0,0,0,0,0,0,0,0,0,0,0,0],
			[0,0,0,0,0,0,0,0,0,0,0,0,0,0,0,0,0,0,0,0,0,0,0,0,0,0,0,0,0,0],
			[0,0,0,0,0,0,0,0,0,0,0,0,0,0,0,0,0,0,0,0,0,0,0,0,0,0,0,0,0,0]
		],
		"cvP": [
			[0,0,0,0,0,0,0,0,0,0],
			[0,0,0,0,0,0,0,0,0,0],
			[0,0,0,0,0,0,0,0,0,0],
			[0,0,0,0,0,0,0,0,0,0],
			[0,0,0,0,0,0,0,0,0,0],
			[0,0,0,0,0,0,0,0,0,0],
			[0,0,0,0,0,0,0,0,0,0],
			[0,0,0,0,0,0,0,0,0,0],
			[0,0,0,0,0,0,0,0,0,0],
			[0,0,0,0,0,0,0,0,0,0]
		],
		"sdP": [
			[0,0,0,0,0,0,0,0,0,0,0,0,0,0,0,0,0,0,0,0,0,0,0,0,0,0,0,0,0,0],
			[0,0,0,0,0,0,0,0,0,0,0,0,0,0,0,0,0,0,0,0,0,0,0,0,0,0,0,0,0,0],
			[0,0,0,0,0,0,0,0,0,0,0,0,0,0,0,0,0,0,0,0,0,0,0,0,0,0,0,0,0,0],
			[0,0,0,0,0,0,0,0,0,0,0,0,0,0,0,0,0,0,0,0,0,0,0,0,0,0,0,0,0,0],
			[0,0,0,0,0,0,0,0,0,0,0,0,0,0,0,0,0,0,0,0,0,0,0,0,0,0,0,0,0,0],
			[0,0,0,0,0,0,0,0,0,0,0,0,0,0,0,0,0,0,0,0,0,0,0,0,0,0,0,0,0,0],
			[0,0,0,0,0,0,0,0,0,0,0,0,0,0,0,0,0,0,0,0,0,0,0,0,0,0,0,0,0,0],
			[0,0,0,0,0,0,0,0,0,0,0,0,0,0,0,0,0,0,0,0,0,0,0,0,0,0,0,0,0,0],
			[0,0,0,0,0,0,0,0,0,0,0,0,0,0,0,0,0,0,0,0,0,0,0,0,0,0,0,0,0,0],
			[0,0,0,0,0,0,0,0,0,0,0,0,0,0,0,0,0,0,0,0,0,0,0,0,0,0,0,0,0,0]
		],
		"Y": [
			[1.651562749,0.0140159376,0.3622279648,1.933492355,1.276991557,2.064388753,0.8690549072,2.301293619,-0.2334962454,-1.270390405,0.6829899042,0.6405192854,-0.8947923829,-1.364232867,2.368162162,2.948447554,-1.067814324,2.407230021,1.8644744,-0.8848840514,1.111175164,2.420534168,0.3147436241,1.66050709,0.9782885268,0.7485168293,0.07027787669,1.15343971,-0.1258199355,-1.5305503],
			[-0.2420653667,4.590380006,2.776829368,2.57711721,-0.4368632568,2.406483321,1.771793496,0.3693362611,2.067223788,-0.2821575901,-0.6475206533,5.839392244,0.4098576838,1.422271885,2.633137147,2.39101948,1.472640881,-0.6911671833,-0.3884935902,0.631681698,2.556770676,5.757005043,1.142158271,3.12759281,1.274120521,2.080460933,0.5512747457,0.6757309828,-0.06963445673,1.182465617],
			[0.4736353568,1.587073983,0.7521734559,0.5484057033,1.45940763,0.4966046002,0.5134523036,1.525268296,-0.4793230481,-0.5771406689,0.1217625876,1.963453153,-1.264910612,-0.580416879,-0.03746772343,-0.4806247707,1.133425495,0.1904895731,0.8010126483,-1.42159367,-0.06500984828,3.321621308,0.721862505,1.484234935,0.2271583779,2.236064857,0.4417033672,0.6659320081,0.6147616664,-0.6371326911],
			[1.581612829,1.991841304,1.181756964,0.9591955502,1.923192316,2.513463176,1.217821318,1.713361808,-0.5408303206,1.249805482,1.73656251,1.726212655,0.7038773304,2.188915621,-0.006544162853,0.6827792931,1.437980059,0.7293383312,0.9328841752,0.4175652332,1.069091453,2.26522898,0.8791292229,3.006104963,0.4256624739,0.3982229146,2.488410644,0.6034312181,-0.08465486173,0.239111396],
			[1.222855931,2.098255962,0.8853052574,0.2909047627,1.938396789,0.669145024,2.456639329,1.021477527,1.02627508,0.3192785339,0.5459822567,1.829913808,3.144714211,-0.66154345,2.306739562,3.11015113,2.327568225,-0.03436486527,0.397720163,-0.4642932096,1.062071029,3.272655347,1.334108262,0.3491773817,2.841302093,1.967751144,0.1956232333,1.170559513,-1.576343425,-0.2305887532],
			[-1.181495546,-0.3689467982,0.7284750511,0.1011557685,1.712209089,0.6815500549,-1.202462402,0.959514781,-0.6221840801,1.008151446,1.620620832,-0.2541608553,-0.2981695733,0.3283142517,-0.5999115467,1.245572721,1.53314584,0.6535482553,0.1155661654,-0.5142627299,-0.3373368048,0.643491586,0.3368337763,-0.7201912777,-0.2452944015,1.834176823,1.839329264,1.432011475,-0.1274611675,-0.1146535936],
			[1.671337549,-0.3208549742,1.611134989,0.8319431095,-0.2812187988,0.02594573816,0.03695970067,0.03684957333,1.255244897,-0.5338256916,-0.1756205229,0.4667095171,-1.658657263,0.4145541416,1.746495746,0.2547794772,1.395803047,0.9188719773,0.199998617,-0.7060196053,2.204930502,0.5878538074,2.552411529,2.071717754,1.076725577,1.726797544,0.8355401356,1.463678466,-0.6502911748,-0.2649347212],
			[0.3469873762,1.191346347,-0.7487616056,1.787931054,1.161713542,0.881740072,1.342324115,2.052140047,0.09566940349,-0.2994400646,-0.1749019789,0.469370548,-0.02161219913,0.8344654538,0.9681807573,1.02442428,0.7152121507,2.308358526,0.5346294071,1.397261407,-0.2410222222,-0.02905402735,-0.6477941769,-0.6258446873,0.7650335658,2.082092998,0.5540317751,1.07868621,-0.5483627552,0.4603828612],
			[-0.90135094,1.022516021,-0.1230714495,-0.3646275272,2.094862564,0.03607564838,1.703267328,-0.05401106832,0.008597635341,-1.930634123,0.5158474995,2.100733773,-0.418535819,-0.08998795805,1.971673902,0.9569842941,0.4890942175,0.8791175055,0.7643927151,-1.335705926,1.66040469,-2.200068578,1.24920159,0.3137585586,0.777531431,-0.5981101483,3.026968124,1.095828299,1.602069621,1.21251714],
			[2.500584495,1.266466205,0.9986974206,1.787552498,2.000224016,2.266799092,1.634351399,0.6212791802,-0.5505872814,0.5957044839,0.8205726851,4.02197956,-0.2856301006,1.088920754,3.143962744,1.87473106,1.21153951,0.7260250701,-0.5867287955,2.336863598,0.6044482697,0.9445828221,1.550667259,0.8435688858,2.12508956,-0.04730154555,-0.5877003245,0.3460928506,0.5194609705,0.04693407245]
		],
		"E": [
			[0.6715300196,-1.103432761,-0.1171647189,1.102682911,0.4133219659,0.48875432,-0.2622313244,1.602916882,-0.5396054262,-1.799021059,-0.2970428253,-0.4769294128,-1.374185067,-2.195042311,1.504492572,1.372813121,-2.199100556,1.708853284,1.558365219,-1.413514705,0.1311424347,1.30308547,-0.1646490596,0.8296976462,0.1146189361,-0.827117604,-1.061008355,0.455062973,-0.4319291163,-2.059180953],
			[-1.125215239,-0.6129022916,1.135089611,0.7859095799,-1.787462776,0.4678421913,0.06120012102,-0.7009074526,1.407258853,-0.7585295317,-1.530670526,0.6361099456,-1.231882074,-0.3689357453,1.282537628,0.4523783501,-0.2379524944,-1.761410897,-1.048458525,0.1553097564,1.673620803,0.5537227452,-0.4995814868,1.33638518,-0.07647899778,0.1418198028,-1.159318629,-0.3945127309,-0.7295993912,0.706093675],
			[0.09982467855,-0.04464126488,0.05727458155,-0.209758409,0.8877396293,-0.3239636614,-0.2105902283,1.072266443,-0.7586662802,-0.7787745298,-0.2520480906,0.3317379055,-1.959809487,-1.338580991,-0.6091357244,-1.301193032,0.4093829628,-0.2625122796,0.5216694163,-1.623227531,-0.4388205265,1.689906061,0.02696363071,0.7260708225,-0.3445096231,1.415496596,-0.2823391646,0.2129301554,0.3354184343,-0.838766552],
			[0.9428248043,0.2358996224,0.4312690706,-0.3363965332,0.9462949335,1.111231487,-0.01946195281,0.9392475962,-1.018187233,0.9052425703,1.097774486,-0.02972902586,-0.04661056346,0.8933235379,-0.9834415449,-0.7194523957,0.2006967883,-0.04477588057,0.4555272625,0.07300232167,0.4303034288,0.5092872984,0.1286413291,1.71051288,-0.5512349081,-1.004008774,1.251127374,-0.1706829937,-0.5620117745,-0.1054515156],
			[0.5907871841,0.3794774296,0.1467803792,-0.9910592584,0.4539693728,-0.8497252685,1.057325392,0.02493191524,0.5539393847,-0.02165999239,-0.08608648984,0.1111352757,2.406189333,-1.943507471,0.8223121458,1.591280838,0.9282542876,-1.030910477,-0.07461553221,-0.8052317359,0.4300022825,1.553876814,0.5955833834,-0.9327866393,1.356874677,0.4488808516,-1.203690704,0.1740139007,-2.048679121,-0.5715272795],
			[-1.374083863,-0.8983459712,0.5022103212,-0.2894525215,1.417684122,-0.7297784428,-1.988844074,0.5715887783,-0.7661025015,0.9042691116,1.428032515,-0.7835600283,-0.5244343033,-0.06229403835,-0.894436514,-0.1657557764,0.7467641672,0.2656222527,-0.02835225598,-0.618145064,-0.5299251211,0.1140924129,0.1105690463,-1.110799568,-0.5398193688,0.4228483254,1.052947591,1.044085473,-0.2713795889,-0.2185359278],
			[1.414757054,-1.026159972,1.309688268,0.3115456608,-0.6736068905,-0.9506383089,-1.010716517,-0.4799743324,1.06350606,-0.6722254722,-0.4322010179,-0.2385954803,-1.960103984,-0.1058433071,1.354107654,-0.7218045699,0.3481268293,0.4020480716,0.008259779864,-0.8444193859,1.948350007,-0.11745119,2.250964808,1.551320306,0.6843374857,0.7502134969,-0.2121360825,0.9468545606,-0.842030012,-0.4033345018],
			[0.009013161271,0.2623010482,-1.14583473,1.10245058,0.6448501798,-0.01470016251,0.4818067996,1.371366733,-0.1568937656,-0.4817437007,-0.5128761938,-0.4596747512,-0.4186853236,0.1489849805,0.4513173955,0.1279840459,-0.1453051649,1.627585212,0.2820662379,1.214957771,-0.5789964371,-0.9580993265,-1.044867301,-1.311325161,0.248170204,1.185652763,-0.3064855405,0.3979128968,-0.8009259244,0.2780792251],
			[-1.352313789,0.3574625613,-0.4079693128,-0.8576289663,1.636672068,-0.8951203561,0.9080346262,-0.4974398987,-0.3284002813,-2.173883944,0.06488465052,1.435680313,-0.7034336823,-0.5829893972,1.513483407,0.02578828961,-0.3061384844,0.4356886752,0.4273947984,-1.578955747,1.209441841,-2.865122038,0.9643037267,-0.1792428806,0.3193409359,-1.529306153,2.231735422,0.6523994684,1.265071705,0.9692673195],
			[1.687603458,-0.1095180558,0.4078704426,0.7626926045,0.8665566006,0.7336022091,0.3946215128,-0.2037444666,-0.9281937527,-0.1449450303,0.007591648188,2.645995299,-0.8764570786,0.06406086053,2.010295328,0.3415341776,-0.02819037592,-0.09899857665,-0.9643352669,1.596214084,-0.2085327673,-0.431401439,0.9598402806,-0.181291008,0.9914221444,-1.580498428,-1.827430211,-0.4789307962,0.1418544991,-0.6937154418]
		],
		"cvY": [
			[0.9062164484,0,0,0,0,0,0,0,0,0],
			[0,0.9062164484,0,0,0,0,0,0,0,0],
			[0,0,0.9062164484,0,0,0,0,0,0,0],
			[0,0,0,0.9062164484,0,0,0,0,0,0],
			[0,0,0,0,0.9062164484,0,0,0,0,0],
			[0,0,0,0,0,0.9062164484,0,0,0,0],
			[0,0,0,0,0,0,0.9062164484,0,0,0],
			[0,0,0,0,0,0,0,0.9062164484,0,0],
			[0,0,0,0,0,0,0,0,0.9062164484,0],
			[0,0,0,0,0,0,0,0,0,0.9062164484]
		],
		"sdY": [
			[0.9519540159,0.9519540159,0.9519540159,0.9519540159,0.9519540159,0.9519540159,0.9519540159,0.9519540159,0.9519540159,0.9519540159,0.9519540159,0.9519540159,0.9519540159,0.9519540159,0.9519540159,0.9519540159,0.9519540159,0.9519540159,0.9519540159,0.9519540159,0.9519540159,0.9519540159,0.9519540159,0.9519540159,0.9519540159,0.9519540159,0.9519540159,0.9519540159,0.9519540159,0.9519540159],
			[0.9519540159,0.9519540159,0.9519540159,0.9519540159,0.9519540159,0.9519540159,0.9519540159,0.9519540159,0.9519540159,0.9519540159,0.9519540159,0.9519540159,0.9519540159,0.9519540159,0.9519540159,0.9519540159,0.9519540159,0.9519540159,0.9519540159,0.9519540159,0.9519540159,0.9519540159,0.9519540159,0.9519540159,0.9519540159,0.9519540159,0.9519540159,0.9519540159,0.9519540159,0.9519540159],
			[0.9519540159,0.9519540159,0.9519540159,0.9519540159,0.9519540159,0.9519540159,0.9519540159,0.9519540159,0.9519540159,0.9519540159,0.9519540159,0.9519540159,0.9519540159,0.9519540159,0.9519540159,0.9519540159,0.9519540159,0.9519540159,0.9519540159,0.9519540159,0.9519540159,0.9519540159,0.9519540159,0.9519540159,0.9519540159,0.9519540159,0.9519540159,0.9519540159,0.9519540159,0.9519540159],
			[0.9519540159,0.9519540159,0.9519540159,0.9519540159,0.9519540159,0.9519540159,0.9519540159,0.9519540159,0.9519540159,0.9519540159,0.9519540159,0.9519540159,0.9519540159,0.9519540159,0.9519540159,0.9519540159,0.9519540159,0.9519540159,0.9519540159,0.9519540159,0.9519540159,0.9519540159,0.9519540159,0.9519540159,0.9519540159,0.9519540159,0.9519540159,0.9519540159,0.9519540159,0.9519540159],
			[0.9519540159,0.9519540159,0.9519540159,0.9519540159,0.9519540159,0.9519540159,0.9519540159,0.9519540159,0.9519540159,0.9519540159,0.9519540159,0.9519540159,0.9519540159,0.9519540159,0.9519540159,0.9519540159,0.9519540159,0.9519540159,0.9519540159,0.9519540159,0.9519540159,0.9519540159,0.9519540159,0.9519540159,0.9519540159,0.9519540159,0.9519540159,0.9519540159,0.9519540159,0.9519540159],
			[0.9519540159,0.9519540159,0.9519540159,0.9519540159,0.9519540159,0.9519540159,0.9519540159,0.9519540159,0.9519540159,0.9519540159,0.9519540159,0.9519540159,0.9519540159,0.9519540159,0.9519540159,0.9519540159,0.9519540159,0.9519540159,0.9519540159,0.9519540159,0.9519540159,0.9519540159,0.9519540159,0.9519540159,0.9519540159,0.9519540159,0.9519540159,0.9519540159,0.9519540159,0.9519540159],
			[0.9519540159,0.9519540159,0.9519540159,0.9519540159,0.9519540159,0.9519540159,0.9519540159,0.9519540159,0.9519540159,0.9519540159,0.9519540159,0.9519540159,0.9519540159,0.9519540159,0.9519540159,0.9519540159,0.9519540159,0.9519540159,0.9519540159,0.9519540159,0.9519540159,0.9519540159,0.9519540159,0.9519540159,0.9519540159,0.9519540159,0.9519540159,0.9519540159,0.9519540159,0.9519540159],
			[0.9519540159,0.9519540159,0.9519540159,0.9519540159,0.9519540159,0.9519540159,0.9519540159,0.9519540159,0.9519540159,0.9519540159,0.9519540159,0.9519540159,0.9519540159,0.9519540159,0.9519540159,0.9519540159,0.9519540159,0.9519540159,0.9519540159,0.9519540159,0.9519540159,0.9519540159,0.9519540159,0.9519540159,0.9519540159,0.9519540159,0.9519540159,0.9519540159,0.9519540159,0.9519540159],
			[0.9519540159,0.9519540159,0.9519540159,0.9519540159,0.9519540159,0.9519540159,0.9519540159,0.9519540159,0.9519540159,0.9519540159,0.9519540159,0.9519540159,0.9519540159,0.9519540159,0.9519540159,0.9519540159,0.9519540159,0.9519540159,0.9519540159,0.9519540159,0.9519540159,0.9519540159,0.9519540159,0.9519540159,0.9519540159,0.9519540159,0.9519540159,0.9519540159,0.9519540159,0.9519540159],
			[0.9519540159,0.9519540159,0.9519540159,0.9519540159,0.9519540159,0.9519540159,0.9519540159,0.9519540159,0.9519540159,0.9519540159,0.9519540159,0.9519540159,0.9519540159,0.9519540159,0.9519540159,0.9519540159,0.9519540159,0.9519540159,0.9519540159,0.9519540159,0.9519540159,0.9519540159,0.9519540159,0.9519540159,0.9519540159,0.9519540159,0.9519540159,0.9519540159,0.9519540159,0.9519540159]
		],
		"lambda": [0.9062164484,0],
		"SNR_L": 0.01,
		"names": [
			"G01",
			"G02",
			"G03",
			"G04",
			"G05",
			"G06",
			"G07",
			"G08",
			"G09",
			"G10"
		],
		"description": "",
		"N": 10,
		"M": 30,
		"created": {
			"creator": "sparx",
			"time": 736279.7794,
			"id": "959069",
			"nexp": ""
		},
		"tol": 2.220446049e-16
	}
}
