{
	"obj_data": {
		"dataset": "Tjarnberg-ID87695-D20151111-N10-E30-SNR10-IDY87695",
		"network": "Tjarnberg-D20151007-smallworld-N10-L28-ID87695",
		"P": [
			[1,0,0,0,0,0,0,0,0,0,1,0,0,0,0,0,0,0,0,0,1,0,0,0,0,0,0,0,0,0],
			[0,1,0,0,0,0,0,0,0,0,0,1,0,0,0,0,0,0,0,0,0,1,0,0,0,0,0,0,0,0],
			[0,0,1,0,0,0,0,0,0,0,0,0,1,0,0,0,0,0,0,0,0,0,1,0,0,0,0,0,0,0],
			[0,0,0,1,0,0,0,0,0,0,0,0,0,1,0,0,0,0,0,0,0,0,0,1,0,0,0,0,0,0],
			[0,0,0,0,1,0,0,0,0,0,0,0,0,0,1,0,0,0,0,0,0,0,0,0,1,0,0,0,0,0],
			[0,0,0,0,0,1,0,0,0,0,0,0,0,0,0,1,0,0,0,0,0,0,0,0,0,1,0,0,0,0],
			[0,0,0,0,0,0,1,0,0,0,0,0,0,0,0,0,1,0,0,0,0,0,0,0,0,0,1,0,0,0],
			[0,0,0,0,0,0,0,1,0,0,0,0,0,0,0,0,0,1,0,0,0,0,0,0,0,0,0,1,0,0],
			[0,0,0,0,0,0,0,0,1,0,0,0,0,0,0,0,0,0,1,0,0,0,0,0,0,0,0,0,1,0],
			[0,0,0,0,0,0,0,0,0,1,0,0,0,0,0,0,0,0,0,1,0,0,0,0,0,0,0,0,0,1]
		],
		"F": [
			[0,0,0,0,0,0,0,0,0,0,0,0,0,0,0,0,0,0,0,0,0,0,0,0,0,0,0,0,0,0],
			[0,0,0,0,0,0,0,0,0,0,0,0,0,0,0,0,0,0,0,0,0,0,0,0,0,0,0,0,0,0],
			[0,0,0,0,0,0,0,0,0,0,0,0,0,0,0,0,0,0,0,0,0,0,0,0,0,0,0,0,0,0],
			[0,0,0,0,0,0,0,0,0,0,0,0,0,0,0,0,0,0,0,0,0,0,0,0,0,0,0,0,0,0],
			[0,0,0,0,0,0,0,0,0,0,0,0,0,0,0,0,0,0,0,0,0,0,0,0,0,0,0,0,0,0],
			[0,0,0,0,0,0,0,0,0,0,0,0,0,0,0,0,0,0,0,0,0,0,0,0,0,0,0,0,0,0],
			[0,0,0,0,0,0,0,0,0,0,0,0,0,0,0,0,0,0,0,0,0,0,0,0,0,0,0,0,0,0],
			[0,0,0,0,0,0,0,0,0,0,0,0,0,0,0,0,0,0,0,0,0,0,0,0,0,0,0,0,0,0],
			[0,0,0,0,0,0,0,0,0,0,0,0,0,0,0,0,0,0,0,0,0,0,0,0,0,0,0,0,0,0],
			[0,0,0,0,0,0,0,0,0,0,0,0,0,0,0,0,0,0,0,0,0,0,0,0,0,0,0,0,0,0]
		],
		"cvP": [
			[0,0,0,0,0,0,0,0,0,0],
			[0,0,0,0,0,0,0,0,0,0],
			[0,0,0,0,0,0,0,0,0,0],
			[0,0,0,0,0,0,0,0,0,0],
			[0,0,0,0,0,0,0,0,0,0],
			[0,0,0,0,0,0,0,0,0,0],
			[0,0,0,0,0,0,0,0,0,0],
			[0,0,0,0,0,0,0,0,0,0],
			[0,0,0,0,0,0,0,0,0,0],
			[0,0,0,0,0,0,0,0,0,0]
		],
		"sdP": [
			[0,0,0,0,0,0,0,0,0,0,0,0,0,0,0,0,0,0,0,0,0,0,0,0,0,0,0,0,0,0],
			[0,0,0,0,0,0,0,0,0,0,0,0,0,0,0,0,0,0,0,0,0,0,0,0,0,0,0,0,0,0],
			[0,0,0,0,0,0,0,0,0,0,0,0,0,0,0,0,0,0,0,0,0,0,0,0,0,0,0,0,0,0],
			[0,0,0,0,0,0,0,0,0,0,0,0,0,0,0,0,0,0,0,0,0,0,0,0,0,0,0,0,0,0],
			[0,0,0,0,0,0,0,0,0,0,0,0,0,0,0,0,0,0,0,0,0,0,0,0,0,0,0,0,0,0],
			[0,0,0,0,0,0,0,0,0,0,0,0,0,0,0,0,0,0,0,0,0,0,0,0,0,0,0,0,0,0],
			[0,0,0,0,0,0,0,0,0,0,0,0,0,0,0,0,0,0,0,0,0,0,0,0,0,0,0,0,0,0],
			[0,0,0,0,0,0,0,0,0,0,0,0,0,0,0,0,0,0,0,0,0,0,0,0,0,0,0,0,0,0],
			[0,0,0,0,0,0,0,0,0,0,0,0,0,0,0,0,0,0,0,0,0,0,0,0,0,0,0,0,0,0],
			[0,0,0,0,0,0,0,0,0,0,0,0,0,0,0,0,0,0,0,0,0,0,0,0,0,0,0,0,0,0]
		],
		"Y": [
			[8.485169839,-12.0676674,-1.281369088,12.05946469,4.520284159,5.345226475,-2.867886483,17.53023846,-5.901381551,-19.67494983,-2.107603399,-5.215928859,-15.02874139,-24.00602657,16.45384481,15.01371394,-24.05040948,18.68880933,17.04302311,-15.45886901,2.575234228,14.25116039,-1.800680419,9.073968018,1.253525777,-9.04577465,-11.60369195,4.976762244,-4.723782221,-22.52018215],
			[-12.30588895,-5.258760716,12.41387977,8.595080906,-19.54854295,5.116544687,0.6693136273,-7.665457219,15.39045204,-8.295639678,-16.74014078,8.401031079,-13.47244818,-4.034856758,14.02644141,4.947424766,-2.602361637,-19.26362721,-11.46644102,1.698541353,18.303513,7.500005475,-5.463660716,14.61534384,-0.8364106893,1.551008806,-12.67885985,-4.314578836,-7.979245904,7.722176213],
			[1.091792193,-0.4882207687,9.925377065,0.03985794392,9.708740565,-3.543056489,-2.303114883,11.72681574,-8.226645573,-8.517048605,-2.756455743,3.628040826,-12.13441353,-12.30548263,-6.661800144,-14.23050161,4.477206764,-2.870959129,5.775714468,-17.75238821,-4.799087922,18.48161365,9.593882092,10.27453145,-3.767723257,15.48050808,-3.087795371,2.328705437,3.738785158,-9.173149889],
			[10.31123615,2.579908057,7.050439302,-1.582518529,10.34912944,12.1529238,-0.2128451711,10.27205837,-11.07206034,9.900163238,12.00583955,-0.32513316,1.824120368,11.86628496,-10.75538638,-7.868305718,2.194915518,-0.4896903242,5.045182216,0.7983881061,4.706058655,5.569805691,3.740758406,20.80345622,-6.028569059,-10.98034959,13.68292394,-1.866670389,-6.083108584,-1.153267922],
			[6.461129595,4.155413021,1.605260028,-10.83869535,6.485872868,-9.222233847,11.5634133,0.2726672815,6.058144538,-0.2368839772,-0.9414827914,1.220695616,26.31523081,-21.25512194,10.5142446,17.47376975,10.15183032,-11.27452723,-0.8160309438,-8.806397193,4.702709449,16.99920318,6.513583111,-10.20139828,16.36047466,4.979940235,-13.16413395,1.903098771,-22.40532911,-6.250494119],
			[-15.02763457,-9.738417814,5.492410899,-3.165590425,15.57523352,-6.821508739,-21.75094459,6.251166699,-8.378461277,9.889517031,15.61764269,-8.483064156,-5.735462936,-0.6812772273,-9.711217291,-0.6530886379,8.166968056,2.904971272,-0.3100737543,-6.760328379,-5.79551313,1.334089821,1.209235672,-12.14823231,-5.832955552,5.784165731,11.51553559,11.41861524,-2.967936239,-2.390012831],
			[15.47250664,-11.22256461,14.68949821,3.736093826,-7.366885597,-10.39663767,-9.79788718,-5.248448464,11.6409412,-7.314951739,-4.726705153,-2.609384801,-21.07050481,-0.8286704164,14.80916494,-7.894003081,5.063069858,4.397767992,0.1002660577,-9.198146266,21.30813293,-1.284493232,24.98374608,17.29485892,7.484239872,8.204686517,-1.064231778,10.35603084,-9.198907462,-4.374232215],
			[0.09854941475,2.882146755,-12.53116637,12.05712785,7.052388225,-0.1607679705,5.270047372,16.13953396,-1.715858669,-5.268555358,-5.609080757,-5.013723924,-4.578714663,1.629574634,4.935821662,1.399694387,-1.588347295,18.94166109,3.084816677,13.2873788,-6.332203181,-10.46473211,-11.42693855,-14.34107152,2.714107369,12.96686245,-3.351092532,5.493379882,-8.759300627,3.041229493],
			[-14.78853279,3.909336977,-4.391256764,-9.316118775,17.89938833,-9.79004743,9.930698488,-5.44023931,-2.439498068,-23.7746286,0.7106232938,15.70123906,-7.622595617,-6.312529841,16.55213855,0.2814474588,-3.34807605,4.764898524,5.826236342,-17.26821092,13.22804502,-31.3343807,10.61657378,-1.896965934,3.492428607,-16.72580489,24.40731988,7.134950816,14.98746935,10.60036834],
			[18.45774294,-1.197741542,4.460665123,8.341169022,9.477075075,8.023022597,4.315768527,-2.228246403,-10.15116828,-0.4370705441,0.08433485935,28.9378629,-9.585351412,0.700600035,21.98554571,3.735180157,-0.3083033571,-1.082695539,-10.54642907,18.60507353,-2.279304526,-4.718011293,10.49726976,-1.982684676,10.84266404,-17.28508244,-19.98564582,-5.237814969,1.551388262,-6.438684732]
		],
		"E": [
			[7.344171641,-12.06766541,-1.281369084,12.05946469,4.520285575,5.345249671,-2.867886467,17.53026129,-5.90138155,-19.67494983,-3.248601597,-5.215926862,-15.02874138,-24.00602656,16.45384623,15.01373713,-24.05040946,18.68883216,17.04302311,-15.45886901,1.43423603,14.25116238,-1.800680415,9.073968022,1.253527192,-9.045751454,-11.60369193,4.976785078,-4.72378222,-22.52018215],
			[-12.30588895,-6.702990927,12.41387977,8.595080906,-19.54854295,5.116544687,0.6693136273,-7.665457219,15.39045204,-8.295639678,-16.74014078,6.956800868,-13.47244818,-4.034856758,14.02644141,4.947424766,-2.602361637,-19.26362721,-11.46644102,1.698541353,18.303513,6.055775264,-5.463660716,14.61534384,-0.8364106893,1.551008806,-12.67885985,-4.314578836,-7.979245904,7.722176213],
			[1.091730156,-0.4882181019,0.6263820609,-2.294017711,9.708742752,-3.543020662,-2.303114883,11.72681574,-8.297135225,-8.517048605,-2.75651778,3.628043493,-21.43340854,-14.63935828,-6.661797957,-14.23046578,4.477206764,-2.870959128,5.705224816,-17.75238821,-4.799149959,18.48161632,0.2948870881,7.940655798,-3.767721071,15.48054391,-3.087795371,2.328705438,3.668295507,-9.173149889],
			[10.31118042,2.579910453,4.716563646,-3.678992461,10.3491314,12.15295599,-0.2128451711,10.27205837,-11.13537978,9.900163238,12.00578383,-0.3251307645,-0.5097552877,9.769811031,-10.75538441,-7.868273535,2.194915518,-0.4896903231,4.981862769,0.7983881061,4.706002928,5.569808087,1.406882751,18.70698229,-6.028567096,-10.98031741,13.68292394,-1.866670388,-6.146428031,-1.153267922],
			[6.461129595,4.150145631,1.605260028,-10.83869535,4.964824947,-9.292999623,11.5634133,0.2726672815,6.058144538,-0.2368839772,-0.9414827914,1.215428225,26.31523081,-21.25512194,8.993196678,17.40300398,10.15183032,-11.27452723,-0.8160309438,-8.806397193,4.702709449,16.99393579,6.513583111,-10.20139828,14.83942673,4.909174458,-13.16413395,1.903098771,-22.40532911,-6.250494119],
			[-15.02763457,-9.82473875,5.492410899,-3.165590425,15.50446774,-7.981204098,-21.75094459,6.251166699,-8.378461277,9.889517031,15.61764269,-8.569385092,-5.735462936,-0.6812772273,-9.781983067,-1.812783996,8.166968056,2.904971272,-0.3100737543,-6.760328379,-5.79551313,1.247768884,1.209235672,-12.14823231,-5.903721329,4.624470373,11.51553559,11.41861524,-2.967936239,-2.390012831],
			[15.47245593,-11.22257344,14.32337372,3.407211502,-7.366885289,-10.39663262,-11.05367648,-5.249227551,11.63100802,-7.351777441,-4.726755865,-2.609393636,-21.4366293,-1.15755274,14.80916525,-7.893998031,3.807280557,4.396988905,0.09033288054,-9.234971968,21.30808221,-1.284502068,24.61762159,16.9659766,7.484240181,8.204691566,-2.320021079,10.35525175,-9.208840639,-4.411057917],
			[0.09857221787,2.868649001,-12.53139351,12.05692382,7.052388226,-0.1607679679,5.269268284,14.99791875,-1.715864832,-5.268578205,-5.609057954,-5.027221678,-4.578941805,1.629370597,4.935821662,1.399694389,-1.589126383,17.80004588,3.084810515,13.28735595,-6.332180378,-10.47822986,-11.4271657,-14.34127556,2.714107369,12.96686246,-3.35187162,4.351764667,-8.75930679,3.041206647],
			[-14.78954669,3.909380562,-4.461746415,-9.379438222,17.89942406,-9.78946189,9.930698488,-5.44023929,-3.591541647,-23.7746286,0.7096093941,15.70128264,-7.693085268,-6.375849289,16.55217428,0.2820329988,-3.34807605,4.764898544,4.674192764,-17.26821092,13.22703112,-31.33433712,10.54608413,-1.960285381,3.492464338,-16.72521935,24.40731988,7.134950836,13.83542577,10.60036834],
			[18.45643395,-1.19774154,4.460665123,8.341169022,9.477075076,8.023022624,4.315768527,-2.228246377,-10.15116828,-1.58518778,0.0830258748,28.9378629,-9.585351412,0.700600035,21.98554571,3.735180183,-0.3083033571,-1.082695513,-10.54642907,17.4569563,-2.280613511,-4.71801129,10.49726976,-1.982684676,10.84266404,-17.28508242,-19.98564582,-5.237814943,1.551388262,-7.586801968]
		],
		"cvY": [
			[108.3893753,0,0,0,0,0,0,0,0,0],
			[0,108.3893753,0,0,0,0,0,0,0,0],
			[0,0,108.3893753,0,0,0,0,0,0,0],
			[0,0,0,108.3893753,0,0,0,0,0,0],
			[0,0,0,0,108.3893753,0,0,0,0,0],
			[0,0,0,0,0,108.3893753,0,0,0,0],
			[0,0,0,0,0,0,108.3893753,0,0,0],
			[0,0,0,0,0,0,0,108.3893753,0,0],
			[0,0,0,0,0,0,0,0,108.3893753,0],
			[0,0,0,0,0,0,0,0,0,108.3893753]
		],
		"sdY": [
			[10.41102182,10.41102182,10.41102182,10.41102182,10.41102182,10.41102182,10.41102182,10.41102182,10.41102182,10.41102182,10.41102182,10.41102182,10.41102182,10.41102182,10.41102182,10.41102182,10.41102182,10.41102182,10.41102182,10.41102182,10.41102182,10.41102182,10.41102182,10.41102182,10.41102182,10.41102182,10.41102182,10.41102182,10.41102182,10.41102182],
			[10.41102182,10.41102182,10.41102182,10.41102182,10.41102182,10.41102182,10.41102182,10.41102182,10.41102182,10.41102182,10.41102182,10.41102182,10.41102182,10.41102182,10.41102182,10.41102182,10.41102182,10.41102182,10.41102182,10.41102182,10.41102182,10.41102182,10.41102182,10.41102182,10.41102182,10.41102182,10.41102182,10.41102182,10.41102182,10.41102182],
			[10.41102182,10.41102182,10.41102182,10.41102182,10.41102182,10.41102182,10.41102182,10.41102182,10.41102182,10.41102182,10.41102182,10.41102182,10.41102182,10.41102182,10.41102182,10.41102182,10.41102182,10.41102182,10.41102182,10.41102182,10.41102182,10.41102182,10.41102182,10.41102182,10.41102182,10.41102182,10.41102182,10.41102182,10.41102182,10.41102182],
			[10.41102182,10.41102182,10.41102182,10.41102182,10.41102182,10.41102182,10.41102182,10.41102182,10.41102182,10.41102182,10.41102182,10.41102182,10.41102182,10.41102182,10.41102182,10.41102182,10.41102182,10.41102182,10.41102182,10.41102182,10.41102182,10.41102182,10.41102182,10.41102182,10.41102182,10.41102182,10.41102182,10.41102182,10.41102182,10.41102182],
			[10.41102182,10.41102182,10.41102182,10.41102182,10.41102182,10.41102182,10.41102182,10.41102182,10.41102182,10.41102182,10.41102182,10.41102182,10.41102182,10.41102182,10.41102182,10.41102182,10.41102182,10.41102182,10.41102182,10.41102182,10.41102182,10.41102182,10.41102182,10.41102182,10.41102182,10.41102182,10.41102182,10.41102182,10.41102182,10.41102182],
			[10.41102182,10.41102182,10.41102182,10.41102182,10.41102182,10.41102182,10.41102182,10.41102182,10.41102182,10.41102182,10.41102182,10.41102182,10.41102182,10.41102182,10.41102182,10.41102182,10.41102182,10.41102182,10.41102182,10.41102182,10.41102182,10.41102182,10.41102182,10.41102182,10.41102182,10.41102182,10.41102182,10.41102182,10.41102182,10.41102182],
			[10.41102182,10.41102182,10.41102182,10.41102182,10.41102182,10.41102182,10.41102182,10.41102182,10.41102182,10.41102182,10.41102182,10.41102182,10.41102182,10.41102182,10.41102182,10.41102182,10.41102182,10.41102182,10.41102182,10.41102182,10.41102182,10.41102182,10.41102182,10.41102182,10.41102182,10.41102182,10.41102182,10.41102182,10.41102182,10.41102182],
			[10.41102182,10.41102182,10.41102182,10.41102182,10.41102182,10.41102182,10.41102182,10.41102182,10.41102182,10.41102182,10.41102182,10.41102182,10.41102182,10.41102182,10.41102182,10.41102182,10.41102182,10.41102182,10.41102182,10.41102182,10.41102182,10.41102182,10.41102182,10.41102182,10.41102182,10.41102182,10.41102182,10.41102182,10.41102182,10.41102182],
			[10.41102182,10.41102182,10.41102182,10.41102182,10.41102182,10.41102182,10.41102182,10.41102182,10.41102182,10.41102182,10.41102182,10.41102182,10.41102182,10.41102182,10.41102182,10.41102182,10.41102182,10.41102182,10.41102182,10.41102182,10.41102182,10.41102182,10.41102182,10.41102182,10.41102182,10.41102182,10.41102182,10.41102182,10.41102182,10.41102182],
			[10.41102182,10.41102182,10.41102182,10.41102182,10.41102182,10.41102182,10.41102182,10.41102182,10.41102182,10.41102182,10.41102182,10.41102182,10.41102182,10.41102182,10.41102182,10.41102182,10.41102182,10.41102182,10.41102182,10.41102182,10.41102182,10.41102182,10.41102182,10.41102182,10.41102182,10.41102182,10.41102182,10.41102182,10.41102182,10.41102182]
		],
		"lambda": [108.3893753,0],
		"SNR_L": 0.01,
		"names": [
			"G01",
			"G02",
			"G03",
			"G04",
			"G05",
			"G06",
			"G07",
			"G08",
			"G09",
			"G10"
		],
		"description": "",
		"N": 10,
		"M": 30,
		"created": {
			"creator": "sparx",
			"time": 736279.7794,
			"id": "87695",
			"nexp": ""
		},
		"tol": 2.220446049e-16
	}
}
