{
	"obj_data": {
		"dataset": "Tjarnberg-ID78250-D20151111-N10-E30-SNR100000-IDY78250",
		"network": "Tjarnberg-D20131025-random-N10-L25-ID78250",
		"P": [
			[1,0,0,0,0,0,0,0,0,0,1,0,0,0,0,0,0,0,0,0,1,0,0,0,0,0,0,0,0,0],
			[0,1,0,0,0,0,0,0,0,0,0,1,0,0,0,0,0,0,0,0,0,1,0,0,0,0,0,0,0,0],
			[0,0,1,0,0,0,0,0,0,0,0,0,1,0,0,0,0,0,0,0,0,0,1,0,0,0,0,0,0,0],
			[0,0,0,1,0,0,0,0,0,0,0,0,0,1,0,0,0,0,0,0,0,0,0,1,0,0,0,0,0,0],
			[0,0,0,0,1,0,0,0,0,0,0,0,0,0,1,0,0,0,0,0,0,0,0,0,1,0,0,0,0,0],
			[0,0,0,0,0,1,0,0,0,0,0,0,0,0,0,1,0,0,0,0,0,0,0,0,0,1,0,0,0,0],
			[0,0,0,0,0,0,1,0,0,0,0,0,0,0,0,0,1,0,0,0,0,0,0,0,0,0,1,0,0,0],
			[0,0,0,0,0,0,0,1,0,0,0,0,0,0,0,0,0,1,0,0,0,0,0,0,0,0,0,1,0,0],
			[0,0,0,0,0,0,0,0,1,0,0,0,0,0,0,0,0,0,1,0,0,0,0,0,0,0,0,0,1,0],
			[0,0,0,0,0,0,0,0,0,1,0,0,0,0,0,0,0,0,0,1,0,0,0,0,0,0,0,0,0,1]
		],
		"F": [
			[0,0,0,0,0,0,0,0,0,0,0,0,0,0,0,0,0,0,0,0,0,0,0,0,0,0,0,0,0,0],
			[0,0,0,0,0,0,0,0,0,0,0,0,0,0,0,0,0,0,0,0,0,0,0,0,0,0,0,0,0,0],
			[0,0,0,0,0,0,0,0,0,0,0,0,0,0,0,0,0,0,0,0,0,0,0,0,0,0,0,0,0,0],
			[0,0,0,0,0,0,0,0,0,0,0,0,0,0,0,0,0,0,0,0,0,0,0,0,0,0,0,0,0,0],
			[0,0,0,0,0,0,0,0,0,0,0,0,0,0,0,0,0,0,0,0,0,0,0,0,0,0,0,0,0,0],
			[0,0,0,0,0,0,0,0,0,0,0,0,0,0,0,0,0,0,0,0,0,0,0,0,0,0,0,0,0,0],
			[0,0,0,0,0,0,0,0,0,0,0,0,0,0,0,0,0,0,0,0,0,0,0,0,0,0,0,0,0,0],
			[0,0,0,0,0,0,0,0,0,0,0,0,0,0,0,0,0,0,0,0,0,0,0,0,0,0,0,0,0,0],
			[0,0,0,0,0,0,0,0,0,0,0,0,0,0,0,0,0,0,0,0,0,0,0,0,0,0,0,0,0,0],
			[0,0,0,0,0,0,0,0,0,0,0,0,0,0,0,0,0,0,0,0,0,0,0,0,0,0,0,0,0,0]
		],
		"cvP": [
			[0,0,0,0,0,0,0,0,0,0],
			[0,0,0,0,0,0,0,0,0,0],
			[0,0,0,0,0,0,0,0,0,0],
			[0,0,0,0,0,0,0,0,0,0],
			[0,0,0,0,0,0,0,0,0,0],
			[0,0,0,0,0,0,0,0,0,0],
			[0,0,0,0,0,0,0,0,0,0],
			[0,0,0,0,0,0,0,0,0,0],
			[0,0,0,0,0,0,0,0,0,0],
			[0,0,0,0,0,0,0,0,0,0]
		],
		"sdP": [
			[0,0,0,0,0,0,0,0,0,0,0,0,0,0,0,0,0,0,0,0,0,0,0,0,0,0,0,0,0,0],
			[0,0,0,0,0,0,0,0,0,0,0,0,0,0,0,0,0,0,0,0,0,0,0,0,0,0,0,0,0,0],
			[0,0,0,0,0,0,0,0,0,0,0,0,0,0,0,0,0,0,0,0,0,0,0,0,0,0,0,0,0,0],
			[0,0,0,0,0,0,0,0,0,0,0,0,0,0,0,0,0,0,0,0,0,0,0,0,0,0,0,0,0,0],
			[0,0,0,0,0,0,0,0,0,0,0,0,0,0,0,0,0,0,0,0,0,0,0,0,0,0,0,0,0,0],
			[0,0,0,0,0,0,0,0,0,0,0,0,0,0,0,0,0,0,0,0,0,0,0,0,0,0,0,0,0,0],
			[0,0,0,0,0,0,0,0,0,0,0,0,0,0,0,0,0,0,0,0,0,0,0,0,0,0,0,0,0,0],
			[0,0,0,0,0,0,0,0,0,0,0,0,0,0,0,0,0,0,0,0,0,0,0,0,0,0,0,0,0,0],
			[0,0,0,0,0,0,0,0,0,0,0,0,0,0,0,0,0,0,0,0,0,0,0,0,0,0,0,0,0,0],
			[0,0,0,0,0,0,0,0,0,0,0,0,0,0,0,0,0,0,0,0,0,0,0,0,0,0,0,0,0,0]
		],
		"Y": [
			[2.480982007,-0.001352776827,-0.0001436405754,0.001351857532,0.0005067208419,0.0005991987384,-0.0003214880612,0.001965129993,-0.0006615407319,-0.002205548073,2.479794564,-0.0005847017423,-0.001684711366,-0.002691058737,0.001844464619,0.0016830294,-0.002696034029,0.002095004975,0.001910510935,-0.001732928372,2.480319507,0.001597545306,-0.0002018550113,0.00101718545,0.0001405195189,-0.001014022392,-0.001300765725,0.000557894116,-0.0005295326731,-0.002524496621],
			[-0.001379481519,6.862666582,0.001391587214,0.00096350254,-0.002191377951,0.0005735610701,7.502958809e-05,-0.0008592923769,0.001725258877,-0.0009299353885,-0.001876558038,6.864197835,-0.00151025199,-0.0004523046121,0.001572354243,0.0005546028456,-0.0002917229139,-0.002159439097,-0.001285379995,0.0001904052942,0.002051810967,6.86409683,-0.0006124725334,0.001638369792,-9.376105153e-05,0.0001738669991,-0.001421291294,-0.0004836612608,-0.0008944678684,0.0008656505363],
			[-0.04093962027,-0.3614359454,0.1508890323,-0.08698423681,-0.4650416939,0.1046192763,0.04017597809,0.001314567818,-2.507559401,-0.4062915007,-0.04137100616,-0.3609745153,0.1484161453,-0.08836814083,-0.4668768201,0.1034212212,0.04093604739,-0.0003218325042,-2.505989746,-0.4073267757,-0.04159998379,-0.3593094402,0.150851872,-0.08583693709,-0.4665523961,0.1067518046,0.04008801596,0.000261046246,-2.506218084,-0.4063650491],
			[2.277459985,0.0006680309932,1.497898222,4.807370809,0.001648760187,-5.82030622,-2.241522792,0.001151490538,0.001379354322,0.001534703428,2.277649949,0.0003423779107,1.497312355,4.80887841,-0.0007170412313,-5.822550586,-2.241252884,-5.48939417e-05,0.003186085906,0.0005144008204,2.276831649,0.001003196421,1.497527209,4.809880261,-0.0001871683261,-5.822899444,-2.239965086,-0.000209252441,0.001938612314,0.0002956215487],
			[0.3024125382,2.65558335,0.1986326868,0.6359809168,3.425278848,-0.7726121949,-0.2957791217,3.056581098e-05,0.001027363732,2.97803896,0.3015827106,2.65525437,0.2014026572,0.6348132426,3.425730425,-0.7696195916,-0.2959373592,-0.001263866593,0.0002567734832,2.977078323,0.3022154205,2.65702313,0.1991829064,0.6360523573,3.426385784,-0.7710201411,-0.2985510624,0.0002133360372,-0.002163371697,2.977364838],
			[-0.001715707194,-0.001375228425,-1.081949816,-0.0004205888264,0.00138477125,2.124583414,-0.002407621559,0.0007007514018,-0.00283893349,0.0008014129831,0.001719606889,-0.001234504161,-1.083208453,-0.0001420990597,-0.001449822147,2.12527489,0.0009461554608,0.0003256452417,-0.001934472909,-0.001065023007,-0.0006807928571,-0.0001340080871,-1.082429957,-0.001427536681,-0.001015071727,2.125996502,0.001321527532,0.001280018759,-0.002232417429,-0.0005751137002],
			[0.001723675996,-0.001352875997,-0.3732394231,0.0003591871643,-0.0009481441671,0.7347945996,1.662665012,-0.0005884347261,0.0006460400628,-0.0009304972581,-0.0005406414765,-0.0003873445835,-0.3772480943,-0.0001525197051,0.001537775542,0.7350751432,1.664330915,0.0004928993718,-0.0006476615245,-0.001141602043,0.002377845609,-0.0002388251681,-0.3720854451,0.00187911522,0.0007166565798,0.736879795,1.663644049,0.001160816457,-0.001690092353,-0.0006008446624],
			[-0.01798199535,-5.930366309,0.06671447006,0.2200701279,1.176332157,-0.2648608565,-0.1013809313,1.946449829,-7.280986284e-05,1.021635307,-0.01862181669,-5.931251431,0.06760593432,0.2189012065,1.176094891,-0.2646859298,-0.1021497526,1.946763945,0.0004653424758,1.023715414,-0.0187028782,-5.931862485,0.06683825322,0.2171109083,1.175845838,-0.2633892583,-0.1023473551,1.945256402,-0.0008623747653,1.022566828],
			[-0.001585841149,0.00107239989,2.506129139,-0.0008992375316,0.002824489883,-0.001281677377,0.001042269436,-0.000609847008,0.00399608839,-0.001953823821,0.0001516033754,0.002394263842,2.505766908,-0.0005625373192,0.002673464127,-0.0001526698653,-0.0004462718748,0.0005341417842,0.004922671419,-0.001224458964,0.00155479757,-0.002878396138,2.507811506,-6.755570276e-05,0.001209479804,-0.002059170923,0.002665088539,0.0007998229835,0.005949639212,0.001899589222],
			[0.002068953299,2.761817394,0.0005000374312,0.000935039196,0.001062373468,0.000899375208,0.0004837946243,-0.0002497848557,-0.001137938843,3.097715734,9.307142325e-06,2.765195574,-0.001074511169,7.853677244e-05,0.002464564251,0.0004187110783,-3.456059005e-05,-0.0001213694075,-0.0011822473,3.099850345,-0.0002556551747,2.761422774,0.001176736576,-0.0002222575613,0.001215455033,-0.001937645613,-0.002240376876,-0.0005871553808,0.0001739095358,3.097042957]
		],
		"E": [
			[0.000823276489,-0.001352776827,-0.0001436405754,0.001351857532,0.0005067208419,0.0005991987384,-0.0003214880612,0.001965129993,-0.0006615407319,-0.002205548073,-0.0003641659601,-0.0005847017423,-0.001684711366,-0.002691058737,0.001844464619,0.0016830294,-0.002696034029,0.002095004975,0.001910510935,-0.001732928372,0.0001607768529,0.001597545306,-0.0002018550113,0.00101718545,0.0001405195189,-0.001014022392,-0.001300765725,0.000557894116,-0.0005295326731,-0.002524496621],
			[-0.001379481519,-0.0007514005808,0.001391587214,0.00096350254,-0.002191377951,0.0005735610701,7.502958809e-05,-0.0008592923769,0.001725258877,-0.0009299353885,-0.001876558038,0.000779852497,-0.00151025199,-0.0004523046121,0.001572354243,0.0005546028456,-0.0002917229139,-0.002159439097,-0.001285379995,0.0001904052942,0.002051810967,0.000678848159,-0.0006124725334,0.001638369792,-9.376105153e-05,0.0001738669991,-0.001421291294,-0.0004836612608,-0.0008944678684,0.0008656505363],
			[0.0001223821847,-5.472890674e-05,7.021698961e-05,-0.0002571577762,0.001088343252,-0.0003971701307,-0.0002581775627,0.001314567818,-0.0009301030382,-0.0009547551739,-0.0003090037095,0.0004067011305,-0.002402670061,-0.001641061794,-0.0007467828777,-0.001595225232,0.0005018917374,-0.0003218325042,0.0006395516997,-0.001990030265,-0.0005379813438,0.002071776224,3.305663571e-05,0.0008901419445,-0.0004223588889,0.001735358113,-0.000346139695,0.000261046246,0.0004112133529,-0.001028303668],
			[0.001155876092,0.0002892061519,0.0005287234761,-0.000412412474,0.00116013037,0.001362337841,-2.385979437e-05,0.001151490538,-0.001248268262,0.001109801354,0.001345839945,-3.644693062e-05,-5.714321015e-05,0.001095188963,-0.001205671048,-0.0008820279437,0.0002460484899,-5.48939417e-05,0.0005584633215,8.949874662e-05,0.000527539627,0.0006243715793,0.0001577105694,0.002097039592,-0.0006757981423,-0.001230885879,0.001533846175,-0.000209252441,-0.0006890102705,-0.000129280525],
			[0.000724288095,0.0004652284138,0.000179948523,-0.001215010145,0.0005565533937,-0.001041738739,0.001296250519,3.056581098e-05,0.0006791137529,-2.655452767e-05,-0.0001055395605,0.0001362486514,0.002949918914,-0.002382684259,0.001008131039,0.001950864537,0.001138013057,-0.001263866593,-9.147649634e-05,-0.0009871909475,0.0005271704303,0.00190500828,0.0007301680974,-0.00114356959,0.001663489327,0.000550315013,-0.001475690181,0.0002133360372,-0.002511621676,-0.000700676006],
			[-0.001684587293,-0.001101346322,0.0006156954088,-0.000354860466,0.001738039957,-0.0008946873805,-0.00243826563,0.0007007514018,-0.0009392196316,0.001108607922,0.00175072679,-0.0009606220574,-0.0006429413717,-7.637069926e-05,-0.00109655344,-0.0002032118143,0.0009155113899,0.0003256452417,-3.475905034e-05,-0.0007578280689,-0.0006496729563,0.0001398740166,0.0001355544705,-0.00136180832,-0.0006618030195,0.0005183998847,0.001290883461,0.001280018759,-0.0003327035704,-0.0002679187617],
			[0.001734451455,-0.00125804261,0.001605640146,0.0003819460192,-0.000825822673,-0.001165455224,-0.001239109379,-0.0005884347261,0.00130382784,-0.0008241290939,-0.0005298660167,-0.0002925111961,-0.002403031106,-0.0001297608502,0.001660097036,-0.0008849116416,0.0004267934796,0.0004928993718,1.012625254e-05,-0.001035233879,0.002388621068,-0.0001439917807,0.002759618111,0.001901874075,0.000838978074,0.0009197401689,-0.0002600727355,0.001160816457,-0.001032304576,-0.0004944764982],
			[1.104987647e-05,0.0003215735406,-0.001404760422,0.001351572702,0.0007905677728,-1.802197642e-05,0.0005906812783,0.001681256171,-0.000192347244,-0.0005906039208,-0.0006287714618,-0.0005635480234,-0.0005132961642,0.0001826513009,0.0005533021458,0.0001569047591,-0.0001781399527,0.001995372656,0.0003458050947,0.001489503281,-0.0007098329783,-0.001174602217,-0.001280977258,-0.00160764693,0.0003042495321,0.001453576185,-0.0003757424573,0.0004878297664,-0.0009819121464,0.0003409171317],
			[-0.001657897809,0.0004382388185,-0.0005001586432,-0.001051428445,0.002006512881,-0.00109739181,0.001113224334,-0.000609847008,-0.0004026092992,-0.002665119188,7.954671528e-05,0.00176010277,-0.0008623894618,-0.0007147282326,0.001855487125,3.161570132e-05,-0.0003753169765,0.0005341417842,0.0005239737298,-0.00193575433,0.00148274091,-0.00351255721,0.001182208633,-0.0002197466161,0.0003915028023,-0.001874885356,0.002736043437,0.0007998229835,0.001550941523,0.001188293855],
			[0.002068953299,-0.0001342659864,0.0005000374312,0.000935039196,0.001062373468,0.0008993752079,0.0004837946243,-0.0002497848557,-0.001137938843,-0.0001776984382,9.307142322e-06,0.003243914131,-0.001074511169,7.853677245e-05,0.002464564251,0.0004187110783,-3.456059005e-05,-0.0001213694075,-0.0011822473,0.001956912555,-0.0002556551747,-0.0005288857559,0.001176736576,-0.0002222575613,0.001215455033,-0.001937645613,-0.002240376876,-0.0005871553808,0.0001739095358,-0.0008504751784]
		],
		"cvY": [
			[1.362048283e-06,0,0,0,0,0,0,0,0,0],
			[0,1.362048283e-06,0,0,0,0,0,0,0,0],
			[0,0,1.362048283e-06,0,0,0,0,0,0,0],
			[0,0,0,1.362048283e-06,0,0,0,0,0,0],
			[0,0,0,0,1.362048283e-06,0,0,0,0,0],
			[0,0,0,0,0,1.362048283e-06,0,0,0,0],
			[0,0,0,0,0,0,1.362048283e-06,0,0,0],
			[0,0,0,0,0,0,0,1.362048283e-06,0,0],
			[0,0,0,0,0,0,0,0,1.362048283e-06,0],
			[0,0,0,0,0,0,0,0,0,1.362048283e-06]
		],
		"sdY": [
			[0.001167068243,0.001167068243,0.001167068243,0.001167068243,0.001167068243,0.001167068243,0.001167068243,0.001167068243,0.001167068243,0.001167068243,0.001167068243,0.001167068243,0.001167068243,0.001167068243,0.001167068243,0.001167068243,0.001167068243,0.001167068243,0.001167068243,0.001167068243,0.001167068243,0.001167068243,0.001167068243,0.001167068243,0.001167068243,0.001167068243,0.001167068243,0.001167068243,0.001167068243,0.001167068243],
			[0.001167068243,0.001167068243,0.001167068243,0.001167068243,0.001167068243,0.001167068243,0.001167068243,0.001167068243,0.001167068243,0.001167068243,0.001167068243,0.001167068243,0.001167068243,0.001167068243,0.001167068243,0.001167068243,0.001167068243,0.001167068243,0.001167068243,0.001167068243,0.001167068243,0.001167068243,0.001167068243,0.001167068243,0.001167068243,0.001167068243,0.001167068243,0.001167068243,0.001167068243,0.001167068243],
			[0.001167068243,0.001167068243,0.001167068243,0.001167068243,0.001167068243,0.001167068243,0.001167068243,0.001167068243,0.001167068243,0.001167068243,0.001167068243,0.001167068243,0.001167068243,0.001167068243,0.001167068243,0.001167068243,0.001167068243,0.001167068243,0.001167068243,0.001167068243,0.001167068243,0.001167068243,0.001167068243,0.001167068243,0.001167068243,0.001167068243,0.001167068243,0.001167068243,0.001167068243,0.001167068243],
			[0.001167068243,0.001167068243,0.001167068243,0.001167068243,0.001167068243,0.001167068243,0.001167068243,0.001167068243,0.001167068243,0.001167068243,0.001167068243,0.001167068243,0.001167068243,0.001167068243,0.001167068243,0.001167068243,0.001167068243,0.001167068243,0.001167068243,0.001167068243,0.001167068243,0.001167068243,0.001167068243,0.001167068243,0.001167068243,0.001167068243,0.001167068243,0.001167068243,0.001167068243,0.001167068243],
			[0.001167068243,0.001167068243,0.001167068243,0.001167068243,0.001167068243,0.001167068243,0.001167068243,0.001167068243,0.001167068243,0.001167068243,0.001167068243,0.001167068243,0.001167068243,0.001167068243,0.001167068243,0.001167068243,0.001167068243,0.001167068243,0.001167068243,0.001167068243,0.001167068243,0.001167068243,0.001167068243,0.001167068243,0.001167068243,0.001167068243,0.001167068243,0.001167068243,0.001167068243,0.001167068243],
			[0.001167068243,0.001167068243,0.001167068243,0.001167068243,0.001167068243,0.001167068243,0.001167068243,0.001167068243,0.001167068243,0.001167068243,0.001167068243,0.001167068243,0.001167068243,0.001167068243,0.001167068243,0.001167068243,0.001167068243,0.001167068243,0.001167068243,0.001167068243,0.001167068243,0.001167068243,0.001167068243,0.001167068243,0.001167068243,0.001167068243,0.001167068243,0.001167068243,0.001167068243,0.001167068243],
			[0.001167068243,0.001167068243,0.001167068243,0.001167068243,0.001167068243,0.001167068243,0.001167068243,0.001167068243,0.001167068243,0.001167068243,0.001167068243,0.001167068243,0.001167068243,0.001167068243,0.001167068243,0.001167068243,0.001167068243,0.001167068243,0.001167068243,0.001167068243,0.001167068243,0.001167068243,0.001167068243,0.001167068243,0.001167068243,0.001167068243,0.001167068243,0.001167068243,0.001167068243,0.001167068243],
			[0.001167068243,0.001167068243,0.001167068243,0.001167068243,0.001167068243,0.001167068243,0.001167068243,0.001167068243,0.001167068243,0.001167068243,0.001167068243,0.001167068243,0.001167068243,0.001167068243,0.001167068243,0.001167068243,0.001167068243,0.001167068243,0.001167068243,0.001167068243,0.001167068243,0.001167068243,0.001167068243,0.001167068243,0.001167068243,0.001167068243,0.001167068243,0.001167068243,0.001167068243,0.001167068243],
			[0.001167068243,0.001167068243,0.001167068243,0.001167068243,0.001167068243,0.001167068243,0.001167068243,0.001167068243,0.001167068243,0.001167068243,0.001167068243,0.001167068243,0.001167068243,0.001167068243,0.001167068243,0.001167068243,0.001167068243,0.001167068243,0.001167068243,0.001167068243,0.001167068243,0.001167068243,0.001167068243,0.001167068243,0.001167068243,0.001167068243,0.001167068243,0.001167068243,0.001167068243,0.001167068243],
			[0.001167068243,0.001167068243,0.001167068243,0.001167068243,0.001167068243,0.001167068243,0.001167068243,0.001167068243,0.001167068243,0.001167068243,0.001167068243,0.001167068243,0.001167068243,0.001167068243,0.001167068243,0.001167068243,0.001167068243,0.001167068243,0.001167068243,0.001167068243,0.001167068243,0.001167068243,0.001167068243,0.001167068243,0.001167068243,0.001167068243,0.001167068243,0.001167068243,0.001167068243,0.001167068243]
		],
		"lambda": [1.362048283e-06,0],
		"SNR_L": 100,
		"names": [
			"G01",
			"G02",
			"G03",
			"G04",
			"G05",
			"G06",
			"G07",
			"G08",
			"G09",
			"G10"
		],
		"description": "",
		"N": 10,
		"M": 30,
		"created": {
			"creator": "sparx",
			"time": 736279.7794,
			"id": "78250",
			"nexp": ""
		},
		"tol": 2.220446049e-16
	}
}
