{
	"obj_data": {
		"dataset": "Tjarnberg-ID94429-D20151111-N10-E30-SNR100000-IDY94429",
		"network": "Tjarnberg-D20131025-random-N10-L25-ID94429",
		"P": [
			[1,0,0,0,0,0,0,0,0,0,1,0,0,0,0,0,0,0,0,0,1,0,0,0,0,0,0,0,0,0],
			[0,1,0,0,0,0,0,0,0,0,0,1,0,0,0,0,0,0,0,0,0,1,0,0,0,0,0,0,0,0],
			[0,0,1,0,0,0,0,0,0,0,0,0,1,0,0,0,0,0,0,0,0,0,1,0,0,0,0,0,0,0],
			[0,0,0,1,0,0,0,0,0,0,0,0,0,1,0,0,0,0,0,0,0,0,0,1,0,0,0,0,0,0],
			[0,0,0,0,1,0,0,0,0,0,0,0,0,0,1,0,0,0,0,0,0,0,0,0,1,0,0,0,0,0],
			[0,0,0,0,0,1,0,0,0,0,0,0,0,0,0,1,0,0,0,0,0,0,0,0,0,1,0,0,0,0],
			[0,0,0,0,0,0,1,0,0,0,0,0,0,0,0,0,1,0,0,0,0,0,0,0,0,0,1,0,0,0],
			[0,0,0,0,0,0,0,1,0,0,0,0,0,0,0,0,0,1,0,0,0,0,0,0,0,0,0,1,0,0],
			[0,0,0,0,0,0,0,0,1,0,0,0,0,0,0,0,0,0,1,0,0,0,0,0,0,0,0,0,1,0],
			[0,0,0,0,0,0,0,0,0,1,0,0,0,0,0,0,0,0,0,1,0,0,0,0,0,0,0,0,0,1]
		],
		"F": [
			[0,0,0,0,0,0,0,0,0,0,0,0,0,0,0,0,0,0,0,0,0,0,0,0,0,0,0,0,0,0],
			[0,0,0,0,0,0,0,0,0,0,0,0,0,0,0,0,0,0,0,0,0,0,0,0,0,0,0,0,0,0],
			[0,0,0,0,0,0,0,0,0,0,0,0,0,0,0,0,0,0,0,0,0,0,0,0,0,0,0,0,0,0],
			[0,0,0,0,0,0,0,0,0,0,0,0,0,0,0,0,0,0,0,0,0,0,0,0,0,0,0,0,0,0],
			[0,0,0,0,0,0,0,0,0,0,0,0,0,0,0,0,0,0,0,0,0,0,0,0,0,0,0,0,0,0],
			[0,0,0,0,0,0,0,0,0,0,0,0,0,0,0,0,0,0,0,0,0,0,0,0,0,0,0,0,0,0],
			[0,0,0,0,0,0,0,0,0,0,0,0,0,0,0,0,0,0,0,0,0,0,0,0,0,0,0,0,0,0],
			[0,0,0,0,0,0,0,0,0,0,0,0,0,0,0,0,0,0,0,0,0,0,0,0,0,0,0,0,0,0],
			[0,0,0,0,0,0,0,0,0,0,0,0,0,0,0,0,0,0,0,0,0,0,0,0,0,0,0,0,0,0],
			[0,0,0,0,0,0,0,0,0,0,0,0,0,0,0,0,0,0,0,0,0,0,0,0,0,0,0,0,0,0]
		],
		"cvP": [
			[0,0,0,0,0,0,0,0,0,0],
			[0,0,0,0,0,0,0,0,0,0],
			[0,0,0,0,0,0,0,0,0,0],
			[0,0,0,0,0,0,0,0,0,0],
			[0,0,0,0,0,0,0,0,0,0],
			[0,0,0,0,0,0,0,0,0,0],
			[0,0,0,0,0,0,0,0,0,0],
			[0,0,0,0,0,0,0,0,0,0],
			[0,0,0,0,0,0,0,0,0,0],
			[0,0,0,0,0,0,0,0,0,0]
		],
		"sdP": [
			[0,0,0,0,0,0,0,0,0,0,0,0,0,0,0,0,0,0,0,0,0,0,0,0,0,0,0,0,0,0],
			[0,0,0,0,0,0,0,0,0,0,0,0,0,0,0,0,0,0,0,0,0,0,0,0,0,0,0,0,0,0],
			[0,0,0,0,0,0,0,0,0,0,0,0,0,0,0,0,0,0,0,0,0,0,0,0,0,0,0,0,0,0],
			[0,0,0,0,0,0,0,0,0,0,0,0,0,0,0,0,0,0,0,0,0,0,0,0,0,0,0,0,0,0],
			[0,0,0,0,0,0,0,0,0,0,0,0,0,0,0,0,0,0,0,0,0,0,0,0,0,0,0,0,0,0],
			[0,0,0,0,0,0,0,0,0,0,0,0,0,0,0,0,0,0,0,0,0,0,0,0,0,0,0,0,0,0],
			[0,0,0,0,0,0,0,0,0,0,0,0,0,0,0,0,0,0,0,0,0,0,0,0,0,0,0,0,0,0],
			[0,0,0,0,0,0,0,0,0,0,0,0,0,0,0,0,0,0,0,0,0,0,0,0,0,0,0,0,0,0],
			[0,0,0,0,0,0,0,0,0,0,0,0,0,0,0,0,0,0,0,0,0,0,0,0,0,0,0,0,0,0],
			[0,0,0,0,0,0,0,0,0,0,0,0,0,0,0,0,0,0,0,0,0,0,0,0,0,0,0,0,0,0]
		],
		"Y": [
			[2.569215375,-1.914896597,0.1962106742,0.117641741,1.434295615,0.0004965098012,-0.0002663923722,-1.461399688,0.01851771891,0.1535898025,2.568231433,-1.914260152,0.1949337076,0.114291688,1.4354041,0.001394596716,-0.002233995558,-1.46129207,0.02064897984,0.153981426,2.568666413,-1.912451892,0.1961624364,0.1173644241,1.433992172,-0.0008402421837,-0.001077844278,-1.462565755,0.01862710381,0.1533255145],
			[-0.1430617049,1.406471103,-0.1823978771,-0.1383917056,1.987148031,0.000475265842,6.217123548e-05,-1.757891782,0.02787634356,-0.186423392,-0.1434735939,1.407739935,-0.1848024076,-0.1395648758,1.990266746,0.0004595566228,-0.0002417282893,-1.758969113,0.02538165923,-0.1854950521,-0.1402184574,1.40765624,-0.184058487,-0.1378324951,1.988886164,0.0001440701785,-0.001177714526,-1.757580526,0.02570557797,-0.1849355284],
			[0.808885613,-0.05677314054,1.995927504,1.316394678,0.04340451064,-0.0003291042688,-0.0002139318428,-1.230594025,-0.0002055571279,1.755310613,0.8085281568,-0.05639078904,1.993878413,1.315247944,0.04188388309,-0.001321840171,0.0004158789911,-1.231949983,0.001095094746,1.75445276,0.8083384207,-0.05501106967,1.995896712,1.317345357,0.04215270824,0.001437957486,-0.0002868192807,-1.231466997,0.0009058883609,1.755249669],
			[3.870890261,-2.883189152,0.2962422226,2.84330748,2.161339184,0.001128864344,-1.97707722e-05,-2.203346632,0.02769166013,0.2350823308,3.87104767,-2.883458995,0.29575676,2.844556713,2.159378827,-0.0007308685598,0.0002038814152,-2.20434627,0.02918875931,0.2342368847,3.870369608,-2.882911426,0.2959347928,2.845386869,2.159817892,-0.001019940237,0.001270980078,-2.204474175,0.02815507411,0.2340555992],
			[2.652923504,-3.297008641,0.338420941,0.1997573488,2.470998109,-0.0008632085832,0.001074102875,0.3553021642,0.03341284044,0.2677587701,2.65223589,-3.297281241,0.3407162019,0.1987897873,2.471372297,0.001616531047,0.0009429836892,0.3542295678,0.0327743117,0.2669627647,2.652760168,-3.295815606,0.3388768655,0.1998165461,2.471915341,0.0004560036265,-0.00122279069,0.3554536118,0.03076892397,0.2672001776],
			[0.1293480517,-1.29721155,0.1696083246,0.1279361911,-1.83091235,2.248977427,-0.002020402757,1.619399801,-0.02514259182,0.1719531114,0.1321946316,-1.297094942,0.1685653893,0.1281669541,-1.833261159,2.249550399,0.0007586137104,1.619088979,-0.02439313506,0.1704065398,0.1302056054,-1.296183046,0.1692104688,0.127101811,-1.832900915,2.250148343,0.001069655608,1.619879795,-0.02464001872,0.1708124898],
			[0.001437206209,-0.001042442926,0.001330470207,0.0003164892212,-0.0006842955849,-0.0009657228969,2.181426323,-0.000487590494,0.001080381616,-0.0006828922465,-0.0004390591197,-0.000242381478,-0.001991206624,-0.000107522813,0.001375594434,-0.000733258058,2.182806728,0.0004084277109,8.390844828e-06,-0.0008578185077,0.001979266136,-0.0001193148881,0.002286682784,0.001575936427,0.0006951964516,0.0007621177736,2.182237575,0.0009618791086,-0.0008553912196,-0.0004097345539],
			[-0.02674538317,1.646314009,-0.1700281241,-0.0991008048,-1.232628258,-1.493342251e-05,0.0004894520386,1.259750505,-0.0165580432,-0.1341646075,-0.02727555379,1.645580577,-0.1692894364,-0.1000693999,-1.232824862,0.0001300148778,-0.0001476108457,1.260010789,-0.01611211785,-0.132440983,-0.02734272322,1.645074244,-0.1699255545,-0.101552882,-1.233031233,0.001204466526,-0.0003113488077,1.258761604,-0.01721229477,-0.1333927278],
			[-1.720649789,0.1209524463,-2.057437628,-2.79965507,-0.0886875964,-0.0009093239934,0.0009224431852,2.617750015,2.109060212,-3.735248166,-1.719210103,0.1220477731,-2.05773778,-2.799376072,-0.0888127398,2.619749438e-05,-0.0003109962445,2.61869795,2.109828,-3.734643798,-1.718047384,0.1176787262,-2.05604358,-2.798965919,-0.09002583074,-0.001553572956,0.00226714827,2.618918099,2.110678969,-3.73205514],
			[1.042200974,-0.07309055678,0.007901115581,1.694567427,0.05555925977,0.0007452429004,0.0004008833086,-1.584745792,-0.0002158698457,2.259046628,1.040494304,-0.07029131934,0.006596408541,1.693857709,0.05672114718,0.0003469535914,-2.863769664e-05,-1.584639384,-0.0002525848481,2.260815416,1.04027475,-0.07341754776,0.008461843995,1.693608464,0.05568610666,-0.001605577543,-0.001856427603,-1.585025345,0.0008711577734,2.25848915]
		],
		"E": [
			[0.0006821857586,-0.001120941868,-0.0001190238713,0.00112018012,0.0004198804977,0.0004965098012,-0.0002663923722,0.00162835173,-0.0005481678052,-0.001827567659,-0.0003017562569,-0.0004844972581,-0.001395990432,-0.002229872917,0.001528365637,0.001394596716,-0.002233995558,0.001735969115,0.001583093127,-0.001435944147,0.0001332233834,0.001323762637,-0.0001672616865,0.0008428631656,0.0001164376924,-0.0008402421837,-0.001077844278,0.0004622838449,-0.0004387829036,-0.002091855732],
			[-0.001143069988,-0.0006226277344,0.001153101044,0.0007983802768,-0.001815825971,0.000475265842,6.217123548e-05,-0.0007120293483,0.001429589028,-0.000770565766,-0.001554958979,0.0006462036441,-0.001251429396,-0.0003747899631,0.001302888745,0.0004595566228,-0.0002417282893,-0.001789360704,-0.001065095309,0.0001577741886,0.001700177571,0.0005625091357,-0.0005075087718,0.001357590742,-7.769255519e-05,0.0001440701785,-0.001177714526,-0.0004007728005,-0.0007411765664,0.0007172978649],
			[0.0001014086818,-4.534962586e-05,5.818340614e-05,-0.0002130868244,0.0009018261504,-0.0003291042688,-0.0002139318428,0.001089281008,-0.0007707046844,-0.0007911320088,-0.0002560475524,0.0003370018735,-0.001990907453,-0.001359821396,-0.0006188013999,-0.001321840171,0.0004158789911,-0.0002666777856,0.0005299471893,-0.001648984666,-0.0004457836656,0.00171672124,2.739148561e-05,0.0007375920068,-0.0003499762508,0.001437957486,-0.0002868192807,0.0002163088996,0.0003407408044,-0.0008520759755],
			[0.0009577854087,0.0002396428427,0.0004381123844,-0.0003417344236,0.0009613106014,0.001128864344,-1.97707722e-05,0.000954151438,-0.001034343678,0.0009196068254,0.001115193809,-3.020076164e-05,-4.735017298e-05,0.0009074986636,-0.0009990466497,-0.0007308685598,0.0002038814152,-4.548637761e-05,0.0004627555016,7.41607117e-05,0.0004371314199,0.0005173685938,0.0001306825907,0.001737655045,-0.000559981822,-0.001019940237,0.001270980078,-0.0001733913662,-0.0005709296941,-0.0001071248046],
			[0.0006001617077,0.0003854989213,0.0001491094685,-0.00100678524,0.0004611728916,-0.0008632085832,0.001074102875,2.532753118e-05,0.0005627292129,-2.200368994e-05,-8.745249752e-05,0.0001128987538,0.002444370389,-0.00197434676,0.0008353604732,0.001616531047,0.0009429836892,-0.001047268812,-7.579952043e-05,-0.0008180090339,0.0004368254951,0.001578533501,0.0006050340124,-0.0009475879596,0.001378405364,0.0004560036265,-0.00122279069,0.0001767751275,-0.002081187258,-0.0005805961898],
			[-0.001395887622,-0.0009126007921,0.0005101793202,-0.0002940455113,0.001440179724,-0.0007413584591,-0.002020402757,0.0005806586644,-0.0007782589026,0.00091861792,0.001450692324,-0.0007959934429,-0.0005327559492,-6.328251092e-05,-0.0009086293002,-0.0001683859646,0.0007586137104,0.0002698371072,-2.880214538e-05,-0.0006279536984,-0.0005383338944,0.0001159028144,0.0001123235396,-0.001128425571,-0.0005483851426,0.0004295580201,0.001069655608,0.001060652866,-0.0002756858001,-0.0002220036235],
			[0.001437206209,-0.001042442926,0.001330470207,0.0003164892212,-0.0006842955849,-0.0009657228969,-0.001026754417,-0.000487590494,0.001080381616,-0.0006828922465,-0.0004390591197,-0.000242381478,-0.001991206624,-0.000107522813,0.001375594434,-0.000733258058,0.0003536508542,0.0004084277109,8.390844828e-06,-0.0008578185077,0.001979266136,-0.0001193148881,0.002286682784,0.001575936427,0.0006951964516,0.0007621177736,-0.0002155022264,0.0009618791086,-0.0008553912196,-0.0004097345539],
			[9.156180779e-06,0.0002664632024,-0.001164016666,0.001119944103,0.000655082567,-1.493342251e-05,0.0004894520386,0.001393127378,-0.0001593833327,-0.0004893879385,-0.0005210144373,-0.0004669688021,-0.0004253289604,0.0001513490521,0.0004584788331,0.0001300148778,-0.0001476108457,0.001653411493,0.0002865420232,0.001234236541,-0.0005881838668,-0.0009733023048,-0.001061447101,-0.001332133074,0.0002521081321,0.001204466526,-0.0003113488077,0.0004042269198,-0.0008136348984,0.0002824917451],
			[-0.001373772104,0.0003631347243,-0.0004144429095,-0.0008712376958,0.001662642538,-0.0009093239934,0.0009224431852,-0.0005053332013,-0.0003336112883,-0.002208378813,6.591423055e-05,0.001458461476,-0.0007145956639,-0.0005922401866,0.001537499138,2.619749437e-05,-0.0003109962445,0.0004426021186,0.0004341766358,-0.001604010383,0.001228633085,-0.00291058537,0.0009796051555,-0.0001820870801,0.0003244081906,-0.001553572956,0.00226714827,0.0006627516466,0.001285145675,0.0009846475098],
			[0.001714382099,-0.0001112558721,0.0004143424704,0.0007747948979,0.0008803069925,0.0007452429004,0.0004008833086,-0.0002069774536,-0.0009429221938,-0.0001472449966,7.712111338e-06,0.002687981561,-0.0008903645698,6.507736878e-05,0.002042194397,0.0003469535914,-2.863769664e-05,-0.0001005694714,-0.0009796371961,0.001621542572,-0.0002118417343,-0.0004382468532,0.0009750708841,-0.0001841677068,0.001007153884,-0.001605577543,-0.001856427603,-0.0004865303992,0.0001441054253,-0.0007047232157]
		],
		"cvY": [
			[9.352040404e-07,0,0,0,0,0,0,0,0,0],
			[0,9.352040404e-07,0,0,0,0,0,0,0,0],
			[0,0,9.352040404e-07,0,0,0,0,0,0,0],
			[0,0,0,9.352040404e-07,0,0,0,0,0,0],
			[0,0,0,0,9.352040404e-07,0,0,0,0,0],
			[0,0,0,0,0,9.352040404e-07,0,0,0,0],
			[0,0,0,0,0,0,9.352040404e-07,0,0,0],
			[0,0,0,0,0,0,0,9.352040404e-07,0,0],
			[0,0,0,0,0,0,0,0,9.352040404e-07,0],
			[0,0,0,0,0,0,0,0,0,9.352040404e-07]
		],
		"sdY": [
			[0.0009670594813,0.0009670594813,0.0009670594813,0.0009670594813,0.0009670594813,0.0009670594813,0.0009670594813,0.0009670594813,0.0009670594813,0.0009670594813,0.0009670594813,0.0009670594813,0.0009670594813,0.0009670594813,0.0009670594813,0.0009670594813,0.0009670594813,0.0009670594813,0.0009670594813,0.0009670594813,0.0009670594813,0.0009670594813,0.0009670594813,0.0009670594813,0.0009670594813,0.0009670594813,0.0009670594813,0.0009670594813,0.0009670594813,0.0009670594813],
			[0.0009670594813,0.0009670594813,0.0009670594813,0.0009670594813,0.0009670594813,0.0009670594813,0.0009670594813,0.0009670594813,0.0009670594813,0.0009670594813,0.0009670594813,0.0009670594813,0.0009670594813,0.0009670594813,0.0009670594813,0.0009670594813,0.0009670594813,0.0009670594813,0.0009670594813,0.0009670594813,0.0009670594813,0.0009670594813,0.0009670594813,0.0009670594813,0.0009670594813,0.0009670594813,0.0009670594813,0.0009670594813,0.0009670594813,0.0009670594813],
			[0.0009670594813,0.0009670594813,0.0009670594813,0.0009670594813,0.0009670594813,0.0009670594813,0.0009670594813,0.0009670594813,0.0009670594813,0.0009670594813,0.0009670594813,0.0009670594813,0.0009670594813,0.0009670594813,0.0009670594813,0.0009670594813,0.0009670594813,0.0009670594813,0.0009670594813,0.0009670594813,0.0009670594813,0.0009670594813,0.0009670594813,0.0009670594813,0.0009670594813,0.0009670594813,0.0009670594813,0.0009670594813,0.0009670594813,0.0009670594813],
			[0.0009670594813,0.0009670594813,0.0009670594813,0.0009670594813,0.0009670594813,0.0009670594813,0.0009670594813,0.0009670594813,0.0009670594813,0.0009670594813,0.0009670594813,0.0009670594813,0.0009670594813,0.0009670594813,0.0009670594813,0.0009670594813,0.0009670594813,0.0009670594813,0.0009670594813,0.0009670594813,0.0009670594813,0.0009670594813,0.0009670594813,0.0009670594813,0.0009670594813,0.0009670594813,0.0009670594813,0.0009670594813,0.0009670594813,0.0009670594813],
			[0.0009670594813,0.0009670594813,0.0009670594813,0.0009670594813,0.0009670594813,0.0009670594813,0.0009670594813,0.0009670594813,0.0009670594813,0.0009670594813,0.0009670594813,0.0009670594813,0.0009670594813,0.0009670594813,0.0009670594813,0.0009670594813,0.0009670594813,0.0009670594813,0.0009670594813,0.0009670594813,0.0009670594813,0.0009670594813,0.0009670594813,0.0009670594813,0.0009670594813,0.0009670594813,0.0009670594813,0.0009670594813,0.0009670594813,0.0009670594813],
			[0.0009670594813,0.0009670594813,0.0009670594813,0.0009670594813,0.0009670594813,0.0009670594813,0.0009670594813,0.0009670594813,0.0009670594813,0.0009670594813,0.0009670594813,0.0009670594813,0.0009670594813,0.0009670594813,0.0009670594813,0.0009670594813,0.0009670594813,0.0009670594813,0.0009670594813,0.0009670594813,0.0009670594813,0.0009670594813,0.0009670594813,0.0009670594813,0.0009670594813,0.0009670594813,0.0009670594813,0.0009670594813,0.0009670594813,0.0009670594813],
			[0.0009670594813,0.0009670594813,0.0009670594813,0.0009670594813,0.0009670594813,0.0009670594813,0.0009670594813,0.0009670594813,0.0009670594813,0.0009670594813,0.0009670594813,0.0009670594813,0.0009670594813,0.0009670594813,0.0009670594813,0.0009670594813,0.0009670594813,0.0009670594813,0.0009670594813,0.0009670594813,0.0009670594813,0.0009670594813,0.0009670594813,0.0009670594813,0.0009670594813,0.0009670594813,0.0009670594813,0.0009670594813,0.0009670594813,0.0009670594813],
			[0.0009670594813,0.0009670594813,0.0009670594813,0.0009670594813,0.0009670594813,0.0009670594813,0.0009670594813,0.0009670594813,0.0009670594813,0.0009670594813,0.0009670594813,0.0009670594813,0.0009670594813,0.0009670594813,0.0009670594813,0.0009670594813,0.0009670594813,0.0009670594813,0.0009670594813,0.0009670594813,0.0009670594813,0.0009670594813,0.0009670594813,0.0009670594813,0.0009670594813,0.0009670594813,0.0009670594813,0.0009670594813,0.0009670594813,0.0009670594813],
			[0.0009670594813,0.0009670594813,0.0009670594813,0.0009670594813,0.0009670594813,0.0009670594813,0.0009670594813,0.0009670594813,0.0009670594813,0.0009670594813,0.0009670594813,0.0009670594813,0.0009670594813,0.0009670594813,0.0009670594813,0.0009670594813,0.0009670594813,0.0009670594813,0.0009670594813,0.0009670594813,0.0009670594813,0.0009670594813,0.0009670594813,0.0009670594813,0.0009670594813,0.0009670594813,0.0009670594813,0.0009670594813,0.0009670594813,0.0009670594813],
			[0.0009670594813,0.0009670594813,0.0009670594813,0.0009670594813,0.0009670594813,0.0009670594813,0.0009670594813,0.0009670594813,0.0009670594813,0.0009670594813,0.0009670594813,0.0009670594813,0.0009670594813,0.0009670594813,0.0009670594813,0.0009670594813,0.0009670594813,0.0009670594813,0.0009670594813,0.0009670594813,0.0009670594813,0.0009670594813,0.0009670594813,0.0009670594813,0.0009670594813,0.0009670594813,0.0009670594813,0.0009670594813,0.0009670594813,0.0009670594813]
		],
		"lambda": [9.352040404e-07,0],
		"SNR_L": 100,
		"names": [
			"G01",
			"G02",
			"G03",
			"G04",
			"G05",
			"G06",
			"G07",
			"G08",
			"G09",
			"G10"
		],
		"description": "",
		"N": 10,
		"M": 30,
		"created": {
			"creator": "sparx",
			"time": 736279.7794,
			"id": "94429",
			"nexp": ""
		},
		"tol": 2.220446049e-16
	}
}
