{
	"obj_data": {
		"dataset": "Tjarnberg-ID99523-D20151111-N10-E30-SNR100000-IDY99523",
		"network": "Tjarnberg-D20131025-random-N10-L25-ID99523",
		"P": [
			[1,0,0,0,0,0,0,0,0,0,1,0,0,0,0,0,0,0,0,0,1,0,0,0,0,0,0,0,0,0],
			[0,1,0,0,0,0,0,0,0,0,0,1,0,0,0,0,0,0,0,0,0,1,0,0,0,0,0,0,0,0],
			[0,0,1,0,0,0,0,0,0,0,0,0,1,0,0,0,0,0,0,0,0,0,1,0,0,0,0,0,0,0],
			[0,0,0,1,0,0,0,0,0,0,0,0,0,1,0,0,0,0,0,0,0,0,0,1,0,0,0,0,0,0],
			[0,0,0,0,1,0,0,0,0,0,0,0,0,0,1,0,0,0,0,0,0,0,0,0,1,0,0,0,0,0],
			[0,0,0,0,0,1,0,0,0,0,0,0,0,0,0,1,0,0,0,0,0,0,0,0,0,1,0,0,0,0],
			[0,0,0,0,0,0,1,0,0,0,0,0,0,0,0,0,1,0,0,0,0,0,0,0,0,0,1,0,0,0],
			[0,0,0,0,0,0,0,1,0,0,0,0,0,0,0,0,0,1,0,0,0,0,0,0,0,0,0,1,0,0],
			[0,0,0,0,0,0,0,0,1,0,0,0,0,0,0,0,0,0,1,0,0,0,0,0,0,0,0,0,1,0],
			[0,0,0,0,0,0,0,0,0,1,0,0,0,0,0,0,0,0,0,1,0,0,0,0,0,0,0,0,0,1]
		],
		"F": [
			[0,0,0,0,0,0,0,0,0,0,0,0,0,0,0,0,0,0,0,0,0,0,0,0,0,0,0,0,0,0],
			[0,0,0,0,0,0,0,0,0,0,0,0,0,0,0,0,0,0,0,0,0,0,0,0,0,0,0,0,0,0],
			[0,0,0,0,0,0,0,0,0,0,0,0,0,0,0,0,0,0,0,0,0,0,0,0,0,0,0,0,0,0],
			[0,0,0,0,0,0,0,0,0,0,0,0,0,0,0,0,0,0,0,0,0,0,0,0,0,0,0,0,0,0],
			[0,0,0,0,0,0,0,0,0,0,0,0,0,0,0,0,0,0,0,0,0,0,0,0,0,0,0,0,0,0],
			[0,0,0,0,0,0,0,0,0,0,0,0,0,0,0,0,0,0,0,0,0,0,0,0,0,0,0,0,0,0],
			[0,0,0,0,0,0,0,0,0,0,0,0,0,0,0,0,0,0,0,0,0,0,0,0,0,0,0,0,0,0],
			[0,0,0,0,0,0,0,0,0,0,0,0,0,0,0,0,0,0,0,0,0,0,0,0,0,0,0,0,0,0],
			[0,0,0,0,0,0,0,0,0,0,0,0,0,0,0,0,0,0,0,0,0,0,0,0,0,0,0,0,0,0],
			[0,0,0,0,0,0,0,0,0,0,0,0,0,0,0,0,0,0,0,0,0,0,0,0,0,0,0,0,0,0]
		],
		"cvP": [
			[0,0,0,0,0,0,0,0,0,0],
			[0,0,0,0,0,0,0,0,0,0],
			[0,0,0,0,0,0,0,0,0,0],
			[0,0,0,0,0,0,0,0,0,0],
			[0,0,0,0,0,0,0,0,0,0],
			[0,0,0,0,0,0,0,0,0,0],
			[0,0,0,0,0,0,0,0,0,0],
			[0,0,0,0,0,0,0,0,0,0],
			[0,0,0,0,0,0,0,0,0,0],
			[0,0,0,0,0,0,0,0,0,0]
		],
		"sdP": [
			[0,0,0,0,0,0,0,0,0,0,0,0,0,0,0,0,0,0,0,0,0,0,0,0,0,0,0,0,0,0],
			[0,0,0,0,0,0,0,0,0,0,0,0,0,0,0,0,0,0,0,0,0,0,0,0,0,0,0,0,0,0],
			[0,0,0,0,0,0,0,0,0,0,0,0,0,0,0,0,0,0,0,0,0,0,0,0,0,0,0,0,0,0],
			[0,0,0,0,0,0,0,0,0,0,0,0,0,0,0,0,0,0,0,0,0,0,0,0,0,0,0,0,0,0],
			[0,0,0,0,0,0,0,0,0,0,0,0,0,0,0,0,0,0,0,0,0,0,0,0,0,0,0,0,0,0],
			[0,0,0,0,0,0,0,0,0,0,0,0,0,0,0,0,0,0,0,0,0,0,0,0,0,0,0,0,0,0],
			[0,0,0,0,0,0,0,0,0,0,0,0,0,0,0,0,0,0,0,0,0,0,0,0,0,0,0,0,0,0],
			[0,0,0,0,0,0,0,0,0,0,0,0,0,0,0,0,0,0,0,0,0,0,0,0,0,0,0,0,0,0],
			[0,0,0,0,0,0,0,0,0,0,0,0,0,0,0,0,0,0,0,0,0,0,0,0,0,0,0,0,0,0],
			[0,0,0,0,0,0,0,0,0,0,0,0,0,0,0,0,0,0,0,0,0,0,0,0,0,0,0,0,0,0]
		],
		"Y": [
			[4.936481344,-0.001063435595,-0.0001129177391,0.001062712926,0.0003983398957,0.0004710379823,-0.0002527259788,0.001544814446,-0.0005200458406,-0.00173381025,4.93554788,-0.0004596417036,-0.001324373687,-0.002115476547,0.001449957814,0.001323051472,-0.002119387689,0.001646910871,0.001501877688,-0.001362277707,4.935960545,0.001255851305,-0.0001586808702,0.000799622815,0.0001104642357,-0.000797136294,-0.001022548987,0.0004385678772,-0.0004162725752,-0.001984539884],
			[-0.1387036157,2.533553951,-0.5486544391,-0.3670413509,-0.2972627461,-0.02297030135,5.898174265e-05,-0.0006755010007,0.1353355017,0.2793093369,-0.1390943741,2.53475769,-0.5509356129,-0.3681543355,-0.2943040269,-0.02298520466,-0.0002293272064,-0.001697563379,0.1329687991,0.2801900514,-0.1360062317,2.534678289,-0.5502298567,-0.3665108289,-0.295613782,-0.0232845061,-0.001117295716,-0.0003802124567,0.1332761002,0.2807208705],
			[-0.5629944622,0.923616282,0.5883571944,-1.505109,-1.208393395,-0.09614370395,-0.0002029567661,0.001033398992,0.5474661362,1.145078921,-0.5633335803,0.9239790182,0.5864132255,-1.506196905,-1.209836012,-0.09708551077,0.0003945436734,-0.00025299675,0.5487000623,1.144265077,-0.5635135826,0.9252879556,0.5883279822,-1.504207093,-1.209580978,-0.09446729555,-0.0002721049513,0.0002052118757,0.5485205626,1.145021103],
			[0.7828086847,1.772511372,1.094438987,0.8076065456,0.6501145788,-0.1828070279,-1.87564971e-05,0.0009052018048,1.05087985,2.199448511,0.7829580177,1.772255372,1.09397843,0.8087916909,0.6482547913,-0.1845713532,0.000193421943,-4.315284709e-05,1.052300145,2.198646438,0.7823147411,1.77277485,1.094147329,0.8095792588,0.6486713313,-0.184845595,0.001205776583,-0.0001644960867,1.05131949,2.198474453],
			[-0.005756540081,0.01074235992,-0.0251287093,-0.0178616648,2.70794092,-0.001895521208,0.001018999524,2.402818465e-05,0.006692456577,0.01285168241,-0.006408878478,0.01048374461,-0.02295119926,-0.01877958873,2.708295911,0.0004570034528,0.000894606981,-0.0009935420953,0.006086685482,0.01209651353,-0.005911496861,0.01187418974,-0.02469617448,-0.01780550445,2.708811097,-0.0006439868862,-0.001160059394,0.0001677062551,0.004184177634,0.01232174668],
			[-4.012203309,0.2944621266,0.1885858286,-0.4814531227,-0.3852751465,1.848355067,-0.001916752572,0.0005508698621,0.1745405414,0.3672353863,-4.009502764,0.2945727518,0.1875963977,-0.4812341983,-0.3875034575,1.848898645,0.0007196955038,0.000255993993,0.1752515498,0.3657681565,-4.01138975,0.2954378662,0.1882083835,-0.4822446977,-0.3871616945,1.849465913,0.001014780409,0.001006239524,0.1750173317,0.3661532806],
			[-6.570878901,-0.173231882,0.4540828089,-0.6968288945,-0.5608185429,3.051540637,2.550046328,-0.0004625762511,-0.03934025953,0.530143214,-6.572658911,-0.1724728651,0.4509315399,-0.697231154,-0.5588643288,3.051761176,2.551355916,0.0003874746569,-0.0403572553,0.5299772618,-6.57036465,-0.172356112,0.4549899661,-0.6956340591,-0.5595098212,3.053179836,2.550815962,0.0009125330324,-0.04117672384,0.5304023583],
			[8.686452733e-06,0.0002527931753,-0.001104300581,0.001062489017,0.0006214756886,-1.416731189e-05,0.0004643422952,2.118171785,-0.0001512066897,-0.0004642814835,-0.0004942854878,-0.000443012488,-0.0004035088428,0.0001435845817,0.0004349580692,0.0001233448878,-0.0001400381518,2.118418716,0.0002718419176,0.001170918053,-0.0005580090084,-0.0009233701988,-0.001006993013,-0.001263792324,0.0002391745451,0.001142675292,-0.0002953760707,2.117233616,-0.0007718940088,0.0002679994258],
			[0.5236649354,3.509987562,-0.806931731,-0.4316954308,-0.3446419273,-0.3649950962,0.0008751202407,-0.0004794087266,2.082677574,0.3259665958,0.5250307633,3.511026697,-0.8072164854,-0.4314307464,-0.3447606506,-0.3641075686,-0.0002950415947,0.0004198958578,2.083405973,0.3265399591,0.5261338327,3.50688179,-0.8056092,-0.4310416348,-0.3459115079,-0.3656062941,0.002150839609,0.0006287513311,2.084213286,0.3289958143],
			[-0.3924028609,0.6462358718,-1.573638639,-1.052341149,-0.8453509784,-0.06635219253,0.0003803172955,-0.0001963591492,0.3827129362,0.801667902,-0.3940219757,0.6488915035,-1.574876412,-1.053014457,-0.8442486978,-0.0667300489,-2.716853284e-05,-9.541008209e-05,0.3826781047,0.8033459477,-0.3942302661,0.645925656,-1.573106677,-1.053250915,-0.845230639,-0.06858241179,-0.001761189628,-0.000461570541,0.3837441974,0.8011390234]
		],
		"E": [
			[0.0006471884392,-0.001063435595,-0.0001129177391,0.001062712926,0.0003983398957,0.0004710379823,-0.0002527259788,0.001544814446,-0.0005200458406,-0.00173381025,-0.0002862756346,-0.0004596417036,-0.001324373687,-0.002115476547,0.001449957814,0.001323051472,-0.002119387689,0.001646910871,0.001501877688,-0.001362277707,0.0001263887914,0.001255851305,-0.0001586808702,0.000799622815,0.0001104642357,-0.000797136294,-0.001022548987,0.0004385678772,-0.0004162725752,-0.001984539884],
			[-0.001084428504,-0.0005906858456,0.001093944949,0.0007574219759,-0.001722670931,0.0004508838752,5.898174265e-05,-0.0006755010007,0.001356248618,-0.0007310343981,-0.001475186871,0.0006130522699,-0.001187228885,-0.0003555625842,0.00123604828,0.0004359805664,-0.0002293272064,-0.001697563379,-0.001010454062,0.0001496800975,0.001612955495,0.0005336514358,-0.0004814726866,0.001287943969,-7.370679159e-05,0.000136679127,-0.001117295716,-0.0003802124567,-0.0007031529156,0.0006804992332],
			[9.62062395e-05,-4.302311095e-05,5.519849591e-05,-0.0002021550986,0.0008555608957,-0.0003122206457,-0.0002029567661,0.001033398992,-0.0007311661897,-0.0007505455567,-0.0002429118663,0.0003197130895,-0.001888770428,-0.001290060187,-0.0005870558087,-0.001254027464,0.0003945436734,-0.00025299675,0.0005027599741,-0.001564388876,-0.000422914186,0.001628650446,2.598625462e-05,0.0006997522502,-0.0003320218587,0.001364187759,-0.0002721049513,0.0002052118757,0.0003232602068,-0.0008083629916],
			[0.0009086493465,0.0002273487468,0.0004156364548,-0.0003242028516,0.0009119936906,0.001070951634,-1.87564971e-05,0.0009052018048,-0.0009812800427,0.0008724293911,0.001057982421,-2.865140989e-05,-4.492102651e-05,0.0008609423991,-0.0009477938139,-0.0006933737278,0.000193421943,-4.31528471e-05,0.0004390153372,7.035613783e-05,0.0004147058155,0.0004908266825,0.0001239783458,0.00164851031,-0.0005312537778,-0.0009676155234,0.001205776583,-0.0001644960867,-0.0005416400049,-0.0001016291153],
			[0.0005693723652,0.0003657221541,0.0001414598926,-0.000955135401,0.0004375139178,-0.0008189244771,0.001018999524,2.402818465e-05,0.0005338602227,-2.087486227e-05,-8.296603185e-05,0.0001071068508,0.002318969924,-0.001873059327,0.0007925050237,0.001533600184,0.000894606981,-0.0009935420953,-7.191087281e-05,-0.0007760437435,0.0004144155852,0.001497551979,0.0005739947121,-0.0008989750444,0.001307690764,0.000432609845,-0.001160059394,0.0001677062551,-0.001974418721,-0.0005508105925],
			[-0.001324276152,-0.0008657827796,0.0004840062311,-0.0002789604636,0.001366295992,-0.000703325477,-0.001916752572,0.0005508698621,-0.0007383328633,0.0008714912183,0.001376269277,-0.0007551575907,-0.0005054246397,-6.003600772e-05,-0.0008620150321,-0.0001597474709,0.0007196955038,0.0002559939929,-2.732454508e-05,-0.0005957385783,-0.0005107164266,0.0001099567979,0.0001065611461,-0.001070535371,-0.0005202520282,0.0004075209443,0.001014780409,0.001006239524,-0.0002615426376,-0.0002106144504],
			[0.001363475024,-0.0009889637856,0.001262214765,0.0003002527721,-0.0006491900278,-0.0009161796277,-0.0009740801248,-0.0004625762511,0.001024956155,-0.000647858683,-0.000416534621,-0.0002299468854,-0.001889054251,-0.0001020067052,0.00130502404,-0.0006956406405,0.0003355079485,0.0003874746569,7.960379852e-06,-0.0008138109219,0.001877726331,-0.0001131938262,0.002169371969,0.001495088139,0.0006595316609,0.0007230198024,-0.0002044465863,0.0009125330324,-0.0008115081579,-0.0003887144566],
			[8.686452733e-06,0.0002527931753,-0.001104300581,0.001062489017,0.0006214756886,-1.416731189e-05,0.0004643422952,0.001321657513,-0.0001512066897,-0.0004642814835,-0.0004942854878,-0.000443012488,-0.0004035088428,0.0001435845817,0.0004349580692,0.0001233448878,-0.0001400381518,0.0015685886,0.0002718419176,0.001170918053,-0.0005580090084,-0.0009233701988,-0.001006993013,-0.001263792324,0.0002391745451,0.001142675292,-0.0002953760707,0.0003834893737,-0.0007718940088,0.0002679994258],
			[-0.001303295199,0.0003445052795,-0.0003931812653,-0.0008265416822,0.001577346076,-0.0008626740864,0.0008751202407,-0.0004794087266,-0.0003164964473,-0.002095085127,6.253271554e-05,0.001383639858,-0.0006779356598,-0.000561857232,0.00145862275,2.485351721e-05,-0.0002950415947,0.0004198958578,0.000411902617,-0.001521721852,0.001165602064,-0.002761267264,0.0009293497022,-0.0001727456952,0.0003077654845,-0.001473871954,0.002150839609,0.0006287513311,0.00121921546,0.000934133375],
			[0.001626431307,-0.0001055482518,0.0003930859789,0.0007350465681,0.0008351457082,0.0007070106396,0.0003803172955,-0.0001963591492,-0.0008945486404,-0.0001396910714,7.316466573e-06,0.002550083418,-0.0008446873142,6.173878625e-05,0.001937426262,0.0003291542669,-2.716853284e-05,-9.54100821e-05,-0.0009293800991,0.00153835461,-0.0002009738838,-0.0004157640251,0.0009250480469,-0.0001747195822,0.0009554851331,-0.001523208614,-0.001761189628,-0.000461570541,0.0001367125656,-0.0006685696854]
		],
		"cvY": [
			[8.417101777e-07,0,0,0,0,0,0,0,0,0],
			[0,8.417101777e-07,0,0,0,0,0,0,0,0],
			[0,0,8.417101777e-07,0,0,0,0,0,0,0],
			[0,0,0,8.417101777e-07,0,0,0,0,0,0],
			[0,0,0,0,8.417101777e-07,0,0,0,0,0],
			[0,0,0,0,0,8.417101777e-07,0,0,0,0],
			[0,0,0,0,0,0,8.417101777e-07,0,0,0],
			[0,0,0,0,0,0,0,8.417101777e-07,0,0],
			[0,0,0,0,0,0,0,0,8.417101777e-07,0],
			[0,0,0,0,0,0,0,0,0,8.417101777e-07]
		],
		"sdY": [
			[0.000917447643,0.000917447643,0.000917447643,0.000917447643,0.000917447643,0.000917447643,0.000917447643,0.000917447643,0.000917447643,0.000917447643,0.000917447643,0.000917447643,0.000917447643,0.000917447643,0.000917447643,0.000917447643,0.000917447643,0.000917447643,0.000917447643,0.000917447643,0.000917447643,0.000917447643,0.000917447643,0.000917447643,0.000917447643,0.000917447643,0.000917447643,0.000917447643,0.000917447643,0.000917447643],
			[0.000917447643,0.000917447643,0.000917447643,0.000917447643,0.000917447643,0.000917447643,0.000917447643,0.000917447643,0.000917447643,0.000917447643,0.000917447643,0.000917447643,0.000917447643,0.000917447643,0.000917447643,0.000917447643,0.000917447643,0.000917447643,0.000917447643,0.000917447643,0.000917447643,0.000917447643,0.000917447643,0.000917447643,0.000917447643,0.000917447643,0.000917447643,0.000917447643,0.000917447643,0.000917447643],
			[0.000917447643,0.000917447643,0.000917447643,0.000917447643,0.000917447643,0.000917447643,0.000917447643,0.000917447643,0.000917447643,0.000917447643,0.000917447643,0.000917447643,0.000917447643,0.000917447643,0.000917447643,0.000917447643,0.000917447643,0.000917447643,0.000917447643,0.000917447643,0.000917447643,0.000917447643,0.000917447643,0.000917447643,0.000917447643,0.000917447643,0.000917447643,0.000917447643,0.000917447643,0.000917447643],
			[0.000917447643,0.000917447643,0.000917447643,0.000917447643,0.000917447643,0.000917447643,0.000917447643,0.000917447643,0.000917447643,0.000917447643,0.000917447643,0.000917447643,0.000917447643,0.000917447643,0.000917447643,0.000917447643,0.000917447643,0.000917447643,0.000917447643,0.000917447643,0.000917447643,0.000917447643,0.000917447643,0.000917447643,0.000917447643,0.000917447643,0.000917447643,0.000917447643,0.000917447643,0.000917447643],
			[0.000917447643,0.000917447643,0.000917447643,0.000917447643,0.000917447643,0.000917447643,0.000917447643,0.000917447643,0.000917447643,0.000917447643,0.000917447643,0.000917447643,0.000917447643,0.000917447643,0.000917447643,0.000917447643,0.000917447643,0.000917447643,0.000917447643,0.000917447643,0.000917447643,0.000917447643,0.000917447643,0.000917447643,0.000917447643,0.000917447643,0.000917447643,0.000917447643,0.000917447643,0.000917447643],
			[0.000917447643,0.000917447643,0.000917447643,0.000917447643,0.000917447643,0.000917447643,0.000917447643,0.000917447643,0.000917447643,0.000917447643,0.000917447643,0.000917447643,0.000917447643,0.000917447643,0.000917447643,0.000917447643,0.000917447643,0.000917447643,0.000917447643,0.000917447643,0.000917447643,0.000917447643,0.000917447643,0.000917447643,0.000917447643,0.000917447643,0.000917447643,0.000917447643,0.000917447643,0.000917447643],
			[0.000917447643,0.000917447643,0.000917447643,0.000917447643,0.000917447643,0.000917447643,0.000917447643,0.000917447643,0.000917447643,0.000917447643,0.000917447643,0.000917447643,0.000917447643,0.000917447643,0.000917447643,0.000917447643,0.000917447643,0.000917447643,0.000917447643,0.000917447643,0.000917447643,0.000917447643,0.000917447643,0.000917447643,0.000917447643,0.000917447643,0.000917447643,0.000917447643,0.000917447643,0.000917447643],
			[0.000917447643,0.000917447643,0.000917447643,0.000917447643,0.000917447643,0.000917447643,0.000917447643,0.000917447643,0.000917447643,0.000917447643,0.000917447643,0.000917447643,0.000917447643,0.000917447643,0.000917447643,0.000917447643,0.000917447643,0.000917447643,0.000917447643,0.000917447643,0.000917447643,0.000917447643,0.000917447643,0.000917447643,0.000917447643,0.000917447643,0.000917447643,0.000917447643,0.000917447643,0.000917447643],
			[0.000917447643,0.000917447643,0.000917447643,0.000917447643,0.000917447643,0.000917447643,0.000917447643,0.000917447643,0.000917447643,0.000917447643,0.000917447643,0.000917447643,0.000917447643,0.000917447643,0.000917447643,0.000917447643,0.000917447643,0.000917447643,0.000917447643,0.000917447643,0.000917447643,0.000917447643,0.000917447643,0.000917447643,0.000917447643,0.000917447643,0.000917447643,0.000917447643,0.000917447643,0.000917447643],
			[0.000917447643,0.000917447643,0.000917447643,0.000917447643,0.000917447643,0.000917447643,0.000917447643,0.000917447643,0.000917447643,0.000917447643,0.000917447643,0.000917447643,0.000917447643,0.000917447643,0.000917447643,0.000917447643,0.000917447643,0.000917447643,0.000917447643,0.000917447643,0.000917447643,0.000917447643,0.000917447643,0.000917447643,0.000917447643,0.000917447643,0.000917447643,0.000917447643,0.000917447643,0.000917447643]
		],
		"lambda": [8.417101777e-07,0],
		"SNR_L": 100,
		"names": [
			"G01",
			"G02",
			"G03",
			"G04",
			"G05",
			"G06",
			"G07",
			"G08",
			"G09",
			"G10"
		],
		"description": "",
		"N": 10,
		"M": 30,
		"created": {
			"creator": "sparx",
			"time": 736279.7794,
			"id": "99523",
			"nexp": ""
		},
		"tol": 2.220446049e-16
	}
}
